*Vertices 1897
1 "1074418"
2 "1480367"
3 "183906"
4 "1273506"
5 "930237"
6 "1368951"
7 "7166"
8 "410574"
9 "296907"
10 "582179"
11 "24720"
12 "930472"
13 "1685420"
14 "850345"
15 "1097250"
16 "1329435"
17 "1383796"
18 "831917"
19 "1085378"
20 "1004867"
21 "798283"
22 "565596"
23 "347578"
24 "842493"
25 "773714"
26 "569463"
27 "266920"
28 "280715"
29 "359114"
30 "482372"
31 "773715"
32 "1321447"
33 "1006454"
34 "264914"
35 "292126"
36 "773356"
37 "389415"
38 "1415774"
39 "1704318"
40 "1613561"
41 "640809"
42 "532196"
43 "704759"
44 "1028129"
45 "498165"
46 "1645860"
47 "74039"
48 "217586"
49 "129853"
50 "340368"
51 "1586757"
52 "392995"
53 "689966"
54 "861186"
55 "963662"
56 "629372"
57 "1563983"
58 "430416"
59 "263234"
60 "760376"
61 "1662882"
62 "1391784"
63 "1124909"
64 "143170"
65 "464407"
66 "1251308"
67 "209033"
68 "1270515"
69 "340468"
70 "518162"
71 "1407927"
72 "340207"
73 "930146"
74 "287040"
75 "1551697"
76 "331295"
77 "895046"
78 "939236"
79 "59751"
80 "520706"
81 "562416"
82 "1685235"
83 "834284"
84 "604377"
85 "1416073"
86 "535859"
87 "205955"
88 "1106298"
89 "1047714"
90 "589788"
91 "626283"
92 "519864"
93 "800796"
94 "359005"
95 "279484"
96 "741011"
97 "1652691"
98 "489660"
99 "1362276"
100 "1369081"
101 "261553"
102 "1427208"
103 "15460"
104 "1509507"
105 "1560278"
106 "1331602"
107 "1270538"
108 "715051"
109 "510118"
110 "111911"
111 "909170"
112 "1166864"
113 "567046"
114 "1654396"
115 "369722"
116 "1595382"
117 "851102"
118 "1505322"
119 "1670186"
120 "642680"
121 "1631589"
122 "1703107"
123 "633328"
124 "245090"
125 "759501"
126 "1261395"
127 "1645912"
128 "285227"
129 "1408574"
130 "1048410"
131 "1683724"
132 "1111510"
133 "335410"
134 "883321"
135 "505260"
136 "874754"
137 "1226163"
138 "1642149"
139 "719720"
140 "1631423"
141 "95457"
142 "991519"
143 "1645127"
144 "853678"
145 "1500969"
146 "656728"
147 "391624"
148 "864027"
149 "358483"
150 "1522455"
151 "209031"
152 "209102"
153 "1422406"
154 "109914"
155 "1701298"
156 "1167803"
157 "767759"
158 "740896"
159 "356105"
160 "113126"
161 "912653"
162 "549864"
163 "1650380"
164 "87836"
165 "434944"
166 "844212"
167 "349828"
168 "1678675"
169 "160765"
170 "644644"
171 "112562"
172 "976243"
173 "1021839"
174 "758874"
175 "370784"
176 "742592"
177 "117140"
178 "420081"
179 "1213571"
180 "495291"
181 "623045"
182 "1222282"
183 "690045"
184 "375054"
185 "1129153"
186 "964662"
187 "985396"
188 "1114873"
189 "1638125"
190 "164869"
191 "985478"
192 "259957"
193 "1006503"
194 "520913"
195 "414383"
196 "1687641"
197 "186447"
198 "176193"
199 "408019"
200 "1606630"
201 "986275"
202 "1314792"
203 "751446"
204 "900134"
205 "1486957"
206 "147049"
207 "562363"
208 "347801"
209 "1641801"
210 "322259"
211 "1106613"
212 "89779"
213 "444173"
214 "971990"
215 "851772"
216 "32934"
217 "238940"
218 "624171"
219 "736454"
220 "354446"
221 "1204625"
222 "379850"
223 "1259939"
224 "1407921"
225 "613956"
226 "12728"
227 "445617"
228 "1188339"
229 "302751"
230 "861213"
231 "89783"
232 "154494"
233 "975404"
234 "61047"
235 "1648362"
236 "615068"
237 "846415"
238 "715801"
239 "902591"
240 "435945"
241 "973283"
242 "1658656"
243 "175976"
244 "1490181"
245 "648830"
246 "593650"
247 "1147141"
248 "128564"
249 "414545"
250 "356967"
251 "1634507"
252 "414037"
253 "23353"
254 "1300955"
255 "1030071"
256 "908286"
257 "152901"
258 "523702"
259 "1639952"
260 "1380625"
261 "1706445"
262 "982700"
263 "1357167"
264 "145751"
265 "884915"
266 "1656451"
267 "645059"
268 "69191"
269 "533316"
270 "2249"
271 "1277966"
272 "1286873"
273 "348787"
274 "1407595"
275 "293126"
276 "36376"
277 "1349006"
278 "494610"
279 "189065"
280 "636070"
281 "76406"
282 "1121098"
283 "443911"
284 "823072"
285 "1350461"
286 "554270"
287 "1316804"
288 "468050"
289 "268712"
290 "209221"
291 "1167996"
292 "238928"
293 "498864"
294 "1578035"
295 "522872"
296 "844106"
297 "1252915"
298 "1569094"
299 "763511"
300 "273728"
301 "408447"
302 "1000781"
303 "473443"
304 "1646120"
305 "1475476"
306 "1524226"
307 "574449"
308 "722036"
309 "502278"
310 "745275"
311 "397756"
312 "1133940"
313 "902089"
314 "951433"
315 "1585007"
316 "1192108"
317 "1100102"
318 "1607100"
319 "1433071"
320 "1292495"
321 "212676"
322 "526104"
323 "375329"
324 "926625"
325 "743263"
326 "746154"
327 "374663"
328 "1273041"
329 "180413"
330 "1093020"
331 "1284550"
332 "476602"
333 "1301468"
334 "1583463"
335 "675349"
336 "1351190"
337 "1518169"
338 "184206"
339 "1021158"
340 "367977"
341 "421201"
342 "338168"
343 "726575"
344 "259915"
345 "732384"
346 "969835"
347 "1041969"
348 "260877"
349 "1653723"
350 "1165302"
351 "1330252"
352 "61169"
353 "9312"
354 "1481807"
355 "375852"
356 "87892"
357 "444872"
358 "493909"
359 "13840"
360 "576791"
361 "296661"
362 "700289"
363 "445619"
364 "405518"
365 "1006455"
366 "392530"
367 "276800"
368 "1480528"
369 "480602"
370 "1371687"
371 "1256685"
372 "886209"
373 "1631616"
374 "184852"
375 "36331"
376 "437975"
377 "1356284"
378 "262965"
379 "1651003"
380 "630546"
381 "1360047"
382 "1695635"
383 "337969"
384 "395918"
385 "299088"
386 "1597534"
387 "92012"
388 "225011"
389 "618451"
390 "260946"
391 "378641"
392 "232498"
393 "1653623"
394 "740178"
395 "669233"
396 "1682541"
397 "1354697"
398 "109268"
399 "1429858"
400 "1497131"
401 "152751"
402 "791016"
403 "648929"
404 "70921"
405 "72087"
406 "1675147"
407 "629477"
408 "282357"
409 "960747"
410 "260546"
411 "881091"
412 "987467"
413 "1628985"
414 "1669486"
415 "1341532"
416 "541414"
417 "661050"
418 "348174"
419 "1104849"
420 "404013"
421 "1668948"
422 "1636238"
423 "1414848"
424 "1555425"
425 "782912"
426 "622021"
427 "1702584"
428 "850715"
429 "483511"
430 "1595381"
431 "428492"
432 "249807"
433 "259104"
434 "878696"
435 "758505"
436 "269148"
437 "528592"
438 "1706216"
439 "622961"
440 "908620"
441 "218765"
442 "1253780"
443 "879686"
444 "391635"
445 "1626000"
446 "593520"
447 "383847"
448 "372142"
449 "333030"
450 "292924"
451 "491310"
452 "1329802"
453 "1158668"
454 "880478"
455 "259266"
456 "1556859"
457 "1594404"
458 "130141"
459 "253947"
460 "1551271"
461 "1107521"
462 "1653499"
463 "1495490"
464 "52233"
465 "1505257"
466 "654919"
467 "547148"
468 "250109"
469 "92919"
470 "1656254"
471 "736624"
472 "962490"
473 "537161"
474 "1635354"
475 "82692"
476 "387103"
477 "1205312"
478 "807859"
479 "1647944"
480 "677464"
481 "141709"
482 "1537881"
483 "415272"
484 "428304"
485 "75489"
486 "337486"
487 "1630153"
488 "131291"
489 "890315"
490 "1703212"
491 "381845"
492 "1056759"
493 "736089"
494 "369708"
495 "337599"
496 "410828"
497 "1398486"
498 "499497"
499 "416028"
500 "215684"
501 "1618861"
502 "1258510"
503 "583979"
504 "366746"
505 "290284"
506 "1529848"
507 "330603"
508 "1077644"
509 "112976"
510 "1258424"
511 "184245"
512 "49195"
513 "345856"
514 "1624414"
515 "671274"
516 "1664398"
517 "438861"
518 "522901"
519 "1327175"
520 "1634037"
521 "56669"
522 "219978"
523 "21353"
524 "89697"
525 "346645"
526 "618452"
527 "1686942"
528 "1442919"
529 "375041"
530 "1374283"
531 "679845"
532 "237965"
533 "1632996"
534 "380972"
535 "641052"
536 "337709"
537 "1371014"
538 "448886"
539 "420612"
540 "121028"
541 "982"
542 "850273"
543 "1049467"
544 "1021163"
545 "686024"
546 "1275532"
547 "1486139"
548 "46419"
549 "1063585"
550 "520685"
551 "1012283"
552 "963597"
553 "1673517"
554 "849846"
555 "795843"
556 "1505236"
557 "12500"
558 "210108"
559 "1387"
560 "411251"
561 "357151"
562 "1304935"
563 "1100173"
564 "199147"
565 "1228138"
566 "769049"
567 "1036625"
568 "1575284"
569 "1083686"
570 "971189"
571 "1493176"
572 "344732"
573 "1605376"
574 "1258114"
575 "658209"
576 "733574"
577 "632981"
578 "1529618"
579 "982764"
580 "514632"
581 "1576986"
582 "434274"
583 "1072157"
584 "1309404"
585 "477264"
586 "344720"
587 "562294"
588 "861209"
589 "1131704"
590 "746944"
591 "283895"
592 "1299218"
593 "1317750"
594 "72252"
595 "357358"
596 "1331820"
597 "797380"
598 "152097"
599 "1380185"
600 "804426"
601 "494019"
602 "1231894"
603 "780437"
604 "865467"
605 "789598"
606 "1497832"
607 "1586814"
608 "484743"
609 "1089047"
610 "179250"
611 "842170"
612 "994127"
613 "983167"
614 "797125"
615 "1224864"
616 "330587"
617 "236081"
618 "730469"
619 "1496122"
620 "1003669"
621 "745707"
622 "1031563"
623 "133526"
624 "1045786"
625 "176426"
626 "1047407"
627 "124884"
628 "1334684"
629 "419598"
630 "1011022"
631 "1600038"
632 "1041874"
633 "1556169"
634 "151059"
635 "1521193"
636 "1491252"
637 "1582999"
638 "379673"
639 "267193"
640 "1469484"
641 "444441"
642 "288615"
643 "1178011"
644 "1524143"
645 "78843"
646 "805091"
647 "333541"
648 "1138942"
649 "1302905"
650 "1614124"
651 "621162"
652 "1595421"
653 "597307"
654 "1262966"
655 "1583456"
656 "1118659"
657 "479495"
658 "1512185"
659 "570957"
660 "1672803"
661 "1468780"
662 "1572396"
663 "1365341"
664 "986863"
665 "1160967"
666 "472448"
667 "693082"
668 "1427956"
669 "727323"
670 "1121692"
671 "1227595"
672 "1307713"
673 "1468558"
674 "1328989"
675 "1060528"
676 "325937"
677 "1217713"
678 "961179"
679 "919606"
680 "508376"
681 "673103"
682 "1000997"
683 "549755"
684 "1282224"
685 "686300"
686 "1546719"
687 "1257357"
688 "1328480"
689 "1328911"
690 "1114193"
691 "792924"
692 "1070108"
693 "693773"
694 "1589919"
695 "308221"
696 "232109"
697 "1408772"
698 "1449593"
699 "834340"
700 "828420"
701 "1621079"
702 "1338834"
703 "1635241"
704 "1412268"
705 "520459"
706 "368968"
707 "852291"
708 "1410787"
709 "633892"
710 "1445299"
711 "1660365"
712 "1294701"
713 "554192"
714 "37336"
715 "541012"
716 "1485911"
717 "76131"
718 "75289"
719 "972573"
720 "213174"
721 "1445357"
722 "21361"
723 "65635"
724 "1008562"
725 "1459659"
726 "96027"
727 "516809"
728 "563441"
729 "1327096"
730 "1639484"
731 "563012"
732 "1165462"
733 "78545"
734 "333993"
735 "385802"
736 "859923"
737 "1573316"
738 "482607"
739 "428660"
740 "389520"
741 "1146066"
742 "710416"
743 "1396373"
744 "1644597"
745 "1069219"
746 "860406"
747 "1206763"
748 "1512666"
749 "1243318"
750 "531865"
751 "10343"
752 "1104594"
753 "144805"
754 "1583641"
755 "398057"
756 "1030975"
757 "1691950"
758 "1194199"
759 "1381105"
760 "985649"
761 "1616155"
762 "1400567"
763 "524216"
764 "1355086"
765 "955718"
766 "428380"
767 "1047372"
768 "816504"
769 "1616420"
770 "723141"
771 "1662503"
772 "1708764"
773 "552839"
774 "923019"
775 "1705370"
776 "267151"
777 "258941"
778 "929695"
779 "22792"
780 "429750"
781 "1224585"
782 "346923"
783 "964345"
784 "1153554"
785 "256326"
786 "646731"
787 "353176"
788 "1114417"
789 "963183"
790 "1557341"
791 "971083"
792 "1008724"
793 "1642038"
794 "440116"
795 "636683"
796 "1340604"
797 "590048"
798 "673188"
799 "1102882"
800 "231147"
801 "592935"
802 "61518"
803 "155339"
804 "667626"
805 "23129"
806 "1265339"
807 "798180"
808 "373280"
809 "404647"
810 "958235"
811 "951408"
812 "564006"
813 "1548455"
814 "974094"
815 "1654881"
816 "1178362"
817 "955407"
818 "1264062"
819 "303647"
820 "416414"
821 "1576329"
822 "757768"
823 "259837"
824 "1236089"
825 "800408"
826 "1455851"
827 "565897"
828 "273076"
829 "398568"
830 "1703820"
831 "963660"
832 "1512890"
833 "1636761"
834 "1314935"
835 "1006185"
836 "348069"
837 "273752"
838 "521870"
839 "1358167"
840 "1520011"
841 "218256"
842 "261311"
843 "1691412"
844 "86215"
845 "1481680"
846 "1262435"
847 "522786"
848 "1358241"
849 "943967"
850 "1359582"
851 "534720"
852 "69634"
853 "968657"
854 "267162"
855 "1114049"
856 "1141312"
857 "1497848"
858 "576447"
859 "1019044"
860 "520881"
861 "336762"
862 "990846"
863 "1694959"
864 "482310"
865 "101304"
866 "1131001"
867 "1019929"
868 "768392"
869 "1582065"
870 "307941"
871 "757931"
872 "1200108"
873 "760091"
874 "1156904"
875 "517202"
876 "477487"
877 "1353272"
878 "131860"
879 "23361"
880 "850389"
881 "956599"
882 "171031"
883 "1690004"
884 "985471"
885 "1457378"
886 "372465"
887 "1020900"
888 "1635199"
889 "1682557"
890 "1542305"
891 "1074438"
892 "1021155"
893 "545882"
894 "942048"
895 "985276"
896 "1015425"
897 "1244161"
898 "223545"
899 "670720"
900 "985062"
901 "865779"
902 "505737"
903 "99908"
904 "1304378"
905 "1706803"
906 "193584"
907 "523704"
908 "1459163"
909 "1617012"
910 "210537"
911 "28508"
912 "597754"
913 "1208087"
914 "1024051"
915 "763155"
916 "321355"
917 "1036508"
918 "943301"
919 "713253"
920 "1543818"
921 "1061060"
922 "1365940"
923 "1081475"
924 "58687"
925 "36889"
926 "530957"
927 "432152"
928 "1227142"
929 "1442156"
930 "92766"
931 "853929"
932 "15756"
933 "264021"
934 "1673983"
935 "1611558"
936 "1133728"
937 "418093"
938 "1525931"
939 "861214"
940 "28350"
941 "1650991"
942 "330126"
943 "369967"
944 "632661"
945 "196060"
946 "936635"
947 "805041"
948 "1536436"
949 "882810"
950 "1622594"
951 "930059"
952 "12250"
953 "1278208"
954 "438872"
955 "963276"
956 "671633"
957 "1612935"
958 "644980"
959 "1447381"
960 "157026"
961 "96400"
962 "265487"
963 "1436552"
964 "1689360"
965 "990240"
966 "37810"
967 "387869"
968 "1346193"
969 "429585"
970 "89700"
971 "1688735"
972 "1232844"
973 "413331"
974 "1122537"
975 "367411"
976 "132"
977 "643542"
978 "1647123"
979 "405453"
980 "285184"
981 "191553"
982 "1606420"
983 "987106"
984 "299400"
985 "175878"
986 "282818"
987 "527748"
988 "262597"
989 "314383"
990 "1652505"
991 "1546685"
992 "305640"
993 "1687661"
994 "730606"
995 "1317300"
996 "645654"
997 "607312"
998 "479068"
999 "961848"
1000 "1316026"
1001 "365527"
1002 "851519"
1003 "967783"
1004 "1284749"
1005 "1087303"
1006 "1691359"
1007 "1089733"
1008 "92014"
1009 "1539256"
1010 "363639"
1011 "836431"
1012 "583970"
1013 "1338918"
1014 "1606068"
1015 "970450"
1016 "863199"
1017 "1038740"
1018 "793870"
1019 "954249"
1020 "1041305"
1021 "869349"
1022 "437172"
1023 "1147172"
1024 "645282"
1025 "771616"
1026 "1193001"
1027 "44691"
1028 "779641"
1029 "2292"
1030 "1618533"
1031 "1442706"
1032 "410633"
1033 "782794"
1034 "367109"
1035 "446452"
1036 "885135"
1037 "720889"
1038 "523133"
1039 "751691"
1040 "1500883"
1041 "957143"
1042 "1492083"
1043 "708550"
1044 "1023101"
1045 "1471545"
1046 "1704640"
1047 "302463"
1048 "779043"
1049 "1336062"
1050 "561236"
1051 "921880"
1052 "214982"
1053 "81955"
1054 "861791"
1055 "302400"
1056 "31520"
1057 "1146714"
1058 "412192"
1059 "1181787"
1060 "614577"
1061 "350288"
1062 "1164315"
1063 "1429031"
1064 "1231335"
1065 "1190124"
1066 "1404274"
1067 "439985"
1068 "1356426"
1069 "708359"
1070 "1073289"
1071 "923759"
1072 "186095"
1073 "678460"
1074 "855601"
1075 "267235"
1076 "688249"
1077 "491123"
1078 "347007"
1079 "1561670"
1080 "574371"
1081 "1089269"
1082 "618870"
1083 "1670183"
1084 "1438790"
1085 "578328"
1086 "647789"
1087 "877829"
1088 "1328202"
1089 "720344"
1090 "1258197"
1091 "385662"
1092 "352689"
1093 "549790"
1094 "289602"
1095 "68907"
1096 "964315"
1097 "1310351"
1098 "190148"
1099 "903017"
1100 "860114"
1101 "363392"
1102 "1525622"
1103 "260970"
1104 "1042710"
1105 "707040"
1106 "171057"
1107 "305183"
1108 "317547"
1109 "1205799"
1110 "141705"
1111 "430259"
1112 "894656"
1113 "1122221"
1114 "255343"
1115 "972108"
1116 "230715"
1117 "961751"
1118 "995073"
1119 "13047"
1120 "640993"
1121 "993773"
1122 "632777"
1123 "1154517"
1124 "1631333"
1125 "468343"
1126 "415593"
1127 "840034"
1128 "1599430"
1129 "746124"
1130 "273663"
1131 "863074"
1132 "308817"
1133 "669196"
1134 "1327868"
1135 "1178803"
1136 "1586720"
1137 "485887"
1138 "522545"
1139 "1525290"
1140 "1683567"
1141 "462061"
1142 "1651728"
1143 "157634"
1144 "465521"
1145 "1124062"
1146 "301241"
1147 "1012245"
1148 "1242831"
1149 "1583048"
1150 "909196"
1151 "1429634"
1152 "595699"
1153 "974069"
1154 "771596"
1155 "763636"
1156 "1019385"
1157 "396159"
1158 "906845"
1159 "399077"
1160 "861726"
1161 "20599"
1162 "847505"
1163 "1248122"
1164 "971336"
1165 "1182233"
1166 "1300631"
1167 "1354004"
1168 "60255"
1169 "843981"
1170 "359572"
1171 "1501367"
1172 "1226767"
1173 "987077"
1174 "1104960"
1175 "173911"
1176 "53043"
1177 "479650"
1178 "341806"
1179 "286674"
1180 "359906"
1181 "1592100"
1182 "563985"
1183 "1521794"
1184 "650569"
1185 "498664"
1186 "373802"
1187 "294972"
1188 "36642"
1189 "1254429"
1190 "156375"
1191 "749307"
1192 "306997"
1193 "857149"
1194 "531009"
1195 "1649887"
1196 "805038"
1197 "262030"
1198 "583317"
1199 "875458"
1200 "744140"
1201 "1187603"
1202 "934670"
1203 "393006"
1204 "259792"
1205 "1693934"
1206 "443906"
1207 "994971"
1208 "241093"
1209 "1180970"
1210 "464998"
1211 "555553"
1212 "852062"
1213 "192159"
1214 "690467"
1215 "459791"
1216 "1666299"
1217 "1620075"
1218 "510853"
1219 "588800"
1220 "1643319"
1221 "759064"
1222 "1012974"
1223 "980524"
1224 "915288"
1225 "1672893"
1226 "592801"
1227 "1063271"
1228 "971837"
1229 "477863"
1230 "1128052"
1231 "731912"
1232 "186958"
1233 "588174"
1234 "1437691"
1235 "156019"
1236 "251708"
1237 "695340"
1238 "603562"
1239 "1163552"
1240 "476168"
1241 "1230800"
1242 "1259849"
1243 "610610"
1244 "1450366"
1245 "190145"
1246 "501547"
1247 "225329"
1248 "59228"
1249 "349825"
1250 "780339"
1251 "1171867"
1252 "1328518"
1253 "1694020"
1254 "537512"
1255 "1539070"
1256 "287592"
1257 "1012053"
1258 "1004611"
1259 "1015289"
1260 "419558"
1261 "337600"
1262 "65622"
1263 "1238911"
1264 "728385"
1265 "1097886"
1266 "323738"
1267 "958335"
1268 "303820"
1269 "150915"
1270 "1104083"
1271 "21684"
1272 "339142"
1273 "1529985"
1274 "436606"
1275 "492981"
1276 "460124"
1277 "384973"
1278 "860136"
1279 "1006513"
1280 "1458273"
1281 "605476"
1282 "544511"
1283 "955857"
1284 "1566503"
1285 "637465"
1286 "645789"
1287 "24593"
1288 "511239"
1289 "375050"
1290 "432899"
1291 "1631203"
1292 "324425"
1293 "368673"
1294 "1289060"
1295 "5599"
1296 "1621729"
1297 "253977"
1298 "575236"
1299 "773058"
1300 "1595326"
1301 "564647"
1302 "1522794"
1303 "528500"
1304 "479434"
1305 "1402278"
1306 "1162143"
1307 "465589"
1308 "1366547"
1309 "764479"
1310 "876991"
1311 "789571"
1312 "1632010"
1313 "644979"
1314 "513870"
1315 "1094431"
1316 "852077"
1317 "1334606"
1318 "1514297"
1319 "961102"
1320 "520667"
1321 "765189"
1322 "621677"
1323 "1583424"
1324 "337835"
1325 "31738"
1326 "144448"
1327 "910470"
1328 "1469158"
1329 "1526140"
1330 "1453272"
1331 "620207"
1332 "1123987"
1333 "1443372"
1334 "61907"
1335 "1271983"
1336 "723585"
1337 "359160"
1338 "529407"
1339 "1077591"
1340 "584625"
1341 "274019"
1342 "1219272"
1343 "1105870"
1344 "418050"
1345 "205298"
1346 "478546"
1347 "117829"
1348 "1024757"
1349 "1050771"
1350 "823492"
1351 "951810"
1352 "1195929"
1353 "37873"
1354 "494662"
1355 "1511308"
1356 "1621124"
1357 "459840"
1358 "1264596"
1359 "1381688"
1360 "527549"
1361 "184940"
1362 "118321"
1363 "114697"
1364 "1061944"
1365 "912686"
1366 "1009276"
1367 "26573"
1368 "15808"
1369 "444152"
1370 "583757"
1371 "879160"
1372 "1509533"
1373 "919620"
1374 "1367996"
1375 "1181525"
1376 "1353052"
1377 "1326929"
1378 "1103129"
1379 "294816"
1380 "17966"
1381 "146652"
1382 "327557"
1383 "653710"
1384 "391160"
1385 "292355"
1386 "827780"
1387 "1175475"
1388 "618196"
1389 "1591261"
1390 "290861"
1391 "1635501"
1392 "1648326"
1393 "412548"
1394 "337570"
1395 "665784"
1396 "688292"
1397 "611887"
1398 "1461117"
1399 "1363083"
1400 "838534"
1401 "845743"
1402 "264417"
1403 "736130"
1404 "1409504"
1405 "401195"
1406 "1673520"
1407 "635534"
1408 "500883"
1409 "618592"
1410 "1295715"
1411 "332124"
1412 "1658641"
1413 "1459491"
1414 "43380"
1415 "702220"
1416 "1650328"
1417 "1484528"
1418 "892112"
1419 "1002541"
1420 "1151614"
1421 "1042373"
1422 "213033"
1423 "410458"
1424 "42297"
1425 "1710597"
1426 "336038"
1427 "1442241"
1428 "87661"
1429 "1230085"
1430 "492391"
1431 "1002075"
1432 "219293"
1433 "515796"
1434 "845516"
1435 "1458341"
1436 "1501480"
1437 "1429261"
1438 "1582909"
1439 "1635170"
1440 "618804"
1441 "1656598"
1442 "65087"
1443 "1426013"
1444 "1041917"
1445 "1015423"
1446 "760513"
1447 "1647775"
1448 "982322"
1449 "409743"
1450 "469385"
1451 "420006"
1452 "1245316"
1453 "631562"
1454 "1635352"
1455 "1445639"
1456 "1694112"
1457 "1434097"
1458 "877700"
1459 "428308"
1460 "1053437"
1461 "874720"
1462 "534983"
1463 "64623"
1464 "844822"
1465 "433640"
1466 "978179"
1467 "1210029"
1468 "560703"
1469 "719853"
1470 "408811"
1471 "537123"
1472 "1359006"
1473 "1654520"
1474 "348096"
1475 "466341"
1476 "452226"
1477 "1320496"
1478 "1578130"
1479 "1322983"
1480 "492401"
1481 "14467"
1482 "389728"
1483 "940072"
1484 "975199"
1485 "1622219"
1486 "657926"
1487 "1604589"
1488 "932338"
1489 "1442188"
1490 "888729"
1491 "388459"
1492 "1017275"
1493 "617960"
1494 "224161"
1495 "180314"
1496 "808765"
1497 "465507"
1498 "1077542"
1499 "1661350"
1500 "656498"
1501 "1621624"
1502 "1650248"
1503 "1169209"
1504 "1504815"
1505 "960670"
1506 "805691"
1507 "805689"
1508 "995232"
1509 "718336"
1510 "1123541"
1511 "1610781"
1512 "1670546"
1513 "120279"
1514 "1604953"
1515 "1534516"
1516 "191751"
1517 "559608"
1518 "1660906"
1519 "1045071"
1520 "260571"
1521 "537503"
1522 "1621687"
1523 "1020817"
1524 "1025807"
1525 "463301"
1526 "1106322"
1527 "1174839"
1528 "942579"
1529 "1207571"
1530 "849887"
1531 "1141975"
1532 "1406124"
1533 "308071"
1534 "24627"
1535 "993613"
1536 "522938"
1537 "421515"
1538 "865540"
1539 "35760"
1540 "392106"
1541 "1461647"
1542 "1000954"
1543 "130277"
1544 "1097599"
1545 "1171872"
1546 "732893"
1547 "269472"
1548 "1347564"
1549 "1133592"
1550 "1052451"
1551 "1045333"
1552 "1489973"
1553 "810904"
1554 "1576798"
1555 "184393"
1556 "523270"
1557 "832977"
1558 "1666496"
1559 "1603986"
1560 "750832"
1561 "975928"
1562 "1524872"
1563 "526029"
1564 "1276324"
1565 "1359327"
1566 "688707"
1567 "1297081"
1568 "1628509"
1569 "332930"
1570 "350800"
1571 "500671"
1572 "517659"
1573 "1263517"
1574 "1690571"
1575 "430008"
1576 "394752"
1577 "42631"
1578 "812110"
1579 "1139928"
1580 "1252466"
1581 "1606236"
1582 "521847"
1583 "486517"
1584 "915333"
1585 "1246930"
1586 "390591"
1587 "1565516"
1588 "1533767"
1589 "727513"
1590 "1248599"
1591 "1052660"
1592 "1200238"
1593 "13807"
1594 "608672"
1595 "587994"
1596 "1263000"
1597 "433975"
1598 "1702055"
1599 "1332034"
1600 "1400392"
1601 "963292"
1602 "64166"
1603 "1657092"
1604 "831146"
1605 "261161"
1606 "1357929"
1607 "1015619"
1608 "305489"
1609 "1068573"
1610 "157084"
1611 "1014490"
1612 "444374"
1613 "522627"
1614 "405510"
1615 "627371"
1616 "445641"
1617 "536246"
1618 "867147"
1619 "618701"
1620 "484881"
1621 "994843"
1622 "1144475"
1623 "965929"
1624 "1301045"
1625 "461524"
1626 "1313863"
1627 "460172"
1628 "90958"
1629 "75852"
1630 "1677705"
1631 "1130668"
1632 "922057"
1633 "7965"
1634 "1119179"
1635 "562414"
1636 "380258"
1637 "833592"
1638 "1319080"
1639 "1689921"
1640 "1270377"
1641 "348035"
1642 "9284"
1643 "1315286"
1644 "801039"
1645 "1612146"
1646 "410033"
1647 "1330091"
1648 "369020"
1649 "1006104"
1650 "1004845"
1651 "1266789"
1652 "1536330"
1653 "989866"
1654 "620722"
1655 "960688"
1656 "1460038"
1657 "939540"
1658 "907517"
1659 "938395"
1660 "702171"
1661 "1080777"
1662 "506554"
1663 "1583526"
1664 "1614790"
1665 "1378943"
1666 "321833"
1667 "1617692"
1668 "1482051"
1669 "1674953"
1670 "585738"
1671 "592274"
1672 "153251"
1673 "389379"
1674 "871254"
1675 "867630"
1676 "1407426"
1677 "1572870"
1678 "594606"
1679 "1182712"
1680 "373616"
1681 "488474"
1682 "1176968"
1683 "1072656"
1684 "219109"
1685 "80352"
1686 "385384"
1687 "258909"
1688 "97020"
1689 "986229"
1690 "1281929"
1691 "729775"
1692 "50035"
1693 "355604"
1694 "587930"
1695 "1133932"
1696 "828680"
1697 "960710"
1698 "704141"
1699 "1651596"
1700 "237438"
1701 "1519697"
1702 "193495"
1703 "1000955"
1704 "1259343"
1705 "792215"
1706 "376331"
1707 "1155404"
1708 "583209"
1709 "1371004"
1710 "1674583"
1711 "1140684"
1712 "25126"
1713 "1172465"
1714 "9886"
1715 "347838"
1716 "1683777"
1717 "185150"
1718 "1246255"
1719 "908824"
1720 "730468"
1721 "987440"
1722 "1614179"
1723 "899664"
1724 "987237"
1725 "626427"
1726 "1177878"
1727 "1595380"
1728 "1405204"
1729 "82654"
1730 "679570"
1731 "1619668"
1732 "866664"
1733 "1100984"
1734 "1480296"
1735 "1681908"
1736 "866969"
1737 "1259348"
1738 "1141388"
1739 "1431310"
1740 "306971"
1741 "1711285"
1742 "1627372"
1743 "1264908"
1744 "1180558"
1745 "972871"
1746 "1292084"
1747 "1292576"
1748 "149543"
1749 "1254754"
1750 "291489"
1751 "1687007"
1752 "1103065"
1753 "398007"
1754 "885174"
1755 "1658273"
1756 "1492128"
1757 "602660"
1758 "1432031"
1759 "168960"
1760 "838297"
1761 "351063"
1762 "1089761"
1763 "1600783"
1764 "923287"
1765 "1021603"
1766 "836425"
1767 "1599374"
1768 "1365103"
1769 "1177624"
1770 "836292"
1771 "1299848"
1772 "353826"
1773 "1273967"
1774 "1540975"
1775 "393794"
1776 "1565722"
1777 "621174"
1778 "1180705"
1779 "810584"
1780 "1023980"
1781 "8650"
1782 "606928"
1783 "429730"
1784 "1692407"
1785 "37296"
1786 "1459369"
1787 "73905"
1788 "24968"
1789 "385908"
1790 "864447"
1791 "1593911"
1792 "805014"
1793 "650669"
1794 "272469"
1795 "867990"
1796 "1060030"
1797 "1259177"
1798 "962819"
1799 "104259"
1800 "1150578"
1801 "1351571"
1802 "464793"
1803 "591350"
1804 "668307"
1805 "475893"
1806 "1413189"
1807 "975372"
1808 "13727"
1809 "611938"
1810 "384115"
1811 "1365550"
1812 "1402546"
1813 "1053003"
1814 "34863"
1815 "1513646"
1816 "803679"
1817 "960374"
1818 "707060"
1819 "456879"
1820 "960716"
1821 "1335949"
1822 "1326"
1823 "909024"
1824 "734302"
1825 "1190784"
1826 "465475"
1827 "695011"
1828 "1044252"
1829 "74610"
1830 "395156"
1831 "1690451"
1832 "1300652"
1833 "224223"
1834 "1697117"
1835 "1417409"
1836 "1111320"
1837 "102613"
1838 "1696072"
1839 "669184"
1840 "706611"
1841 "398079"
1842 "90155"
1843 "913756"
1844 "414073"
1845 "481235"
1846 "52216"
1847 "1598046"
1848 "816666"
1849 "231737"
1850 "782080"
1851 "1339126"
1852 "251902"
1853 "909251"
1854 "359214"
1855 "27865"
1856 "1145023"
1857 "359035"
1858 "614225"
1859 "340521"
1860 "1585396"
1861 "3120"
1862 "1014471"
1863 "1322650"
1864 "1709977"
1865 "1662379"
1866 "458778"
1867 "1104554"
1868 "960719"
1869 "406269"
1870 "145148"
1871 "1088796"
1872 "368426"
1873 "455283"
1874 "744975"
1875 "956585"
1876 "1389728"
1877 "520412"
1878 "627991"
1879 "685929"
1880 "751240"
1881 "1157595"
1882 "504842"
1883 "443718"
1884 "685044"
1885 "955797"
1886 "1683319"
1887 "1572392"
1888 "39614"
1889 "386691"
1890 "1315408"
1891 "95820"
1892 "1010190"
1893 "24659"
1894 "1519484"
1895 "1680113"
1896 "556119"
*Edges
1 2 1
3 4 1
5 6 1
7 8 1
9 10 3
11 12 1
13 14 1
15 16 1
17 18 1
19 20 1
21 22 1
21 23 1
22 23 1
24 25 1
26 27 1
28 29 1
28 30 1
29 30 1
24 31 1
32 33 1
32 34 1
33 34 1
35 36 2
35 37 3
36 37 2
38 39 1
38 40 1
38 41 1
38 42 1
39 40 1
39 41 1
39 42 1
40 41 2
40 42 2
41 42 2
43 44 1
45 46 1
45 47 1
46 47 2
48 49 1
44 50 1
51 52 1
53 54 1
55 56 1
57 58 2
59 60 2
61 62 1
63 64 1
65 66 2
67 68 1
67 69 2
67 70 2
69 70 2
71 72 1
71 73 1
71 74 1
72 73 1
72 74 1
73 74 1
75 76 1
77 78 1
79 80 1
81 82 2
81 83 1
82 83 1
84 64 1
85 86 1
85 40 1
85 41 1
85 42 1
86 40 1
86 41 1
86 42 1
87 88 1
89 90 1
89 91 1
90 91 1
92 93 1
93 94 1
92 95 1
92 96 1
92 97 1
95 96 1
95 97 1
96 97 1
98 99 1
98 100 1
99 100 1
101 102 1
103 104 1
105 106 1
107 108 1
109 110 3
109 111 2
110 111 2
112 113 1
114 115 1
114 116 1
115 116 1
117 118 2
117 119 2
118 119 1
120 121 1
122 123 1
124 125 1
126 44 1
127 46 1
127 47 1
128 25 1
129 130 1
131 976 1
131 133 1
976 133 1
134 135 1
134 136 1
134 137 1
135 136 1
135 137 1
136 137 1
138 139 1
138 140 1
139 140 1
141 142 1
143 144 1
143 136 1
143 145 1
144 136 1
144 145 1
136 145 1
146 147 1
148 149 1
150 151 1
150 152 1
151 152 1
153 154 1
153 155 1
154 155 1
156 157 1
158 159 1
158 160 1
158 161 1
158 162 1
158 163 1
159 160 1
159 161 1
159 162 1
159 163 1
160 161 1
160 162 1
160 163 1
161 162 1
161 163 1
162 163 1
164 165 1
166 167 1
166 168 1
167 168 1
169 170 1
169 171 1
170 171 1
172 173 1
174 175 1
176 177 1
176 178 1
176 179 1
177 178 1
177 179 1
178 179 1
50 180 1
50 34 1
180 34 1
181 52 1
55 182 1
183 54 1
184 185 1
186 187 1
188 189 1
190 191 1
192 193 1
192 194 1
193 194 1
195 196 1
197 198 1
199 200 1
201 202 2
203 204 1
205 206 1
207 208 1
207 209 1
208 209 1
210 211 1
212 213 2
212 214 1
215 216 1
217 218 1
219 220 1
219 221 1
220 221 1
222 223 1
222 224 1
223 224 1
117 225 1
118 225 1
226 227 1
228 229 1
230 231 2
232 233 1
21 234 1
21 155 1
234 155 1
235 236 1
237 238 1
237 239 1
238 239 2
240 241 2
242 243 2
242 244 2
242 245 2
242 246 2
243 244 3
243 245 3
243 246 3
244 245 3
244 246 3
245 246 3
247 248 2
247 249 2
248 249 2
250 251 1
252 253 1
254 255 1
256 257 1
256 258 1
256 259 1
257 258 1
257 259 1
258 259 1
202 60 2
260 261 1
141 262 1
141 263 1
262 263 2
264 265 1
266 267 1
266 268 1
266 109 1
267 268 1
267 109 1
268 109 1
269 270 1
271 272 1
271 273 1
271 274 1
272 273 1
272 274 1
273 274 1
275 276 1
277 278 1
277 279 1
277 280 1
277 281 1
278 279 1
278 280 1
278 281 2
279 280 1
279 281 1
280 281 1
282 243 2
282 244 1
282 245 1
282 246 1
110 283 1
110 284 1
283 284 1
285 286 1
287 288 1
289 236 1
290 288 1
291 292 1
293 294 1
293 295 1
294 295 1
296 297 1
296 298 1
296 299 1
297 298 1
297 299 1
298 299 1
167 300 1
301 302 1
201 59 1
303 304 1
303 305 1
304 305 1
306 238 1
306 239 1
307 308 1
309 310 1
311 312 1
313 314 1
315 316 1
317 318 1
319 320 1
278 321 1
278 127 1
278 82 2
281 321 1
281 127 1
281 82 1
321 127 1
321 82 1
127 82 1
322 323 1
324 325 1
324 326 1
324 327 1
324 328 1
325 326 1
325 327 1
325 328 1
326 327 1
326 328 1
327 328 1
329 323 1
330 322 1
331 21 1
331 332 1
21 332 1
333 334 1
335 336 1
337 338 2
337 339 2
338 339 2
340 341 1
340 342 1
340 343 1
340 344 1
341 342 1
341 343 1
341 344 1
342 343 1
342 344 1
343 344 1
345 346 1
192 347 2
348 111 1
349 350 1
351 352 2
351 353 1
352 353 1
196 354 1
355 356 2
357 358 1
359 209 2
360 361 1
256 362 1
256 363 1
362 363 1
364 365 1
366 367 1
368 369 1
368 370 1
369 370 1
371 372 1
371 373 1
372 373 3
374 375 1
374 376 1
375 376 1
49 377 1
378 379 1
380 381 1
382 383 1
384 385 1
386 387 1
388 389 1
390 391 1
390 122 1
391 122 1
392 393 1
392 394 1
392 82 1
392 278 1
393 394 1
393 82 1
393 278 1
394 82 1
394 278 1
395 373 2
395 372 2
71 396 1
71 397 1
396 397 1
398 399 1
400 401 1
402 403 1
402 404 1
402 405 1
403 404 1
403 405 1
404 405 1
406 407 1
408 409 1
410 411 1
412 413 1
50 414 1
50 415 1
50 416 1
50 417 1
50 418 1
414 415 1
414 416 1
414 417 1
414 418 1
415 416 1
415 417 1
415 418 1
416 417 1
416 418 1
417 418 1
419 420 1
419 421 1
419 422 1
420 421 1
420 422 1
421 422 1
423 424 1
423 425 1
423 426 1
423 427 1
423 428 1
423 429 1
423 430 1
424 425 1
424 426 1
424 427 1
424 428 1
424 429 1
424 430 1
425 426 1
425 427 1
425 428 1
425 429 1
425 430 1
426 427 1
426 428 1
426 429 1
426 430 1
427 428 1
427 429 1
427 430 1
428 429 1
428 430 1
429 430 1
431 432 1
431 433 1
431 282 1
432 433 1
432 282 1
433 282 1
434 435 1
436 437 2
261 438 1
107 439 1
314 440 1
314 441 1
314 442 1
314 443 1
440 441 1
440 442 1
440 443 1
441 442 1
441 443 1
442 443 1
444 445 1
446 447 1
448 449 2
448 326 1
449 326 1
450 451 2
452 453 1
452 454 1
453 454 1
455 456 1
455 457 1
455 56 1
456 457 1
456 56 1
457 56 1
458 459 1
458 460 1
459 460 1
461 462 1
463 464 1
463 465 1
463 466 1
463 467 1
463 468 1
464 465 1
464 466 1
464 467 1
464 468 1
465 466 1
465 467 1
465 468 1
466 467 1
466 468 1
467 468 1
469 470 1
471 368 1
471 472 1
368 472 1
138 473 1
106 474 1
475 44 1
476 477 2
476 478 2
477 478 2
479 480 1
481 482 1
483 484 1
380 485 1
32 486 1
487 488 1
489 490 1
491 32 1
492 493 1
494 495 1
496 30 1
497 498 1
497 499 1
498 499 1
500 501 1
502 385 1
503 504 1
505 506 1
507 508 1
507 509 1
507 510 1
508 509 1
508 510 1
509 510 1
511 512 1
513 514 1
515 516 1
517 322 1
518 519 1
520 521 1
138 522 2
523 524 1
525 526 1
525 527 1
526 527 1
525 528 2
525 529 2
528 529 2
530 531 1
530 532 1
530 533 2
531 532 1
531 533 1
532 533 1
534 535 1
536 537 1
536 538 1
537 538 1
539 540 1
541 542 1
543 544 1
545 546 1
547 548 1
549 550 1
551 552 1
553 554 1
553 555 1
554 555 1
556 557 1
558 559 1
560 561 2
560 562 1
560 563 1
561 562 1
561 563 1
562 563 1
564 565 1
566 567 1
568 569 1
570 521 1
489 571 1
138 572 1
138 573 1
572 573 1
574 575 1
574 576 1
575 576 1
533 577 1
530 577 1
578 579 2
57 580 1
581 582 2
583 584 1
32 416 1
32 585 1
32 586 1
32 587 1
416 585 1
416 586 1
416 587 1
585 586 1
585 587 1
586 587 1
138 588 1
589 590 1
589 591 1
590 591 1
592 593 1
262 594 1
594 263 1
595 391 1
596 597 1
596 598 1
596 599 1
597 598 1
597 599 1
598 599 1
600 601 1
602 603 1
604 81 1
605 606 1
605 607 1
605 608 1
606 607 1
606 608 1
607 608 1
609 291 1
610 292 1
436 314 1
437 314 1
611 612 1
611 613 1
611 614 1
612 613 1
612 614 1
613 614 1
615 616 1
615 617 1
616 617 1
618 619 1
618 620 1
618 621 1
619 620 1
619 621 1
620 621 1
622 623 2
624 357 1
625 626 1
627 628 1
627 35 1
628 35 1
449 629 2
629 448 1
630 631 1
630 632 2
631 632 2
633 634 1
635 636 4
637 77 1
638 639 1
640 641 1
642 643 1
644 645 1
644 646 1
644 647 1
645 646 1
645 647 1
646 647 1
291 648 2
649 650 1
649 651 1
649 652 1
650 651 1
650 652 1
651 652 1
653 654 1
655 656 1
203 657 1
203 658 1
203 659 1
657 658 1
657 659 1
658 659 1
660 661 1
662 663 1
664 175 1
117 665 1
117 666 1
117 667 1
665 666 1
665 667 1
665 119 1
666 667 1
666 119 1
667 119 1
668 669 1
668 670 1
669 670 1
671 672 2
630 673 1
632 673 1
674 675 1
674 676 1
674 677 1
675 676 1
675 677 1
676 677 1
678 322 1
679 583 1
106 680 1
106 681 1
680 681 1
682 683 1
684 685 1
686 687 1
688 689 1
690 691 1
692 693 1
278 694 1
165 695 1
489 696 1
489 697 1
698 555 1
699 700 1
699 701 1
700 701 1
702 703 1
704 705 1
264 706 1
707 708 1
709 710 1
711 705 1
712 713 1
712 714 1
713 714 1
715 716 1
717 718 1
717 719 1
718 719 1
720 721 1
722 723 1
32 414 1
636 724 1
724 635 1
725 726 1
727 728 1
729 730 1
657 731 1
732 733 1
734 735 1
736 737 1
736 738 1
737 738 1
739 740 1
741 742 2
743 21 2
743 744 2
21 744 2
489 745 1
746 747 1
748 749 1
748 750 2
748 128 2
748 751 2
749 750 1
749 128 1
749 751 1
750 128 2
750 751 2
128 751 2
752 753 1
752 754 1
752 755 1
753 754 1
753 755 1
754 755 1
756 757 1
758 705 1
758 759 1
758 760 1
758 761 1
705 759 1
705 760 1
705 761 1
759 760 1
759 761 1
760 761 1
209 762 1
209 763 1
762 763 1
764 32 1
109 765 1
766 767 1
768 769 2
770 771 1
772 291 1
772 773 1
772 774 1
772 44 1
291 773 1
291 774 1
291 44 1
773 774 1
773 44 1
774 44 1
775 776 1
777 778 1
777 779 1
778 779 1
780 781 1
780 782 1
780 783 1
780 784 1
781 782 1
781 783 1
781 784 1
782 783 1
782 784 1
783 784 1
785 786 1
785 787 1
785 788 1
786 787 1
786 788 1
787 788 1
789 790 1
702 791 1
702 792 1
702 793 1
791 792 1
791 793 1
792 793 1
794 795 1
794 772 1
795 772 1
796 797 1
796 798 1
796 799 1
796 800 1
797 798 1
797 799 1
797 800 1
798 799 1
798 800 1
799 800 1
801 802 1
166 803 1
166 575 1
166 804 1
166 805 1
803 575 1
803 804 1
803 805 1
575 804 1
575 805 1
804 805 1
806 807 1
808 809 1
810 811 1
812 813 1
812 814 1
813 814 1
815 816 1
815 817 1
816 817 1
818 819 1
818 820 1
819 820 1
821 822 1
821 823 1
822 823 1
824 825 1
824 548 1
825 548 1
826 827 2
828 829 1
830 831 1
830 832 1
830 833 1
830 834 1
831 832 1
831 833 1
831 834 1
832 833 1
832 834 1
833 834 1
835 836 1
835 837 1
835 838 1
835 839 1
835 840 1
835 841 1
835 842 1
836 837 1
836 838 1
836 839 1
836 840 1
836 841 1
836 842 1
837 838 1
837 839 1
837 840 1
837 841 1
837 842 1
838 839 1
838 840 1
838 841 1
838 842 1
839 840 1
839 841 1
839 842 1
840 841 1
840 842 1
841 842 1
843 844 1
843 429 1
844 429 1
57 845 1
57 846 1
57 847 1
845 846 1
845 847 1
846 847 1
848 849 1
850 851 1
852 853 1
854 855 1
854 856 1
855 856 1
857 858 1
857 859 1
858 859 1
860 861 1
860 862 1
861 862 1
863 864 1
863 865 1
864 865 1
866 867 1
866 868 1
867 868 1
869 870 1
699 871 1
872 873 1
872 874 1
873 874 1
875 876 1
632 877 1
877 631 1
878 879 1
880 881 1
880 882 1
881 882 1
883 884 1
885 886 1
887 888 1
889 890 1
891 892 2
893 894 1
895 896 1
895 897 1
896 897 1
898 899 1
900 901 2
900 902 1
901 902 1
903 904 1
905 906 1
256 907 2
256 908 1
907 908 1
909 910 1
909 911 1
909 912 1
909 913 1
909 914 1
909 915 1
909 916 1
909 917 1
909 918 1
910 911 1
910 912 1
910 913 1
910 914 1
910 915 1
910 916 1
910 917 1
910 918 1
911 912 1
911 913 1
911 914 1
911 915 1
911 916 1
911 917 1
911 918 1
912 913 1
912 914 1
912 915 1
912 916 1
912 917 1
912 918 1
913 914 1
913 915 1
913 916 1
913 917 1
913 918 1
914 915 1
914 916 1
914 917 1
914 918 1
915 916 1
915 917 1
915 918 1
916 917 1
916 918 1
917 918 1
919 920 1
919 921 1
920 921 1
922 923 1
924 925 1
926 927 1
744 928 1
744 929 1
744 930 1
928 929 1
928 930 1
929 930 1
931 689 1
932 933 1
141 934 1
207 935 1
936 937 1
938 939 1
489 940 1
489 941 1
940 941 1
489 942 1
943 44 1
944 945 1
138 946 1
947 948 1
947 949 1
948 949 1
950 301 1
951 952 1
900 953 1
953 901 1
954 955 1
956 957 1
958 959 1
958 735 1
959 735 1
960 961 1
962 712 1
963 964 1
965 966 1
965 967 1
966 967 1
968 969 1
968 970 1
969 970 1
264 971 1
972 973 1
974 359 1
974 209 1
88 926 1
975 223 1
975 976 1
223 976 1
977 978 1
748 979 1
979 750 1
979 128 1
979 751 1
980 981 1
982 983 1
984 985 1
984 986 1
985 986 1
987 243 1
988 989 1
990 991 1
992 993 2
994 995 1
996 997 1
998 999 1
998 1000 1
998 1001 1
998 1002 1
998 1003 1
998 1004 1
998 1005 1
998 1006 1
999 1000 1
999 1001 1
999 1002 1
999 1003 1
999 1004 1
999 1005 1
999 1006 1
1000 1001 1
1000 1002 1
1000 1003 1
1000 1004 1
1000 1005 1
1000 1006 1
1001 1002 1
1001 1003 1
1001 1004 1
1001 1005 1
1001 1006 1
1002 1003 1
1002 1004 1
1002 1005 1
1002 1006 1
1003 1004 1
1003 1005 1
1003 1006 1
1004 1005 1
1004 1006 1
1005 1006 1
1007 1008 1
660 1009 1
1010 1011 1
1012 1013 1
1014 1015 1
1014 1016 1
1015 1016 1
1017 1018 1
1017 1019 1
1018 1019 1
1020 505 1
1021 412 1
1022 291 1
166 1023 2
166 1024 2
1023 1024 2
949 1025 1
1026 1027 1
1028 1029 1
1030 1031 1
1032 1033 1
1034 1035 1
968 1036 1
968 1037 1
1036 1037 1
1038 1039 1
1040 1041 1
1040 1042 1
1041 1042 1
1043 1044 1
1045 1046 1
1047 1048 1
1049 1050 1
1049 1051 1
1050 1051 1
1052 1053 1
1054 1055 1
1056 1057 1
1056 1058 1
1057 1058 1
1059 1060 1
1061 1062 1
1063 1064 1
1063 1065 1
1064 1065 1
1066 1067 1
564 357 1
1068 1069 1
1070 1071 1
976 1072 1
1073 1074 1
1075 1076 1
1077 1078 1
1079 1080 1
1079 924 1
1080 924 1
1081 1082 1
1083 1084 1
1085 901 2
1086 1087 1
1088 1089 1
1090 256 1
1090 907 1
1091 1092 1
1093 1094 2
1095 1096 1
1097 286 1
1097 1098 1
1097 1099 1
286 1098 3
286 1099 1
1098 1099 1
1100 1101 1
1102 1103 1
1104 1105 1
1104 1106 1
1104 1107 1
1105 1106 1
1105 1107 1
1106 1107 1
1108 1109 1
1108 1110 1
1108 1111 1
1108 1112 1
1109 1110 1
1109 1111 1
1109 1112 1
1110 1111 1
1110 1112 2
1111 1112 1
1113 1114 1
394 1115 1
394 147 1
1115 147 1
1116 1117 1
1116 1118 1
1116 1119 1
1116 147 1
1116 1120 1
1117 1118 1
1117 1119 1
1117 147 1
1117 1120 1
1118 1119 1
1118 147 1
1118 1120 1
1119 147 1
1119 1120 1
147 1120 1
390 395 2
390 117 2
395 117 2
1121 1122 2
1121 1123 2
1121 1124 2
1121 1125 2
1122 1123 2
1122 1124 2
1122 1125 2
1123 1124 2
1123 1125 2
1124 1125 2
1126 1127 1
117 1128 1
117 1129 1
117 1130 1
390 1128 1
390 1129 1
390 1130 1
1128 395 1
1128 1129 1
1128 1130 1
395 1129 1
395 1130 1
1129 1130 1
1131 1132 1
317 1133 2
317 1134 1
317 1135 1
1133 1134 1
1133 1135 1
1134 1135 1
1136 1137 1
1138 1139 1
1138 1140 1
1138 1141 1
1138 1142 1
1139 1140 1
1139 1141 1
1139 1142 1
1140 1141 1
1140 1142 1
1141 1142 1
1143 1144 2
1145 1146 1
1147 1148 1
1149 448 1
1149 1150 1
1149 1151 1
1149 1152 1
1149 1153 1
1149 1154 1
448 1150 1
448 1151 1
448 1152 1
448 1153 1
448 1154 1
1150 1151 1
1150 1152 1
1150 1153 1
1150 1154 1
1151 1152 1
1151 1153 1
1151 1154 1
1152 1153 1
1152 1154 1
1153 1154 1
1155 1156 1
1155 1157 1
1155 1158 1
1156 1157 1
1156 1158 1
1157 1158 1
1159 1160 1
1159 1161 1
1160 1161 1
1162 1163 1
1164 1165 2
1166 1167 2
1166 1168 1
1167 1168 1
697 1169 1
697 1170 1
1169 1170 1
1171 1172 1
1171 1173 1
1172 1173 1
1174 1175 1
1174 1176 1
1175 1176 1
1177 1178 1
1179 1180 2
1181 1182 2
1181 1183 2
1182 1183 2
1184 1185 1
1184 1186 1
1184 1187 1
1185 1186 1
1185 1187 1
1186 1187 1
622 1188 1
622 1189 1
622 1190 1
622 629 1
622 1191 1
622 1192 1
622 449 1
623 1188 1
623 1189 1
623 1190 1
623 629 1
623 1191 1
623 1192 1
623 449 1
1188 1189 1
1188 1190 1
1188 629 1
1188 1191 1
1188 1192 1
1188 449 1
1189 1190 1
1189 629 1
1189 1191 1
1189 1192 1
1189 449 1
1190 629 1
1190 1191 1
1190 1192 1
1190 449 1
629 1191 1
629 1192 1
1191 1192 1
1191 449 1
1192 449 1
35 1193 2
35 648 3
1193 648 1
1194 1195 1
865 1110 1
865 1196 1
865 1112 1
1110 1196 1
1196 1112 1
1197 1198 1
303 1199 1
303 1200 1
303 1201 1
1199 1200 1
1199 1201 1
1200 1201 1
1202 1203 1
1202 1204 1
1203 1204 1
639 1205 1
1206 1207 1
1206 1208 1
1207 1208 1
1209 1210 1
1211 1212 1
1213 1214 1
1215 1216 1
1091 1217 1
1091 1218 2
1217 1218 1
1219 1220 1
1221 1222 1
1223 1224 1
1225 827 1
1226 322 1
1227 322 1
1228 1229 1
1230 815 1
1231 1232 1
1231 391 1
1232 391 1
1233 1187 1
489 1234 1
673 672 1
254 1235 1
1236 227 1
1237 1238 1
226 1239 1
1240 1241 1
1242 1243 1
1242 1244 1
1243 1244 1
1245 1246 1
138 1247 1
138 1248 1
1247 1248 1
1249 1250 1
976 1251 1
976 1252 1
1251 1252 1
1253 1254 1
62 1255 1
1256 1257 2
1258 62 1
1259 636 2
1259 243 2
636 243 2
1260 1261 1
1260 1262 1
1261 1262 1
1263 1264 1
1263 671 1
1264 671 1
1265 1266 1
1267 1268 1
1269 1270 1
1271 1272 1
1273 1274 1
1275 1011 1
1275 111 1
1011 111 1
131 1276 1
131 1277 1
1276 1277 1
1278 1279 1
1278 1280 1
1278 1281 1
1279 1280 1
1279 1281 1
1280 1281 1
1282 1283 1
1284 1285 1
1286 1287 1
1288 1289 1
1288 1290 1
1289 1290 1
1291 1292 1
1293 1294 1
942 291 2
1295 1296 1
1295 1297 1
1296 1297 1
1298 1299 1
1298 1300 1
1298 1301 1
1299 1300 1
1299 1301 1
1300 1301 1
1302 743 1
1302 1303 1
1302 1304 1
1302 1305 1
743 1303 1
743 1304 1
743 1305 1
1303 1304 1
1303 1305 1
1304 1305 1
1293 1306 1
1293 1307 1
1293 1308 1
1293 1309 1
1306 1307 1
1306 1308 1
1306 1309 1
1307 1308 1
1307 1309 1
1308 1309 1
632 1310 1
632 1311 1
632 1312 1
1310 1311 1
1310 1312 1
1311 1312 1
1313 1314 1
899 44 1
329 1315 1
1316 1317 1
1318 175 1
1319 1320 1
32 1321 1
32 1322 1
1321 1322 1
691 1323 1
1324 1325 1
1822 1327 1
1183 1328 1
1328 1182 1
1328 1181 1
618 1329 1
618 1330 1
618 1331 1
1329 1330 1
1329 1331 1
1330 1331 1
1332 1333 1
1332 1334 1
1332 1335 1
1332 1336 1
1333 1334 1
1333 1335 1
1333 1336 1
1334 1335 1
1334 1336 1
1335 1336 1
1302 1337 1
1302 1338 1
1302 1339 1
1337 1338 1
1337 1339 1
1338 1339 1
1340 1341 1
1342 291 1
1343 1344 1
1343 1345 1
1343 1346 1
1343 1347 1
1344 1345 1
1344 1346 1
1344 1347 1
1345 1346 1
1345 1347 1
1346 1347 1
1348 718 1
1349 1350 1
1351 1352 1
1353 1354 1
1355 1356 1
1357 1358 1
1359 1360 1
1359 1361 1
1360 1361 1
1362 1363 1
1364 1365 1
1366 1264 1
1367 1368 2
1367 924 2
1368 924 2
578 1369 1
578 1370 1
1369 1370 1
1371 1372 1
1371 1373 1
1372 1373 1
1374 1375 1
1374 876 1
1375 876 1
1376 1377 2
1378 1379 1
112 1380 1
1381 1382 1
1381 1383 1
1382 1383 1
1384 1385 1
1384 1386 1
1385 1386 1
1387 1083 1
1388 58 1
1389 718 1
648 489 1
1390 1391 1
1392 1393 1
1392 1394 1
1393 1394 1
715 1395 1
1396 1397 1
1396 1398 1
1396 1399 1
1397 1398 1
1397 1399 1
1398 1399 1
1400 1401 1
1402 1403 1
1404 1405 1
1406 1407 1
1406 1408 1
1407 1408 1
1409 1410 1
1411 1412 1
1411 1413 1
1411 1414 1
1412 1413 1
1412 1414 1
1413 1414 1
1415 1416 1
1415 1417 1
1416 1417 1
1418 1419 1
1418 1420 1
1418 1421 1
1419 1420 1
1419 1421 1
1420 1421 1
1422 1423 1
1422 1424 1
1422 1425 1
1422 1426 1
1422 1427 1
1422 1428 1
1422 1429 1
1423 1424 1
1423 1425 1
1423 1426 1
1423 1427 1
1423 1428 1
1423 1429 1
1424 1425 1
1424 1426 1
1424 1427 1
1424 1428 1
1424 1429 1
1425 1426 1
1425 1427 1
1425 1428 1
1425 1429 1
1426 1427 1
1426 1428 1
1426 1429 1
1427 1428 1
1427 1429 1
1428 1429 1
1430 1431 1
1432 1433 1
1434 1435 1
35 1436 1
1436 648 1
1437 701 1
1246 414 1
1438 1439 1
1402 1440 1
1441 1442 1
1443 383 1
141 1444 1
141 1445 1
141 1446 1
1444 1445 1
1444 1446 1
1445 1446 1
1447 1448 1
1449 1450 1
1449 1451 1
1449 1452 1
1450 1451 1
1450 1452 1
1451 1452 1
1453 1454 1
1453 1455 1
1454 1455 1
1456 1457 1
1456 1458 1
1457 1458 1
1822 1459 1
1460 1461 1
1462 1463 1
1464 1465 1
1464 1466 1
1465 1466 1
1467 1468 1
1469 1470 1
1469 1471 1
1469 1472 1
1470 1471 1
1470 1472 1
1471 1472 1
1265 1473 1
1474 1475 1
1474 1476 1
1474 109 1
1475 1476 1
1475 109 1
1476 109 1
317 1477 1
317 1478 1
1133 1477 1
1133 1478 1
1477 1478 1
1479 1468 1
1480 1481 1
1482 1483 1
1482 1484 1
1482 1485 1
1482 1486 1
1482 1487 1
1483 1484 1
1483 1485 1
1483 1486 1
1483 1487 1
1484 1485 1
1484 1486 1
1484 1487 1
1485 1486 1
1485 1487 1
1486 1487 1
351 1488 1
994 1489 1
994 1490 1
1489 1490 1
122 1118 1
122 166 1
1118 166 1
976 1491 3
1492 1493 2
1494 1495 1
1496 110 1
1497 1498 1
1497 1499 1
1497 1500 1
1497 1501 1
1498 1499 1
1498 1500 1
1498 1501 1
1499 1500 1
1499 1501 1
1500 1501 1
1502 1263 1
1503 1504 1
1503 1505 1
1503 1506 1
1503 1507 1
1503 1508 1
1504 1505 1
1504 1506 1
1504 1507 1
1504 1508 1
1505 1506 1
1505 1507 1
1505 1508 1
1506 1507 1
1506 1508 1
1507 1508 1
1509 1510 1
1509 57 1
1510 57 1
246 1511 1
246 1512 1
246 1513 1
1511 1512 1
1511 1513 1
1512 1513 1
1514 1515 1
1514 1516 1
1514 1517 1
1515 1516 1
1515 1517 1
1516 1517 1
1518 1519 1
1518 1520 1
1518 1521 1
1518 1522 1
1518 1523 1
1518 1524 1
1518 278 1
1519 1520 1
1519 1521 1
1519 1522 1
1519 1523 1
1519 1524 1
1519 278 1
1520 1521 1
1520 1522 1
1520 1523 1
1520 1524 1
1520 278 1
1521 1522 1
1521 1523 1
1521 1524 1
1521 278 1
1522 1523 1
1522 1524 1
1522 278 1
1523 1524 1
1523 278 1
1524 278 1
1525 1526 1
1527 618 1
1527 1528 1
618 1528 1
436 804 1
1529 1530 1
1529 1531 1
1529 1532 1
1529 1533 1
1530 1531 1
1530 1532 1
1530 1533 1
1531 1532 1
1531 1533 1
1532 1533 1
1534 1535 1
1534 1536 1
1534 1537 1
1534 1538 1
1535 1536 1
1535 1537 1
1535 1538 1
1536 1537 1
1536 1538 1
1537 1538 1
1539 282 1
1540 1541 1
1540 1542 1
1541 1542 1
1543 1544 2
626 1545 1
636 1546 1
636 625 1
1546 635 1
1546 625 1
635 625 1
1547 1548 1
1547 1549 1
1547 1550 1
1548 1549 1
1548 1550 1
1549 1550 1
1162 1551 1
1552 1553 1
1552 1554 1
1553 1554 1
1555 1556 1
1557 243 1
1558 291 1
1559 1560 1
1561 1562 1
1561 1563 1
1562 1563 1
1564 1565 1
934 1566 1
1567 1568 1
1569 453 1
1570 1571 1
1572 1573 1
1572 1574 1
1573 1574 1
679 1575 1
291 940 2
1576 1577 1
1578 1579 1
1525 1580 1
1525 1581 1
1580 1581 1
1582 1583 1
1584 1585 1
1586 1587 1
1588 1589 1
1590 1591 1
1592 1593 1
1594 58 1
1298 1595 1
1596 1597 1
1598 1599 1
1598 1600 1
1599 1600 1
1601 882 1
1602 1603 2
1602 1604 2
1603 1604 4
1605 1606 1
1607 1608 1
1609 1610 1
1609 1611 1
1610 1611 1
1612 1613 2
1614 1615 1
1616 144 1
1616 1617 1
1616 1618 1
144 1617 1
144 1618 1
1617 1618 1
1619 1620 1
1619 1621 1
1619 1622 1
1620 1621 1
1620 1622 1
1621 1622 1
1623 1624 1
1625 436 1
775 1626 1
1627 1628 1
1627 1629 1
1627 1630 1
1628 1629 1
1628 1630 1
1629 1630 1
1631 1632 1
1633 1634 1
1633 1635 1
1633 1636 1
1634 1635 1
1634 1636 1
1635 1636 1
1637 1083 1
1256 1638 1
1639 1640 2
1641 1642 1
1641 1643 1
1641 1644 1
1642 1643 1
1642 1644 1
1643 1644 1
1645 1646 1
1645 1647 1
1646 1647 1
1648 1649 1
1648 1650 1
1648 1651 1
1649 1650 1
1649 1651 1
1650 1651 1
1652 1653 1
1654 1655 1
1656 1657 1
1656 1658 1
1656 1659 1
1657 1658 1
1657 1659 1
1658 1659 1
1653 1660 1
1652 1661 1
1652 1662 1
1661 1662 1
1663 1664 1
1665 712 1
1666 322 1
1309 1667 1
660 1494 2
660 1668 1
660 1669 2
1494 1668 1
1494 1669 2
1668 1669 1
1670 1253 1
1671 1672 1
1671 1673 1
1672 1673 1
1674 1675 1
138 1676 1
1677 1678 1
412 1354 1
1679 1680 1
1498 713 1
1681 1682 1
1683 1684 1
1685 1686 1
1685 1687 1
1686 1687 1
1688 1689 1
940 942 1
50 1690 1
50 1691 1
1690 1691 1
1692 1693 1
1694 1115 1
1695 1696 1
1697 1698 1
1699 1700 1
1701 1702 1
1701 1703 1
1702 1703 1
745 695 1
1704 1705 1
1704 1706 1
1705 1706 1
1572 1707 1
1572 1708 1
1707 1708 1
1709 1710 1
1709 243 1
1709 282 1
1710 243 1
1710 282 1
314 1711 1
314 1712 1
314 1713 1
1711 1712 1
1711 1713 1
1712 1713 1
642 1714 1
82 1715 2
82 1716 2
82 1717 1
1715 1716 2
1715 1717 1
1716 1717 1
1718 1367 1
1718 1368 1
1718 924 1
1719 910 1
1720 1721 1
1722 1723 1
1724 1725 1
1724 1726 1
1725 1726 1
1727 1728 1
1727 1729 1
1728 1729 1
1091 1730 1
1730 1218 1
1731 1732 1
1731 1563 1
1732 1563 1
1733 1734 1
1735 1736 1
1735 1737 1
1736 1737 1
1738 1739 1
1738 1740 1
1739 1740 1
1741 1742 1
1741 745 1
1742 745 1
1743 1744 1
1745 1377 1
1745 1376 1
1746 1747 1
1748 1749 1
1750 1751 1
934 891 1
1752 1753 1
1752 1754 1
1752 1309 1
1753 1754 1
1753 1309 1
1754 1309 1
1755 1756 1
1757 1597 1
1758 1759 1
1760 1761 1
1762 1763 1
1762 1764 1
1762 1765 1
1762 1766 1
1763 1764 1
1763 1765 1
1763 1766 1
1764 1765 1
1764 1766 1
1765 1766 1
1767 1768 1
1769 1770 1
1769 1099 1
1770 1099 1
1319 1771 1
1772 1773 1
1774 1775 1
1776 1777 1
1778 1779 1
1780 1781 1
1782 1783 1
1782 1784 1
1782 1123 1
1783 1784 1
1783 1123 1
1784 1123 1
1785 1786 1
1787 1788 1
1789 1790 1
1791 1792 1
1791 385 1
1792 385 1
977 1793 1
1794 1795 1
1794 1737 1
1795 1737 1
1796 1797 1
1796 1798 1
1797 1798 1
1799 1800 1
1801 1802 1
1803 1735 1
1803 1804 1
1803 1805 1
1735 1804 1
1735 1805 1
1804 1805 1
1806 1807 1
1498 1808 1
1498 1809 1
1498 1810 1
1808 1809 1
1808 1810 1
1809 1810 1
1811 1812 1
1811 1813 1
1812 1813 1
1814 1815 1
1814 1816 1
1815 1816 1
1817 1818 1
1817 366 1
1818 366 1
1819 1820 1
1821 1822 1
1823 1824 1
1823 1825 1
1824 1825 1
1826 1827 1
1828 1829 1
1828 1830 1
1828 1831 1
1828 1832 1
1829 1830 1
1829 1831 1
1829 1832 1
1830 1831 1
1830 1832 1
1831 1832 1
1603 1833 1
1603 1834 1
1603 1835 1
1604 1833 1
1604 1834 1
1604 1835 1
1833 1834 1
1833 1602 1
1833 1835 1
1834 1602 1
1834 1835 1
1602 1835 1
1836 1837 1
1838 41 1
1839 1840 1
1839 1841 1
1839 1842 1
1840 1841 1
1840 1842 1
1841 1842 1
1843 1844 1
1843 870 1
1844 870 1
1845 1846 1
1847 1848 1
1847 1849 1
1847 1850 1
1848 1849 1
1848 1850 1
1849 1850 1
1851 1852 1
1851 1846 1
1852 1846 1
1853 1603 1
1853 1604 1
1854 1855 1
1854 1509 1
1855 1509 1
1856 1857 1
1858 1859 1
1860 1861 1
1604 1862 1
1604 1863 1
1862 1863 1
1862 1603 1
1863 1603 1
1864 1865 1
1864 1866 1
1865 1866 1
1867 1868 1
1867 1869 1
1868 1869 1
1870 1871 1
1870 1872 1
1871 1872 1
1543 1873 1
1874 1875 1
1874 1876 1
1874 1877 1
1875 1876 1
1875 1877 1
1876 1877 1
1878 1879 1
1878 1880 1
1879 1880 1
1881 1882 1
1881 1883 1
1882 1883 1
1884 1861 1
1885 1886 1
1887 1888 1
1359 1889 1
1890 1891 1
1852 1892 1
1852 1893 1
1852 1894 1
1892 1893 1
1892 1894 1
1893 1894 1
1895 1896 1
