*Vertices 869
1 "1074418"
2 "1480367"
3 "183906"
4 "1273506"
5 "930237"
6 "1368951"
7 "7166"
8 "410574"
9 "296907"
10 "582179"
11 "24720"
12 "930472"
13 "1685420"
14 "850345"
15 "1097250"
16 "1329435"
17 "1383796"
18 "831917"
19 "1085378"
20 "1004867"
21 "798283"
22 "565596"
23 "347578"
24 "842493"
25 "773714"
26 "569463"
27 "266920"
28 "280715"
29 "359114"
30 "482372"
31 "773715"
32 "1321447"
33 "1006454"
34 "264914"
35 "292126"
36 "773356"
37 "389415"
38 "1415774"
39 "1704318"
40 "1613561"
41 "640809"
42 "532196"
43 "704759"
44 "1028129"
45 "498165"
46 "1645860"
47 "74039"
48 "217586"
49 "129853"
50 "340368"
51 "1586757"
52 "392995"
53 "689966"
54 "861186"
55 "963662"
56 "629372"
57 "1563983"
58 "430416"
59 "263234"
60 "760376"
61 "1662882"
62 "1391784"
63 "1124909"
64 "143170"
65 "464407"
66 "1251308"
67 "209033"
68 "1270515"
69 "340468"
70 "518162"
71 "1407927"
72 "340207"
73 "930146"
74 "287040"
75 "1551697"
76 "331295"
77 "895046"
78 "939236"
79 "59751"
80 "520706"
81 "562416"
82 "1685235"
83 "834284"
84 "604377"
85 "1416073"
86 "535859"
87 "205955"
88 "1106298"
89 "1047714"
90 "589788"
91 "626283"
92 "519864"
93 "800796"
94 "359005"
95 "279484"
96 "741011"
97 "1652691"
98 "489660"
99 "1362276"
100 "1369081"
101 "261553"
102 "1427208"
103 "15460"
104 "1509507"
105 "1560278"
106 "1331602"
107 "1270538"
108 "715051"
109 "510118"
110 "111911"
111 "909170"
112 "1166864"
113 "567046"
114 "1654396"
115 "369722"
116 "1595382"
117 "851102"
118 "1505322"
119 "1670186"
120 "642680"
121 "1631589"
122 "1703107"
123 "633328"
124 "245090"
125 "759501"
126 "1261395"
127 "1645912"
128 "285227"
129 "1408574"
130 "1048410"
131 "1683724"
132 "1111510"
133 "335410"
134 "883321"
135 "505260"
136 "874754"
137 "1226163"
138 "1642149"
139 "719720"
140 "1631423"
141 "95457"
142 "991519"
143 "1645127"
144 "853678"
145 "1500969"
146 "656728"
147 "391624"
148 "864027"
149 "358483"
150 "1522455"
151 "209031"
152 "209102"
153 "1422406"
154 "109914"
155 "1701298"
156 "1167803"
157 "767759"
158 "740896"
159 "356105"
160 "113126"
161 "912653"
162 "549864"
163 "1650380"
164 "87836"
165 "434944"
166 "844212"
167 "349828"
168 "1678675"
169 "160765"
170 "644644"
171 "112562"
172 "976243"
173 "1021839"
174 "758874"
175 "370784"
176 "742592"
177 "117140"
178 "420081"
179 "1213571"
180 "495291"
181 "623045"
182 "1222282"
183 "690045"
184 "375054"
185 "1129153"
186 "964662"
187 "985396"
188 "1114873"
189 "1638125"
190 "164869"
191 "985478"
192 "259957"
193 "1006503"
194 "520913"
195 "414383"
196 "1687641"
197 "186447"
198 "176193"
199 "408019"
200 "1606630"
201 "986275"
202 "1314792"
203 "751446"
204 "900134"
205 "1486957"
206 "147049"
207 "562363"
208 "347801"
209 "1641801"
210 "322259"
211 "1106613"
212 "89779"
213 "444173"
214 "971990"
215 "851772"
216 "32934"
217 "238940"
218 "624171"
219 "736454"
220 "354446"
221 "1204625"
222 "379850"
223 "1259939"
224 "1407921"
225 "613956"
226 "12728"
227 "445617"
228 "1188339"
229 "302751"
230 "861213"
231 "89783"
232 "154494"
233 "975404"
234 "61047"
235 "1648362"
236 "615068"
237 "846415"
238 "715801"
239 "902591"
240 "435945"
241 "973283"
242 "1658656"
243 "175976"
244 "1490181"
245 "648830"
246 "593650"
247 "1147141"
248 "128564"
249 "414545"
250 "356967"
251 "1634507"
252 "414037"
253 "23353"
254 "1300955"
255 "1030071"
256 "908286"
257 "152901"
258 "523702"
259 "1639952"
260 "1380625"
261 "1706445"
262 "982700"
263 "1357167"
264 "145751"
265 "884915"
266 "1656451"
267 "645059"
268 "69191"
269 "533316"
270 "2249"
271 "1277966"
272 "1286873"
273 "348787"
274 "1407595"
275 "293126"
276 "36376"
277 "1349006"
278 "494610"
279 "189065"
280 "636070"
281 "76406"
282 "1121098"
283 "443911"
284 "823072"
285 "1350461"
286 "554270"
287 "1316804"
288 "468050"
289 "268712"
290 "209221"
291 "1167996"
292 "238928"
293 "498864"
294 "1578035"
295 "522872"
296 "844106"
297 "1252915"
298 "1569094"
299 "763511"
300 "273728"
301 "408447"
302 "1000781"
303 "473443"
304 "1646120"
305 "1475476"
306 "1524226"
307 "574449"
308 "722036"
309 "502278"
310 "745275"
311 "397756"
312 "1133940"
313 "902089"
314 "951433"
315 "1585007"
316 "1192108"
317 "1100102"
318 "1607100"
319 "1433071"
320 "1292495"
321 "212676"
322 "526104"
323 "375329"
324 "926625"
325 "743263"
326 "746154"
327 "374663"
328 "1273041"
329 "180413"
330 "1093020"
331 "1284550"
332 "476602"
333 "1301468"
334 "1583463"
335 "675349"
336 "1351190"
337 "1518169"
338 "184206"
339 "1021158"
340 "367977"
341 "421201"
342 "338168"
343 "726575"
344 "259915"
345 "732384"
346 "969835"
347 "1041969"
348 "260877"
349 "1653723"
350 "1165302"
351 "1330252"
352 "61169"
353 "9312"
354 "1481807"
355 "375852"
356 "87892"
357 "444872"
358 "493909"
359 "13840"
360 "576791"
361 "296661"
362 "700289"
363 "445619"
364 "405518"
365 "1006455"
366 "392530"
367 "276800"
368 "1480528"
369 "480602"
370 "1371687"
371 "1256685"
372 "886209"
373 "1631616"
374 "184852"
375 "36331"
376 "437975"
377 "1356284"
378 "262965"
379 "1651003"
380 "630546"
381 "1360047"
382 "1695635"
383 "337969"
384 "395918"
385 "299088"
386 "1597534"
387 "92012"
388 "225011"
389 "618451"
390 "260946"
391 "378641"
392 "232498"
393 "1653623"
394 "740178"
395 "669233"
396 "1682541"
397 "1354697"
398 "109268"
399 "1429858"
400 "1497131"
401 "152751"
402 "791016"
403 "648929"
404 "70921"
405 "72087"
406 "1675147"
407 "629477"
408 "282357"
409 "960747"
410 "260546"
411 "881091"
412 "987467"
413 "1628985"
414 "1669486"
415 "1341532"
416 "541414"
417 "661050"
418 "348174"
419 "1104849"
420 "404013"
421 "1668948"
422 "1636238"
423 "1414848"
424 "1555425"
425 "782912"
426 "622021"
427 "1702584"
428 "850715"
429 "483511"
430 "1595381"
431 "428492"
432 "249807"
433 "259104"
434 "878696"
435 "758505"
436 "269148"
437 "528592"
438 "1706216"
439 "622961"
440 "908620"
441 "218765"
442 "1253780"
443 "879686"
444 "391635"
445 "1626000"
446 "593520"
447 "383847"
448 "372142"
449 "333030"
450 "292924"
451 "491310"
452 "1329802"
453 "1158668"
454 "880478"
455 "259266"
456 "1556859"
457 "1594404"
458 "130141"
459 "253947"
460 "1551271"
461 "1107521"
462 "1653499"
463 "1495490"
464 "52233"
465 "1505257"
466 "654919"
467 "547148"
468 "250109"
469 "92919"
470 "1656254"
471 "736624"
472 "962490"
473 "537161"
474 "1635354"
475 "82692"
476 "387103"
477 "1205312"
478 "807859"
479 "1647944"
480 "677464"
481 "141709"
482 "1537881"
483 "415272"
484 "428304"
485 "75489"
486 "337486"
487 "1630153"
488 "131291"
489 "890315"
490 "1703212"
491 "381845"
492 "1056759"
493 "736089"
494 "369708"
495 "337599"
496 "410828"
497 "1398486"
498 "499497"
499 "416028"
500 "215684"
501 "1618861"
502 "1258510"
503 "583979"
504 "366746"
505 "290284"
506 "1529848"
507 "330603"
508 "1077644"
509 "112976"
510 "1258424"
511 "184245"
512 "49195"
513 "345856"
514 "1624414"
515 "671274"
516 "1664398"
517 "438861"
518 "522901"
519 "1327175"
520 "1634037"
521 "56669"
522 "219978"
523 "21353"
524 "89697"
525 "346645"
526 "618452"
527 "1686942"
528 "1442919"
529 "375041"
530 "1374283"
531 "679845"
532 "237965"
533 "1632996"
534 "380972"
535 "641052"
536 "337709"
537 "1371014"
538 "448886"
539 "420612"
540 "121028"
541 "982"
542 "850273"
543 "1049467"
544 "1021163"
545 "686024"
546 "1275532"
547 "1486139"
548 "46419"
549 "1063585"
550 "520685"
551 "1012283"
552 "963597"
553 "1673517"
554 "849846"
555 "795843"
556 "1505236"
557 "12500"
558 "210108"
559 "1387"
560 "411251"
561 "357151"
562 "1304935"
563 "1100173"
564 "199147"
565 "1228138"
566 "769049"
567 "1036625"
568 "1575284"
569 "1083686"
570 "971189"
571 "1493176"
572 "344732"
573 "1605376"
574 "1258114"
575 "658209"
576 "733574"
577 "632981"
578 "1529618"
579 "982764"
580 "514632"
581 "1576986"
582 "434274"
583 "1072157"
584 "1309404"
585 "477264"
586 "344720"
587 "562294"
588 "861209"
589 "1131704"
590 "746944"
591 "283895"
592 "1299218"
593 "1317750"
594 "72252"
595 "357358"
596 "1331820"
597 "797380"
598 "152097"
599 "1380185"
600 "804426"
601 "494019"
602 "1231894"
603 "780437"
604 "865467"
605 "789598"
606 "1497832"
607 "1586814"
608 "484743"
609 "1089047"
610 "179250"
611 "842170"
612 "994127"
613 "983167"
614 "797125"
615 "1224864"
616 "330587"
617 "236081"
618 "730469"
619 "1496122"
620 "1003669"
621 "745707"
622 "1031563"
623 "133526"
624 "1045786"
625 "176426"
626 "1047407"
627 "124884"
628 "1334684"
629 "419598"
630 "1011022"
631 "1600038"
632 "1041874"
633 "1556169"
634 "151059"
635 "1521193"
636 "1491252"
637 "1582999"
638 "379673"
639 "267193"
640 "1469484"
641 "444441"
642 "288615"
643 "1178011"
644 "1524143"
645 "78843"
646 "805091"
647 "333541"
648 "1138942"
649 "1302905"
650 "1614124"
651 "621162"
652 "1595421"
653 "597307"
654 "1262966"
655 "1583456"
656 "1118659"
657 "479495"
658 "1512185"
659 "570957"
660 "1672803"
661 "1468780"
662 "1572396"
663 "1365341"
664 "986863"
665 "1160967"
666 "472448"
667 "693082"
668 "1427956"
669 "727323"
670 "1121692"
671 "1227595"
672 "1307713"
673 "1468558"
674 "1328989"
675 "1060528"
676 "325937"
677 "1217713"
678 "961179"
679 "919606"
680 "508376"
681 "673103"
682 "1000997"
683 "549755"
684 "1282224"
685 "686300"
686 "1546719"
687 "1257357"
688 "1328480"
689 "1328911"
690 "1114193"
691 "792924"
692 "1070108"
693 "693773"
694 "1589919"
695 "308221"
696 "232109"
697 "1408772"
698 "1449593"
699 "834340"
700 "828420"
701 "1621079"
702 "1338834"
703 "1635241"
704 "1412268"
705 "520459"
706 "368968"
707 "852291"
708 "1410787"
709 "633892"
710 "1445299"
711 "1660365"
712 "1294701"
713 "554192"
714 "37336"
715 "541012"
716 "1485911"
717 "76131"
718 "75289"
719 "972573"
720 "213174"
721 "1445357"
722 "21361"
723 "65635"
724 "1008562"
725 "1459659"
726 "96027"
727 "516809"
728 "563441"
729 "1327096"
730 "1639484"
731 "563012"
732 "1165462"
733 "78545"
734 "333993"
735 "385802"
736 "859923"
737 "1573316"
738 "482607"
739 "428660"
740 "389520"
741 "1146066"
742 "710416"
743 "1396373"
744 "1644597"
745 "1069219"
746 "860406"
747 "1206763"
748 "1512666"
749 "1243318"
750 "531865"
751 "10343"
752 "1104594"
753 "144805"
754 "1583641"
755 "398057"
756 "1030975"
757 "1691950"
758 "1194199"
759 "1381105"
760 "985649"
761 "1616155"
762 "1400567"
763 "524216"
764 "1355086"
765 "955718"
766 "428380"
767 "1047372"
768 "816504"
769 "1616420"
770 "723141"
771 "1662503"
772 "1708764"
773 "552839"
774 "923019"
775 "1705370"
776 "267151"
777 "258941"
778 "929695"
779 "22792"
780 "429750"
781 "1224585"
782 "346923"
783 "964345"
784 "1153554"
785 "256326"
786 "646731"
787 "353176"
788 "1114417"
789 "963183"
790 "1557341"
791 "971083"
792 "1008724"
793 "1642038"
794 "440116"
795 "636683"
796 "1340604"
797 "590048"
798 "673188"
799 "1102882"
800 "231147"
801 "592935"
802 "61518"
803 "155339"
804 "667626"
805 "23129"
806 "1265339"
807 "798180"
808 "373280"
809 "404647"
810 "958235"
811 "951408"
812 "564006"
813 "1548455"
814 "974094"
815 "1654881"
816 "1178362"
817 "955407"
818 "1264062"
819 "303647"
820 "416414"
821 "1576329"
822 "757768"
823 "259837"
824 "1236089"
825 "800408"
826 "1455851"
827 "565897"
828 "273076"
829 "398568"
830 "1703820"
831 "963660"
832 "1512890"
833 "1636761"
834 "1314935"
835 "1006185"
836 "348069"
837 "273752"
838 "521870"
839 "1358167"
840 "1520011"
841 "218256"
842 "261311"
843 "1691412"
844 "86215"
845 "1481680"
846 "1262435"
847 "522786"
848 "1358241"
849 "943967"
850 "1359582"
851 "534720"
852 "69634"
853 "968657"
854 "267162"
855 "1114049"
856 "1141312"
857 "1497848"
858 "576447"
859 "1019044"
860 "520881"
861 "336762"
862 "990846"
863 "1694959"
864 "482310"
865 "101304"
866 "1131001"
867 "1019929"
868 "768392"
*Edges
1 2 1
3 4 1
5 6 1
7 8 1
9 10 1
11 12 1
13 14 1
15 16 1
17 18 1
19 20 1
21 22 1
21 23 1
22 23 1
24 25 1
26 27 1
28 29 1
28 30 1
29 30 1
24 31 1
32 33 1
32 34 1
33 34 1
35 36 2
35 37 3
36 37 2
38 39 1
38 40 1
38 41 1
38 42 1
39 40 1
39 41 1
39 42 1
40 41 2
40 42 2
41 42 2
43 44 1
45 46 1
45 47 1
46 47 2
48 49 1
44 50 1
51 52 1
53 54 1
55 56 1
57 58 2
59 60 2
61 62 1
63 64 1
65 66 2
67 68 1
67 69 2
67 70 2
69 70 2
71 72 1
71 73 1
71 74 1
72 73 1
72 74 1
73 74 1
75 76 1
77 78 1
79 80 1
81 82 2
81 83 1
82 83 1
84 64 1
85 86 1
85 40 1
85 41 1
85 42 1
86 40 1
86 41 1
86 42 1
87 88 1
89 90 1
89 91 1
90 91 1
92 93 1
93 94 1
92 95 1
92 96 1
92 97 1
95 96 1
95 97 1
96 97 1
98 99 1
98 100 1
99 100 1
101 102 1
103 104 1
105 106 1
107 108 1
109 110 3
109 111 2
110 111 2
112 113 1
114 115 1
114 116 1
115 116 1
117 118 2
117 119 2
118 119 1
120 121 1
122 123 1
124 125 1
126 44 1
127 46 1
127 47 1
128 25 1
129 130 1
131 132 1
131 133 1
132 133 1
134 135 1
134 136 1
134 137 1
135 136 1
135 137 1
136 137 1
138 139 1
138 140 1
139 140 1
141 142 1
143 144 1
143 136 1
143 145 1
144 136 1
144 145 1
136 145 1
146 147 1
148 149 1
150 151 1
150 152 1
151 152 1
153 154 1
153 155 1
154 155 1
156 157 1
158 159 1
158 160 1
158 161 1
158 162 1
158 163 1
159 160 1
159 161 1
159 162 1
159 163 1
160 161 1
160 162 1
160 163 1
161 162 1
161 163 1
162 163 1
164 165 1
166 167 1
166 168 1
167 168 1
169 170 1
169 171 1
170 171 1
172 173 1
174 175 1
176 177 1
176 178 1
176 179 1
177 178 1
177 179 1
178 179 1
50 180 1
50 34 1
180 34 1
181 52 1
55 182 1
183 54 1
184 185 1
186 187 1
188 189 1
190 191 1
192 193 1
192 194 1
193 194 1
195 196 1
197 198 1
199 200 1
201 202 2
203 204 1
205 206 1
207 208 1
207 209 1
208 209 1
210 211 1
212 213 2
212 214 1
215 216 1
217 218 1
219 220 1
219 221 1
220 221 1
222 223 1
222 224 1
223 224 1
117 225 1
118 225 1
226 227 1
228 229 1
230 231 2
232 233 1
21 234 1
21 155 1
234 155 1
235 236 1
237 238 1
237 239 1
238 239 2
240 241 2
242 243 1
242 244 1
242 245 1
242 246 1
243 244 2
243 245 2
243 246 2
244 245 2
244 246 2
245 246 2
247 248 2
247 249 2
248 249 2
250 251 1
252 253 1
254 255 1
256 257 1
256 258 1
256 259 1
257 258 1
257 259 1
258 259 1
202 60 2
260 261 1
141 262 1
141 263 1
262 263 2
264 265 1
266 267 1
266 268 1
266 109 1
267 268 1
267 109 1
268 109 1
269 270 1
271 272 1
271 273 1
271 274 1
272 273 1
272 274 1
273 274 1
275 276 1
277 278 1
277 279 1
277 280 1
277 281 1
278 279 1
278 280 1
278 281 2
279 280 1
279 281 1
280 281 1
282 243 1
282 244 1
282 245 1
282 246 1
110 283 1
110 284 1
283 284 1
285 286 1
287 288 1
289 236 1
290 288 1
291 292 1
293 294 1
293 295 1
294 295 1
296 297 1
296 298 1
296 299 1
297 298 1
297 299 1
298 299 1
167 300 1
301 302 1
201 59 1
303 304 1
303 305 1
304 305 1
306 238 1
306 239 1
307 308 1
309 310 1
311 312 1
313 314 1
315 316 1
317 318 1
319 320 1
278 321 1
278 127 1
278 82 2
281 321 1
281 127 1
281 82 1
321 127 1
321 82 1
127 82 1
322 323 1
324 325 1
324 326 1
324 327 1
324 328 1
325 326 1
325 327 1
325 328 1
326 327 1
326 328 1
327 328 1
329 323 1
330 322 1
331 21 1
331 332 1
21 332 1
333 334 1
335 336 1
337 338 2
337 339 2
338 339 2
340 341 1
340 342 1
340 343 1
340 344 1
341 342 1
341 343 1
341 344 1
342 343 1
342 344 1
343 344 1
345 346 1
192 347 2
348 111 1
349 350 1
351 352 2
351 353 1
352 353 1
196 354 1
355 356 2
357 358 1
359 209 1
360 361 1
256 362 1
256 363 1
362 363 1
364 365 1
366 367 1
368 369 1
368 370 1
369 370 1
371 372 1
371 373 1
372 373 3
374 375 1
374 376 1
375 376 1
49 377 1
378 379 1
380 381 1
382 383 1
384 385 1
386 387 1
388 389 1
390 391 1
390 122 1
391 122 1
392 393 1
392 394 1
392 82 1
392 278 1
393 394 1
393 82 1
393 278 1
394 82 1
394 278 1
395 373 2
395 372 2
71 396 1
71 397 1
396 397 1
398 399 1
400 401 1
402 403 1
402 404 1
402 405 1
403 404 1
403 405 1
404 405 1
406 407 1
408 409 1
410 411 1
412 413 1
50 414 1
50 415 1
50 416 1
50 417 1
50 418 1
414 415 1
414 416 1
414 417 1
414 418 1
415 416 1
415 417 1
415 418 1
416 417 1
416 418 1
417 418 1
419 420 1
419 421 1
419 422 1
420 421 1
420 422 1
421 422 1
423 424 1
423 425 1
423 426 1
423 427 1
423 428 1
423 429 1
423 430 1
424 425 1
424 426 1
424 427 1
424 428 1
424 429 1
424 430 1
425 426 1
425 427 1
425 428 1
425 429 1
425 430 1
426 427 1
426 428 1
426 429 1
426 430 1
427 428 1
427 429 1
427 430 1
428 429 1
428 430 1
429 430 1
431 432 1
431 433 1
431 282 1
432 433 1
432 282 1
433 282 1
434 435 1
436 437 2
261 438 1
107 439 1
314 440 1
314 441 1
314 442 1
314 443 1
440 441 1
440 442 1
440 443 1
441 442 1
441 443 1
442 443 1
444 445 1
446 447 1
448 449 2
448 326 1
449 326 1
450 451 1
452 453 1
452 454 1
453 454 1
455 456 1
455 457 1
455 56 1
456 457 1
456 56 1
457 56 1
458 459 1
458 460 1
459 460 1
461 462 1
463 464 1
463 465 1
463 466 1
463 467 1
463 468 1
464 465 1
464 466 1
464 467 1
464 468 1
465 466 1
465 467 1
465 468 1
466 467 1
466 468 1
467 468 1
469 470 1
471 368 1
471 472 1
368 472 1
138 473 1
106 474 1
475 44 1
476 477 2
476 478 2
477 478 2
479 480 1
481 482 1
483 484 1
380 485 1
32 486 1
487 488 1
489 490 1
491 32 1
492 493 1
494 495 1
496 30 1
497 498 1
497 499 1
498 499 1
500 501 1
502 385 1
503 504 1
505 506 1
507 508 1
507 509 1
507 510 1
508 509 1
508 510 1
509 510 1
511 512 1
513 514 1
515 516 1
517 322 1
518 519 1
520 521 1
138 522 1
523 524 1
525 526 1
525 527 1
526 527 1
525 528 2
525 529 2
528 529 2
530 531 1
530 532 1
530 533 2
531 532 1
531 533 1
532 533 1
534 535 1
536 537 1
536 538 1
537 538 1
539 540 1
541 542 1
543 544 1
545 546 1
547 548 1
549 550 1
551 552 1
553 554 1
553 555 1
554 555 1
556 557 1
558 559 1
560 561 2
560 562 1
560 563 1
561 562 1
561 563 1
562 563 1
564 565 1
566 567 1
568 569 1
570 521 1
489 571 1
138 572 1
138 573 1
572 573 1
574 575 1
574 576 1
575 576 1
533 577 1
530 577 1
578 579 1
57 580 1
581 582 2
583 584 1
32 416 1
32 585 1
32 586 1
32 587 1
416 585 1
416 586 1
416 587 1
585 586 1
585 587 1
586 587 1
138 588 1
589 590 1
589 591 1
590 591 1
592 593 1
262 594 1
594 263 1
595 391 1
596 597 1
596 598 1
596 599 1
597 598 1
597 599 1
598 599 1
600 601 1
602 603 1
604 81 1
605 606 1
605 607 1
605 608 1
606 607 1
606 608 1
607 608 1
609 291 1
610 292 1
436 314 1
437 314 1
611 612 1
611 613 1
611 614 1
612 613 1
612 614 1
613 614 1
615 616 1
615 617 1
616 617 1
618 619 1
618 620 1
618 621 1
619 620 1
619 621 1
620 621 1
622 623 1
624 357 1
625 626 1
627 628 1
627 35 1
628 35 1
449 629 1
629 448 1
630 631 1
630 632 2
631 632 1
633 634 1
635 636 2
637 77 1
638 639 1
640 641 1
642 643 1
644 645 1
644 646 1
644 647 1
645 646 1
645 647 1
646 647 1
291 648 1
649 650 1
649 651 1
649 652 1
650 651 1
650 652 1
651 652 1
653 654 1
655 656 1
203 657 1
203 658 1
203 659 1
657 658 1
657 659 1
658 659 1
660 661 1
662 663 1
664 175 1
117 665 1
117 666 1
117 667 1
665 666 1
665 667 1
665 119 1
666 667 1
666 119 1
667 119 1
668 669 1
668 670 1
669 670 1
671 672 1
630 673 1
632 673 1
674 675 1
674 676 1
674 677 1
675 676 1
675 677 1
676 677 1
678 322 1
679 583 1
106 680 1
106 681 1
680 681 1
682 683 1
684 685 1
686 687 1
688 689 1
690 691 1
692 693 1
278 694 1
165 695 1
489 696 1
489 697 1
698 555 1
699 700 1
699 701 1
700 701 1
702 703 1
704 705 1
264 706 1
707 708 1
709 710 1
711 705 1
712 713 1
712 714 1
713 714 1
715 716 1
717 718 1
717 719 1
718 719 1
720 721 1
722 723 1
32 414 1
636 724 1
724 635 1
725 726 1
727 728 1
729 730 1
657 731 1
732 733 1
734 735 1
736 737 1
736 738 1
737 738 1
739 740 1
741 742 2
743 21 1
743 744 1
21 744 1
489 745 1
746 747 1
748 749 1
748 750 1
748 128 1
748 751 1
749 750 1
749 128 1
749 751 1
750 128 1
750 751 1
128 751 1
752 753 1
752 754 1
752 755 1
753 754 1
753 755 1
754 755 1
756 757 1
758 705 1
758 759 1
758 760 1
758 761 1
705 759 1
705 760 1
705 761 1
759 760 1
759 761 1
760 761 1
209 762 1
209 763 1
762 763 1
764 32 1
109 765 1
766 767 1
768 769 1
770 771 1
772 291 1
772 773 1
772 774 1
772 44 1
291 773 1
291 774 1
291 44 1
773 774 1
773 44 1
774 44 1
775 776 1
777 778 1
777 779 1
778 779 1
780 781 1
780 782 1
780 783 1
780 784 1
781 782 1
781 783 1
781 784 1
782 783 1
782 784 1
783 784 1
785 786 1
785 787 1
785 788 1
786 787 1
786 788 1
787 788 1
789 790 1
702 791 1
702 792 1
702 793 1
791 792 1
791 793 1
792 793 1
794 795 1
794 772 1
795 772 1
796 797 1
796 798 1
796 799 1
796 800 1
797 798 1
797 799 1
797 800 1
798 799 1
798 800 1
799 800 1
801 802 1
166 803 1
166 575 1
166 804 1
166 805 1
803 575 1
803 804 1
803 805 1
575 804 1
575 805 1
804 805 1
806 807 1
808 809 1
810 811 1
812 813 1
812 814 1
813 814 1
815 816 1
815 817 1
816 817 1
818 819 1
818 820 1
819 820 1
821 822 1
821 823 1
822 823 1
824 825 1
824 548 1
825 548 1
826 827 1
828 829 1
830 831 1
830 832 1
830 833 1
830 834 1
831 832 1
831 833 1
831 834 1
832 833 1
832 834 1
833 834 1
835 836 1
835 837 1
835 838 1
835 839 1
835 840 1
835 841 1
835 842 1
836 837 1
836 838 1
836 839 1
836 840 1
836 841 1
836 842 1
837 838 1
837 839 1
837 840 1
837 841 1
837 842 1
838 839 1
838 840 1
838 841 1
838 842 1
839 840 1
839 841 1
839 842 1
840 841 1
840 842 1
841 842 1
843 844 1
843 429 1
844 429 1
57 845 1
57 846 1
57 847 1
845 846 1
845 847 1
846 847 1
848 849 1
850 851 1
852 853 1
854 855 1
854 856 1
855 856 1
857 858 1
857 859 1
858 859 1
860 861 1
860 862 1
861 862 1
863 864 1
863 865 1
864 865 1
866 867 1
866 868 1
867 868 1
