*Vertices 1310
1 "603560"
2 "307665"
3 "1618323"
4 "1127189"
5 "860533"
6 "1366966"
7 "176644"
8 "439760"
9 "1230025"
10 "49582"
11 "22780"
12 "270303"
13 "1684406"
14 "1123170"
15 "385978"
16 "515258"
17 "304663"
18 "1072320"
19 "683526"
20 "960494"
21 "419133"
22 "1366003"
23 "696092"
24 "49827"
25 "643150"
26 "1424815"
27 "736657"
28 "157890"
29 "37134"
30 "986229"
31 "218303"
32 "170339"
33 "1118126"
34 "144147"
35 "907966"
36 "1698392"
37 "1380762"
38 "183879"
39 "1056040"
40 "1199843"
41 "838330"
42 "1142976"
43 "550464"
44 "412874"
45 "317513"
46 "696732"
47 "1315643"
48 "175857"
49 "275885"
50 "1116271"
51 "47424"
52 "964241"
53 "1295737"
54 "1074572"
55 "1310840"
56 "236902"
57 "695657"
58 "149319"
59 "380080"
60 "627535"
61 "475365"
62 "623048"
63 "315867"
64 "1379177"
65 "144272"
66 "1263627"
67 "164639"
68 "689185"
69 "494292"
70 "172627"
71 "901959"
72 "1221364"
73 "722477"
74 "1446476"
75 "1702393"
76 "1117425"
77 "1702216"
78 "1516767"
79 "75754"
80 "1679342"
81 "368491"
82 "806919"
83 "1397767"
84 "1143944"
85 "325631"
86 "455354"
87 "1061891"
88 "1685874"
89 "1682885"
90 "646179"
91 "562408"
92 "650890"
93 "1168941"
94 "867275"
95 "851135"
96 "183465"
97 "282440"
98 "1633691"
99 "594700"
100 "1164631"
101 "634409"
102 "1240573"
103 "1504923"
104 "1130988"
105 "978295"
106 "1054186"
107 "1529985"
108 "1567205"
109 "1447135"
110 "630085"
111 "1488384"
112 "1368997"
113 "799573"
114 "170290"
115 "1365521"
116 "591350"
117 "1682213"
118 "1116306"
119 "686772"
120 "550365"
121 "1431623"
122 "1487563"
123 "1691992"
124 "134127"
125 "606243"
126 "452617"
127 "131462"
128 "610947"
129 "138949"
130 "682863"
131 "696068"
132 "1149607"
133 "106508"
134 "34344"
135 "36567"
136 "1602691"
137 "357725"
138 "179091"
139 "528064"
140 "1072714"
141 "1363701"
142 "898932"
143 "1359079"
144 "145611"
145 "594502"
146 "1092890"
147 "306751"
148 "1527677"
149 "908468"
150 "1365930"
151 "194337"
152 "146320"
153 "272018"
154 "941285"
155 "604934"
156 "1060183"
157 "160624"
158 "1024081"
159 "466360"
160 "475507"
161 "1072205"
162 "420726"
163 "1421143"
164 "550331"
165 "713382"
166 "1194029"
167 "658306"
168 "41882"
169 "735787"
170 "1267394"
171 "145017"
172 "1367052"
173 "522031"
174 "2833"
175 "36900"
176 "83071"
177 "1528271"
178 "1683735"
179 "1364580"
180 "1700004"
181 "1161466"
182 "1211107"
183 "1630294"
184 "1691976"
185 "108423"
186 "1393414"
187 "768023"
188 "211061"
189 "158624"
190 "36825"
191 "1480333"
192 "131953"
193 "468405"
194 "1193243"
195 "327633"
196 "259628"
197 "295901"
198 "25822"
199 "720365"
200 "593716"
201 "50379"
202 "145711"
203 "573771"
204 "349857"
205 "1606420"
206 "853671"
207 "561718"
208 "1666938"
209 "389287"
210 "1457203"
211 "399253"
212 "1215242"
213 "83068"
214 "800807"
215 "1456334"
216 "1213028"
217 "1507759"
218 "1649814"
219 "712859"
220 "110928"
221 "309639"
222 "1619710"
223 "575688"
224 "1141312"
225 "1544830"
226 "1221892"
227 "630063"
228 "1200401"
229 "594757"
230 "96276"
231 "1703802"
232 "97047"
233 "1696613"
234 "62910"
235 "81262"
236 "319327"
237 "1189068"
238 "1631530"
239 "472521"
240 "1668228"
241 "1100984"
242 "597328"
243 "340368"
244 "1655811"
245 "1385996"
246 "539918"
247 "1626838"
248 "496380"
249 "601652"
250 "32370"
251 "1653938"
252 "772750"
253 "1644994"
254 "706616"
255 "955814"
256 "1327161"
257 "1474642"
258 "219801"
259 "1353052"
260 "1181102"
261 "377848"
262 "267162"
263 "1073997"
264 "1015405"
265 "446817"
266 "1535061"
267 "1664702"
268 "258957"
269 "1492472"
270 "483251"
271 "1509541"
272 "1110509"
273 "558261"
274 "1625051"
275 "744945"
276 "210108"
277 "1684110"
278 "301038"
279 "1657889"
280 "477862"
281 "972461"
282 "102129"
283 "1519617"
284 "593690"
285 "943888"
286 "740037"
287 "1608503"
288 "718744"
289 "954915"
290 "1160026"
291 "385061"
292 "32866"
293 "1472714"
294 "383627"
295 "865881"
296 "1388922"
297 "1706737"
298 "60914"
299 "852077"
300 "409302"
301 "1270480"
302 "642653"
303 "1620882"
304 "70810"
305 "1324446"
306 "1366836"
307 "395039"
308 "237534"
309 "1538830"
310 "163674"
311 "840620"
312 "1155058"
313 "1222626"
314 "1382682"
315 "782264"
316 "315747"
317 "721948"
318 "1030869"
319 "1674030"
320 "1014157"
321 "1509538"
322 "279251"
323 "1016062"
324 "1508034"
325 "881300"
326 "1387586"
327 "147200"
328 "320641"
329 "436441"
330 "681201"
331 "875727"
332 "877314"
333 "457251"
334 "416794"
335 "1116010"
336 "1094935"
337 "1602940"
338 "674595"
339 "668307"
340 "934838"
341 "991549"
342 "1699615"
343 "469582"
344 "208180"
345 "520647"
346 "393140"
347 "152332"
348 "1679257"
349 "644035"
350 "1340604"
351 "620970"
352 "762701"
353 "1577707"
354 "1157495"
355 "1213440"
356 "81955"
357 "1425138"
358 "600882"
359 "477487"
360 "861089"
361 "1128937"
362 "264958"
363 "1334827"
364 "214973"
365 "278376"
366 "412535"
367 "1515161"
368 "1172171"
369 "1068275"
370 "1407804"
371 "758151"
372 "1052305"
373 "458680"
374 "1009056"
375 "429219"
376 "1564596"
377 "531081"
378 "594302"
379 "646459"
380 "731755"
381 "593201"
382 "20932"
383 "1151681"
384 "649866"
385 "1149527"
386 "957976"
387 "274114"
388 "933916"
389 "1214704"
390 "1556087"
391 "111829"
392 "590048"
393 "1020850"
394 "912686"
395 "512234"
396 "506150"
397 "1611276"
398 "302025"
399 "1347120"
400 "1001559"
401 "168814"
402 "635952"
403 "502702"
404 "1683461"
405 "878024"
406 "1157409"
407 "836370"
408 "270726"
409 "648330"
410 "303850"
411 "842250"
412 "244330"
413 "973241"
414 "835280"
415 "836200"
416 "71241"
417 "496841"
418 "381690"
419 "1644491"
420 "877410"
421 "1210598"
422 "410548"
423 "666780"
424 "340331"
425 "1207567"
426 "1345790"
427 "573706"
428 "303820"
429 "375412"
430 "1319777"
431 "802292"
432 "1673776"
433 "924191"
434 "210874"
435 "441203"
436 "1170365"
437 "1545639"
438 "279496"
439 "1123617"
440 "758427"
441 "759919"
442 "1080149"
443 "1497313"
444 "914602"
445 "1140651"
446 "1646035"
447 "1459271"
448 "1224959"
449 "403737"
450 "302861"
451 "209608"
452 "481756"
453 "374195"
454 "47010"
455 "50119"
456 "54714"
457 "23452"
458 "519612"
459 "762352"
460 "197429"
461 "456311"
462 "1333989"
463 "690012"
464 "45027"
465 "1256204"
466 "1070132"
467 "1273631"
468 "458702"
469 "394053"
470 "276380"
471 "1577750"
472 "1500741"
473 "45023"
474 "1180993"
475 "1335408"
476 "254943"
477 "556592"
478 "1305360"
479 "988931"
480 "639263"
481 "1322237"
482 "1663318"
483 "221091"
484 "1132135"
485 "689139"
486 "1057713"
487 "1593479"
488 "481198"
489 "930358"
490 "844444"
491 "946839"
492 "549819"
493 "1139938"
494 "942278"
495 "1532445"
496 "1585815"
497 "1050327"
498 "1132841"
499 "634750"
500 "766139"
501 "948171"
502 "292496"
503 "1587838"
504 "616414"
505 "1532162"
506 "520071"
507 "1697659"
508 "1234625"
509 "1669577"
510 "212468"
511 "1653597"
512 "57204"
513 "966356"
514 "1548731"
515 "1140606"
516 "617764"
517 "180370"
518 "819690"
519 "518630"
520 "1539890"
521 "259957"
522 "1041969"
523 "718521"
524 "265640"
525 "113690"
526 "502397"
527 "250273"
528 "581563"
529 "459082"
530 "253463"
531 "1512751"
532 "1574334"
533 "513362"
534 "929663"
535 "24035"
536 "1630390"
537 "1249239"
538 "784824"
539 "595122"
540 "1541360"
541 "627333"
542 "1169489"
543 "86705"
544 "1283954"
545 "1403185"
546 "1117992"
547 "143663"
548 "807218"
549 "590484"
550 "717409"
551 "1670104"
552 "1313489"
553 "343762"
554 "35894"
555 "301026"
556 "331990"
557 "409381"
558 "1371500"
559 "844350"
560 "307290"
561 "1513198"
562 "1684157"
563 "1546949"
564 "1171037"
565 "1178548"
566 "1077542"
567 "1329053"
568 "1489845"
569 "852307"
570 "502048"
571 "121575"
572 "319334"
573 "287611"
574 "1612616"
575 "1662920"
576 "555938"
577 "518127"
578 "464328"
579 "623070"
580 "913413"
581 "1645193"
582 "1472896"
583 "1250012"
584 "541771"
585 "373157"
586 "667936"
587 "805134"
588 "84343"
589 "276269"
590 "193044"
591 "927346"
592 "462810"
593 "118825"
594 "1453363"
595 "1107152"
596 "1467116"
597 "1646577"
598 "664788"
599 "1195765"
600 "75936"
601 "1603825"
602 "1180099"
603 "37138"
604 "876560"
605 "357762"
606 "1120383"
607 "1517300"
608 "630838"
609 "294972"
610 "62841"
611 "223230"
612 "594617"
613 "849643"
614 "1155022"
615 "319283"
616 "70022"
617 "1135109"
618 "1179365"
619 "1347967"
620 "93068"
621 "366454"
622 "1527228"
623 "340423"
624 "111870"
625 "264587"
626 "154366"
627 "1315231"
628 "1052690"
629 "1184422"
630 "431381"
631 "1670815"
632 "47274"
633 "449757"
634 "30830"
635 "666840"
636 "960187"
637 "509679"
638 "447234"
639 "1333919"
640 "591683"
641 "1135876"
642 "967576"
643 "1646022"
644 "788517"
645 "431347"
646 "581131"
647 "1602606"
648 "101389"
649 "1163968"
650 "1669514"
651 "1155268"
652 "330286"
653 "605714"
654 "1089313"
655 "242499"
656 "1009685"
657 "500569"
658 "1530620"
659 "1119406"
660 "487065"
661 "118706"
662 "1067803"
663 "438208"
664 "719436"
665 "1333802"
666 "174715"
667 "218264"
668 "1706987"
669 "875832"
670 "508372"
671 "1149339"
672 "1456091"
673 "330994"
674 "652067"
675 "911219"
676 "472420"
677 "524259"
678 "1611631"
679 "1311150"
680 "1024185"
681 "445238"
682 "533283"
683 "756703"
684 "723035"
685 "475231"
686 "860814"
687 "1693619"
688 "1661033"
689 "1552613"
690 "1607685"
691 "1706740"
692 "989757"
693 "251804"
694 "597822"
695 "124747"
696 "456489"
697 "1114937"
698 "537509"
699 "566350"
700 "1307622"
701 "78800"
702 "137756"
703 "1707518"
704 "418334"
705 "144955"
706 "227471"
707 "480237"
708 "1240679"
709 "628090"
710 "36445"
711 "850175"
712 "560965"
713 "1286332"
714 "414104"
715 "827203"
716 "1547586"
717 "1605327"
718 "1265337"
719 "1174053"
720 "434870"
721 "839700"
722 "1233241"
723 "252100"
724 "477996"
725 "497847"
726 "1591024"
727 "330695"
728 "1125117"
729 "1332041"
730 "1361426"
731 "23615"
732 "433609"
733 "372852"
734 "749226"
735 "865324"
736 "114416"
737 "1200258"
738 "885794"
739 "1383766"
740 "47744"
741 "826459"
742 "719864"
743 "74333"
744 "373601"
745 "1458592"
746 "1127669"
747 "309915"
748 "889149"
749 "1558473"
750 "1707646"
751 "304132"
752 "47048"
753 "587639"
754 "415452"
755 "531204"
756 "1297116"
757 "746944"
758 "621763"
759 "1364047"
760 "1137552"
761 "38031"
762 "182461"
763 "922085"
764 "676787"
765 "1318051"
766 "1240529"
767 "862936"
768 "218060"
769 "499154"
770 "217423"
771 "827767"
772 "460292"
773 "239762"
774 "349649"
775 "480611"
776 "816373"
777 "177193"
778 "791483"
779 "205955"
780 "87535"
781 "231196"
782 "842740"
783 "535915"
784 "414525"
785 "59683"
786 "553333"
787 "77875"
788 "1597332"
789 "987106"
790 "1672505"
791 "1318361"
792 "300690"
793 "210095"
794 "1686332"
795 "1619964"
796 "9451"
797 "989193"
798 "1628635"
799 "1556390"
800 "60315"
801 "1137499"
802 "69525"
803 "889474"
804 "1335793"
805 "1072822"
806 "292719"
807 "847933"
808 "651926"
809 "51473"
810 "1604674"
811 "1470625"
812 "315318"
813 "1436774"
814 "1142727"
815 "1372245"
816 "1535798"
817 "1196889"
818 "667695"
819 "80038"
820 "756657"
821 "289392"
822 "968290"
823 "948287"
824 "112755"
825 "1247529"
826 "1572973"
827 "335307"
828 "595730"
829 "721536"
830 "529947"
831 "401653"
832 "480603"
833 "1213109"
834 "887187"
835 "259836"
836 "994884"
837 "115344"
838 "1355071"
839 "358581"
840 "1294217"
841 "217684"
842 "1311444"
843 "10798"
844 "541269"
845 "314893"
846 "496441"
847 "1103134"
848 "861823"
849 "632787"
850 "892566"
851 "57095"
852 "1271437"
853 "1348837"
854 "1060625"
855 "1711082"
856 "18011"
857 "432730"
858 "1283765"
859 "22113"
860 "1549850"
861 "396721"
862 "1102241"
863 "519831"
864 "711998"
865 "647962"
866 "658875"
867 "405339"
868 "69282"
869 "1266664"
870 "928700"
871 "373616"
872 "1182712"
873 "423879"
874 "1484515"
875 "1119613"
876 "1605376"
877 "1615007"
878 "1577029"
879 "879956"
880 "6162"
881 "1182513"
882 "322021"
883 "130929"
884 "607917"
885 "1654938"
886 "989460"
887 "1534176"
888 "1186502"
889 "1375275"
890 "1358435"
891 "1148614"
892 "839770"
893 "903717"
894 "1214834"
895 "1274234"
896 "818338"
897 "970019"
898 "1471135"
899 "575512"
900 "394509"
901 "44132"
902 "1295391"
903 "970175"
904 "900020"
905 "1093431"
906 "392408"
907 "1646433"
908 "828680"
909 "983216"
910 "10640"
911 "549993"
912 "1692295"
913 "40321"
914 "1423282"
915 "1511525"
916 "779880"
917 "1577490"
918 "109626"
919 "393941"
920 "877197"
921 "1541234"
922 "378355"
923 "1334576"
924 "53743"
925 "488373"
926 "1267929"
927 "518462"
928 "418215"
929 "308442"
930 "860731"
931 "1395899"
932 "1207882"
933 "1510561"
934 "1519245"
935 "291206"
936 "1246785"
937 "679289"
938 "174559"
939 "367384"
940 "604559"
941 "1683973"
942 "1406956"
943 "1538012"
944 "447254"
945 "482526"
946 "566347"
947 "1615994"
948 "49893"
949 "690340"
950 "363417"
951 "25590"
952 "1059555"
953 "232062"
954 "1582793"
955 "410878"
956 "1314248"
957 "947586"
958 "813239"
959 "1323368"
960 "805132"
961 "788584"
962 "399222"
963 "1665972"
964 "753233"
965 "1691329"
966 "206071"
967 "1653101"
968 "518173"
969 "879288"
970 "269954"
971 "1553202"
972 "1662515"
973 "326745"
974 "471926"
975 "779445"
976 "1312920"
977 "947864"
978 "1692082"
979 "74031"
980 "454596"
981 "862653"
982 "555050"
983 "788806"
984 "242704"
985 "420365"
986 "1401869"
987 "394330"
988 "1114081"
989 "1089344"
990 "592428"
991 "528070"
992 "1458643"
993 "1593717"
994 "1133902"
995 "1501458"
996 "1150127"
997 "1490962"
998 "1510221"
999 "1630830"
1000 "1253026"
1001 "875680"
1002 "59404"
1003 "13308"
1004 "1630220"
1005 "446819"
1006 "84165"
1007 "1088139"
1008 "294411"
1009 "1254149"
1010 "939325"
1011 "1585288"
1012 "1077367"
1013 "728745"
1014 "865128"
1015 "338048"
1016 "595034"
1017 "1136868"
1018 "505225"
1019 "976490"
1020 "43339"
1021 "95894"
1022 "1054383"
1023 "795605"
1024 "96996"
1025 "523718"
1026 "546435"
1027 "1142038"
1028 "1630389"
1029 "1279969"
1030 "288410"
1031 "480766"
1032 "715959"
1033 "369182"
1034 "1512928"
1035 "1489314"
1036 "93265"
1037 "92455"
1038 "576519"
1039 "1250142"
1040 "1614108"
1041 "1309440"
1042 "654228"
1043 "346828"
1044 "393123"
1045 "1207342"
1046 "1359640"
1047 "527879"
1048 "1629954"
1049 "1682617"
1050 "595839"
1051 "932111"
1052 "1618703"
1053 "1644565"
1054 "1628363"
1055 "392708"
1056 "1534686"
1057 "151134"
1058 "732792"
1059 "328923"
1060 "591505"
1061 "1205694"
1062 "677927"
1063 "1631114"
1064 "131177"
1065 "150888"
1066 "394954"
1067 "1134494"
1068 "1509237"
1069 "1279680"
1070 "369941"
1071 "1689090"
1072 "1690527"
1073 "486302"
1074 "924597"
1075 "620258"
1076 "319943"
1077 "643324"
1078 "1181103"
1079 "300365"
1080 "338498"
1081 "1008611"
1082 "226183"
1083 "1534669"
1084 "1505257"
1085 "1565059"
1086 "977833"
1087 "1033239"
1088 "1337556"
1089 "899746"
1090 "938969"
1091 "1241364"
1092 "48825"
1093 "1446896"
1094 "192839"
1095 "1692690"
1096 "553365"
1097 "1630063"
1098 "289311"
1099 "628148"
1100 "1356150"
1101 "791619"
1102 "209958"
1103 "584489"
1104 "177805"
1105 "910234"
1106 "485391"
1107 "863424"
1108 "767146"
1109 "410997"
1110 "1071458"
1111 "1582540"
1112 "1477373"
1113 "475153"
1114 "802294"
1115 "594596"
1116 "289602"
1117 "1513718"
1118 "581396"
1119 "1104505"
1120 "169643"
1121 "1180994"
1122 "1587305"
1123 "479036"
1124 "587569"
1125 "11160"
1126 "401396"
1127 "362610"
1128 "630901"
1129 "539506"
1130 "1634233"
1131 "1325803"
1132 "338485"
1133 "351550"
1134 "677348"
1135 "250572"
1136 "1176654"
1137 "592341"
1138 "1689884"
1139 "712387"
1140 "234727"
1141 "251836"
1142 "347633"
1143 "34082"
1144 "717188"
1145 "1566559"
1146 "1423389"
1147 "773338"
1148 "934699"
1149 "739413"
1150 "1684889"
1151 "532817"
1152 "841502"
1153 "1213417"
1154 "1539970"
1155 "252695"
1156 "401357"
1157 "1524872"
1158 "314392"
1159 "90749"
1160 "1002982"
1161 "806297"
1162 "765202"
1163 "591140"
1164 "474844"
1165 "837545"
1166 "308810"
1167 "1052455"
1168 "564046"
1169 "309099"
1170 "1455305"
1171 "1101698"
1172 "341193"
1173 "1201509"
1174 "84759"
1175 "1161336"
1176 "1546060"
1177 "464214"
1178 "502876"
1179 "488240"
1180 "412665"
1181 "1031885"
1182 "51714"
1183 "177809"
1184 "931774"
1185 "334384"
1186 "1285148"
1187 "796339"
1188 "436023"
1189 "79770"
1190 "381781"
1191 "656456"
1192 "1358776"
1193 "1100737"
1194 "46142"
1195 "100314"
1196 "810091"
1197 "376611"
1198 "1269421"
1199 "557058"
1200 "101388"
1201 "913362"
1202 "1498943"
1203 "1662147"
1204 "157765"
1205 "1526884"
1206 "1596333"
1207 "1154980"
1208 "432040"
1209 "820103"
1210 "1135374"
1211 "280805"
1212 "770176"
1213 "1483816"
1214 "1161889"
1215 "1014510"
1216 "1681351"
1217 "1599423"
1218 "1568310"
1219 "157711"
1220 "290823"
1221 "859843"
1222 "800718"
1223 "955171"
1224 "1045260"
1225 "1176262"
1226 "852324"
1227 "1089853"
1228 "1046377"
1229 "840120"
1230 "1006513"
1231 "913427"
1232 "1417495"
1233 "37826"
1234 "779899"
1235 "1511112"
1236 "1336229"
1237 "890852"
1238 "1143893"
1239 "1679582"
1240 "1572739"
1241 "495030"
1242 "1118519"
1243 "1630228"
1244 "1517917"
1245 "1311278"
1246 "1645074"
1247 "96186"
1248 "550407"
1249 "110654"
1250 "1088221"
1251 "193526"
1252 "955610"
1253 "1547602"
1254 "403385"
1255 "374873"
1256 "923518"
1257 "1030000"
1258 "520590"
1259 "829768"
1260 "149753"
1261 "287215"
1262 "459253"
1263 "811225"
1264 "347259"
1265 "1192621"
1266 "1710965"
1267 "1029998"
1268 "991708"
1269 "922613"
1270 "388706"
1271 "1124932"
1272 "868935"
1273 "290293"
1274 "377323"
1275 "1640371"
1276 "4510"
1277 "1225163"
1278 "107483"
1279 "331669"
1280 "443527"
1281 "853043"
1282 "1557432"
1283 "1510804"
1284 "734488"
1285 "261343"
1286 "1357760"
1287 "604532"
1288 "305549"
1289 "1141896"
1290 "528913"
1291 "579117"
1292 "775026"
1293 "816383"
1294 "1104771"
1295 "132674"
1296 "1044469"
1297 "818136"
1298 "35473"
1299 "1369224"
1300 "1152000"
1301 "347539"
1302 "22646"
1303 "233464"
1304 "301217"
1305 "926886"
1306 "867102"
1307 "1425353"
1308 "926474"
1309 "1062985"
*Edges
1 2 1
3 4 1
3 5 1
4 5 1
6 7 1
8 9 1
10 11 1
12 13 1
14 15 1
16 17 1
16 18 1
16 19 1
16 20 1
17 18 1
17 19 1
17 20 1
18 19 1
18 20 1
19 20 1
21 22 1
21 23 1
22 23 1
24 3 1
24 25 1
24 26 1
3 25 1
3 26 1
25 26 1
27 28 1
29 30 1
31 30 1
32 33 2
34 35 1
34 36 1
34 37 1
34 38 1
34 39 1
35 36 1
35 37 1
35 38 1
35 39 1
36 37 1
36 38 1
36 39 1
37 38 1
37 39 1
38 39 1
40 41 1
40 42 1
40 43 1
41 42 1
41 43 1
42 43 1
44 45 1
46 47 1
48 49 1
48 50 1
49 50 1
51 52 1
53 54 1
55 56 1
57 58 1
59 60 1
61 62 1
63 64 1
65 66 2
65 67 1
66 67 1
68 69 1
70 71 1
72 73 4
72 74 2
73 74 2
75 47 1
76 77 1
78 79 1
80 81 1
72 82 1
83 84 1
85 86 1
87 88 1
87 89 1
87 90 1
87 91 1
88 89 1
88 90 1
88 91 1
89 90 1
89 91 1
90 91 1
92 93 1
94 95 1
96 97 1
98 99 1
100 101 1
72 102 1
72 103 1
102 103 1
30 104 1
105 96 1
72 106 1
74 106 1
73 106 1
107 108 1
109 110 1
111 112 1
111 113 1
112 113 1
114 115 1
116 117 1
118 119 1
120 121 1
120 122 1
121 122 1
47 123 1
124 125 1
124 126 3
125 126 1
109 127 1
128 129 1
128 130 1
129 130 1
72 131 2
72 132 2
73 131 2
73 132 2
131 132 2
133 134 2
55 135 1
136 137 2
138 139 1
140 141 1
142 101 1
143 144 1
145 146 1
147 148 1
149 124 1
149 126 1
150 151 1
150 152 1
151 152 1
153 154 1
153 155 2
154 155 1
156 157 1
156 158 1
156 159 1
157 158 1
157 159 1
158 159 1
160 161 1
160 162 1
161 162 1
163 164 2
165 119 1
166 167 1
168 169 1
170 171 1
40 172 3
173 174 2
175 176 1
175 177 1
176 177 1
178 179 1
180 126 2
181 182 1
181 183 1
182 183 1
47 184 1
47 185 1
184 185 1
186 109 1
187 109 2
188 189 1
190 191 1
190 192 1
191 192 1
180 124 1
193 194 1
195 196 1
195 197 1
196 197 1
198 199 1
200 201 1
202 203 1
204 205 1
204 206 1
205 206 1
207 208 1
207 209 1
207 210 1
208 209 1
208 210 1
209 210 1
211 212 1
211 213 1
212 213 1
55 214 1
215 216 1
215 217 1
216 217 1
218 219 1
218 220 1
218 221 1
218 222 1
219 220 1
219 221 1
219 222 1
220 221 1
220 222 1
221 222 1
223 224 2
225 166 1
225 30 2
166 30 1
226 227 3
226 228 3
227 228 4
229 230 1
231 232 1
231 233 1
232 233 1
234 235 1
236 237 1
238 239 1
240 241 1
242 243 1
242 244 1
243 244 1
245 246 1
247 248 1
249 250 1
251 30 1
252 253 1
254 255 1
254 256 1
255 256 1
257 258 1
259 260 1
261 262 1
261 224 1
262 224 2
263 264 1
265 266 2
267 268 1
269 270 1
269 271 1
270 271 1
272 273 1
274 275 1
276 277 1
278 279 1
280 281 1
282 283 1
282 284 1
283 284 1
285 286 1
285 287 1
285 236 1
286 287 1
286 236 1
287 236 2
288 289 1
290 291 1
290 292 1
291 292 1
293 294 1
295 296 1
295 297 1
296 297 1
298 299 2
300 301 1
266 302 1
265 302 1
215 303 1
304 305 1
304 306 1
305 306 1
307 308 1
307 309 1
308 309 1
273 310 1
223 311 1
223 312 1
311 312 1
311 224 1
312 224 1
313 314 1
315 316 2
317 318 1
317 319 1
318 319 1
187 320 1
321 136 2
321 322 1
136 322 1
323 109 1
324 325 1
326 327 1
326 328 1
327 328 1
329 330 1
331 332 1
333 334 1
335 336 2
337 47 1
30 121 1
338 339 1
338 340 1
339 340 1
341 342 1
343 344 1
345 346 1
345 347 1
346 347 1
348 349 1
350 351 1
352 353 1
352 354 1
353 354 1
355 356 1
357 358 1
357 359 1
358 359 1
360 361 1
360 362 1
361 362 1
363 364 1
364 365 1
366 367 1
366 368 1
367 368 1
369 370 1
371 372 1
373 374 1
375 376 1
375 377 1
376 377 1
378 379 1
378 380 1
379 380 1
381 382 1
381 383 1
381 384 1
381 385 1
381 386 1
382 383 1
382 384 1
382 385 1
382 386 1
383 384 1
383 385 1
383 386 1
384 385 1
384 386 1
385 386 1
387 388 1
389 390 1
391 392 1
393 394 1
395 396 1
397 398 1
397 399 1
398 399 1
400 401 1
55 402 1
403 404 1
405 406 1
407 408 1
409 410 1
411 412 3
411 413 3
411 414 3
412 413 3
412 414 3
413 414 3
415 416 1
417 418 1
419 420 1
419 421 1
420 421 1
422 423 1
424 425 2
424 426 5
425 426 2
427 428 1
429 430 1
431 432 1
431 433 1
432 433 1
434 435 1
436 437 1
438 439 1
438 440 1
438 441 1
438 442 1
439 440 1
439 441 1
439 442 1
440 441 1
440 442 1
441 442 1
443 444 1
445 446 1
445 447 1
446 447 1
448 449 1
448 450 1
448 451 1
449 450 1
449 451 1
450 451 1
452 453 1
454 455 1
456 457 2
458 459 1
460 461 1
460 462 1
461 462 1
463 464 1
463 465 1
464 465 1
466 467 1
468 469 1
468 470 1
469 470 1
471 290 1
471 472 1
290 472 1
473 474 1
475 476 1
477 478 1
477 479 1
477 480 1
478 479 1
478 480 1
479 480 1
481 482 1
481 483 1
482 483 1
484 485 1
486 487 1
488 489 1
490 491 1
490 492 1
490 493 1
491 492 1
491 493 1
492 493 1
494 495 1
496 497 1
496 498 1
497 498 1
499 500 1
501 502 1
503 504 1
505 506 1
505 507 1
506 507 1
508 509 1
510 511 1
512 513 1
514 515 1
514 516 1
515 516 1
517 518 1
517 519 1
518 519 1
520 521 1
520 522 1
521 522 1
523 524 1
525 526 2
527 243 1
528 529 1
530 531 1
532 533 1
534 535 1
534 536 2
535 536 1
537 538 1
537 539 1
538 539 1
540 541 1
540 542 1
541 542 1
543 544 1
545 546 1
547 548 1
549 550 1
551 552 1
553 554 1
555 556 2
557 558 1
559 560 1
559 561 1
559 562 1
560 561 1
560 562 1
561 562 1
172 563 1
424 564 3
564 426 3
463 565 1
287 566 1
566 236 1
567 568 1
567 569 1
568 569 1
526 570 1
525 570 1
571 572 1
262 573 1
573 224 1
574 69 1
575 576 1
577 578 1
579 580 1
579 581 1
579 582 1
580 581 1
580 582 1
581 582 1
583 584 1
583 585 1
583 586 1
583 587 1
584 585 1
584 586 1
584 587 1
585 586 1
585 587 1
586 587 1
588 589 1
590 591 1
592 593 1
594 595 1
594 596 1
594 597 1
594 598 1
595 596 1
595 597 1
595 598 1
596 597 1
596 598 1
597 598 1
599 600 1
601 602 1
603 604 1
605 606 1
607 608 2
609 610 1
609 611 1
609 612 1
610 611 1
610 612 1
611 612 1
613 267 1
614 615 1
616 617 1
618 619 1
620 621 1
622 623 1
624 625 2
626 627 2
628 629 2
630 631 1
630 632 1
631 632 2
633 634 2
635 636 2
637 638 2
639 640 2
641 642 2
643 644 2
645 646 2
647 648 2
647 649 2
648 649 2
650 651 2
652 653 2
652 654 2
653 654 2
655 656 2
657 658 2
659 660 2
661 662 2
661 663 2
662 663 2
664 665 2
666 667 2
666 668 2
667 668 2
669 670 2
671 672 2
671 673 2
671 674 2
672 673 2
672 674 2
673 674 2
675 676 3
677 678 2
679 680 2
681 682 1
681 683 1
682 683 2
684 685 2
686 687 3
688 689 1
688 690 1
689 690 1
691 682 1
691 683 1
692 631 1
692 632 1
693 694 1
695 696 1
695 697 1
695 698 1
696 697 1
696 698 1
697 698 1
699 700 1
699 561 1
699 701 1
699 702 1
700 561 1
700 701 1
700 702 2
561 701 1
561 702 1
701 702 1
703 704 1
705 706 1
705 707 1
706 707 1
708 709 1
710 711 1
710 712 1
710 713 1
711 712 1
711 713 1
712 713 1
714 715 1
716 717 1
718 719 1
720 134 1
720 721 1
134 721 1
722 231 1
723 724 1
335 725 5
726 727 2
726 728 3
727 728 2
288 729 1
229 730 1
731 732 1
733 187 1
733 109 1
145 734 1
735 736 1
737 738 1
739 740 1
739 741 1
740 741 1
742 743 1
744 745 1
746 747 1
748 749 1
750 751 2
752 753 1
754 755 1
756 757 1
758 759 1
760 761 1
579 588 1
579 762 1
588 762 1
247 763 2
247 764 1
763 764 1
302 138 2
765 766 1
602 767 1
228 768 1
227 768 1
226 768 1
769 770 1
769 771 1
770 771 1
772 773 1
774 775 1
776 777 1
778 779 1
553 780 1
553 781 1
553 782 1
780 781 1
780 782 1
781 782 1
226 783 1
784 785 1
784 786 1
785 786 1
787 788 1
787 789 1
788 789 1
790 47 1
791 792 1
791 793 1
792 793 1
794 795 1
794 796 1
795 796 1
288 797 1
798 799 1
798 800 1
799 800 1
801 802 1
801 236 1
802 236 1
803 804 1
805 806 1
807 808 1
807 809 1
808 809 1
810 811 1
810 812 1
810 813 1
810 814 1
810 815 1
811 812 1
811 813 1
811 814 1
811 815 1
812 813 1
812 814 1
812 815 1
813 814 1
813 815 1
814 815 1
816 817 1
816 818 1
817 818 1
819 820 1
819 821 1
819 822 1
819 823 1
820 821 1
820 822 1
820 823 1
821 822 1
821 823 1
822 823 1
824 825 1
826 756 1
827 828 1
829 227 2
829 228 1
830 698 1
320 805 1
831 414 2
832 30 1
833 834 1
833 227 1
834 227 1
835 836 1
837 838 1
839 840 1
227 841 1
841 829 1
842 843 1
844 845 1
846 847 1
848 849 1
850 851 1
850 852 1
850 853 1
851 852 1
851 853 1
852 853 1
854 855 1
856 857 1
858 859 1
310 860 1
861 298 1
861 862 1
298 862 1
863 864 1
863 865 1
863 866 1
863 867 1
864 865 1
864 866 1
864 867 1
865 866 1
865 867 1
866 867 1
868 264 1
869 870 1
871 872 1
873 55 1
247 874 1
247 875 1
874 875 1
876 877 1
876 878 1
877 878 1
879 880 1
881 882 1
883 884 1
885 886 1
887 888 1
889 890 1
891 892 1
891 893 1
891 882 1
891 894 1
892 893 1
892 882 1
892 894 1
893 882 1
893 894 1
882 894 1
895 896 1
897 898 1
899 900 1
901 588 1
902 903 1
904 905 1
904 906 1
905 906 1
907 908 1
909 910 1
911 690 1
911 912 1
690 912 1
913 914 1
690 915 1
690 916 1
915 916 1
917 918 1
919 920 1
919 921 1
920 921 1
922 923 1
922 924 1
923 924 1
626 925 1
926 927 1
928 929 1
930 931 1
930 932 2
930 933 1
931 932 1
931 933 1
932 933 1
934 935 1
936 937 1
938 939 1
938 940 1
938 941 1
939 940 1
939 941 1
940 941 1
942 943 1
944 945 1
944 946 1
944 665 1
945 946 1
945 665 1
946 665 1
947 948 1
947 949 1
948 949 1
950 951 1
950 952 1
951 952 1
953 954 1
953 955 1
954 955 1
956 957 1
956 958 1
956 959 1
957 958 1
957 959 1
958 959 1
960 961 1
960 962 1
960 963 1
960 964 1
961 962 1
961 963 1
961 964 1
962 963 1
962 964 1
963 964 1
965 966 1
967 968 1
969 970 1
969 971 1
970 971 1
972 662 1
973 974 1
975 976 1
977 978 1
979 980 1
981 982 1
981 983 1
982 983 1
984 985 1
986 987 1
986 988 1
986 989 1
986 990 1
987 988 1
987 989 1
987 990 1
988 989 1
988 990 1
989 990 1
991 992 1
993 994 1
993 995 1
994 995 1
996 997 1
996 998 1
997 998 1
999 1000 1
1001 1002 1
1003 1004 1
1003 1005 1
1004 1005 1
1006 1007 1
1006 1008 1
1007 1008 1
1009 1010 1
726 1011 1
1011 728 1
335 1012 2
1013 327 1
1014 900 1
1015 1016 1
1017 1018 1
1019 1020 1
1019 1021 1
1019 1022 1
1019 1023 1
1020 1021 1
1020 1022 1
1020 1023 1
1021 1022 1
1021 1023 1
1022 1023 1
1024 1025 1
1024 696 1
1025 696 1
1026 456 1
1026 457 1
1027 1028 1
1027 1029 1
1028 1029 1
1030 1031 1
1032 1033 1
1032 1034 1
1032 1035 1
1033 1034 1
1033 1035 1
1034 1035 1
1036 45 1
1036 1037 1
1036 1038 1
1036 1039 1
1036 1040 1
45 1037 1
45 1038 1
45 1039 1
45 1040 1
1037 1038 1
1037 1039 1
1037 1040 1
1038 1039 1
1038 1040 1
1039 1040 1
1041 1042 1
87 1043 1
87 1044 1
1043 1044 1
1045 1046 1
1047 1021 1
1047 1048 1
1021 1048 1
1049 1050 1
1049 1051 1
1050 1051 1
801 1052 1
1053 1054 1
1053 1055 1
1053 1056 1
1054 1055 1
1054 1056 1
1055 1056 1
1057 145 1
1057 1058 1
145 1058 1
1059 1060 1
1059 1061 1
1060 1061 1
787 1062 1
787 1063 1
1062 1063 1
124 1064 1
1065 1066 1
1067 1068 1
1069 1070 1
555 1071 1
555 1072 1
1071 1072 1
1073 1074 1
1075 1076 1
1075 1077 1
1076 1077 1
310 1078 1
1079 719 1
1080 1081 1
1080 1082 1
1081 1082 1
1083 1084 1
836 1085 1
1086 1087 1
1088 1089 1
1088 1090 1
1089 1090 1
1091 534 1
1091 536 1
124 1021 1
124 1092 1
1021 1092 1
1093 74 1
1094 1095 1
1094 1096 1
1094 1097 1
1094 1098 1
1094 1099 1
1094 1100 1
1094 1101 1
1095 1096 1
1095 1097 1
1095 1098 1
1095 1099 1
1095 1100 1
1095 1101 1
1096 1097 1
1096 1098 1
1096 1099 1
1096 1100 1
1096 1101 1
1097 1098 1
1097 1099 1
1097 1100 1
1097 1101 1
1098 1099 1
1098 1100 1
1098 1101 1
1099 1100 1
1099 1101 1
1100 1101 1
1102 1103 1
1102 1104 1
1103 1104 1
1105 1106 1
1105 1107 1
1106 1107 1
352 315 1
352 316 1
352 1108 1
315 1108 1
316 1108 1
1109 1110 1
273 1111 1
1112 898 1
1113 1114 1
1113 1115 1
1114 1115 1
1116 1117 1
1116 1118 1
1117 1118 1
1119 359 1
1120 1121 1
1122 1123 1
1124 1125 1
1124 1126 1
1125 1126 1
1127 1128 1
1129 898 1
1130 1131 1
1099 1132 1
1133 1134 1
607 1135 1
1136 1137 1
1136 1138 1
1136 1139 1
1137 1138 1
1137 1139 1
1138 1139 1
1140 1141 1
1142 1143 1
416 1144 1
416 1145 1
1144 1145 1
1144 1146 1
489 1147 1
489 1148 1
1147 1148 1
1149 1150 1
1151 1152 1
1153 1154 1
1153 1155 1
1154 1155 1
488 1156 1
488 1157 1
488 1140 1
1156 1157 1
1156 1140 1
1157 1140 1
1158 1159 1
1160 1161 1
1162 1163 1
1162 1164 1
1162 1165 1
1163 1164 1
1163 1165 1
1164 1165 1
1166 887 1
1166 1167 1
1166 1168 1
1166 608 1
1166 1169 1
1166 1170 1
1166 1171 1
1166 1172 1
1166 1173 1
1166 1174 1
1166 1175 1
1166 1176 1
1166 1177 1
1166 1178 1
1166 1179 1
1166 1180 1
1166 607 1
1166 1181 1
887 1167 1
887 1168 1
887 608 1
887 1169 1
887 1170 1
887 1171 1
887 1172 1
887 1173 1
887 1174 1
887 1175 1
887 1176 1
887 1177 1
887 1178 1
887 1179 1
887 1180 1
887 607 1
887 1181 1
1167 1168 1
1167 608 1
1167 1169 1
1167 1170 1
1167 1171 1
1167 1172 1
1167 1173 1
1167 1174 1
1167 1175 1
1167 1176 1
1167 1177 1
1167 1178 1
1167 1179 1
1167 1180 1
1167 607 1
1167 1181 1
1168 608 1
1168 1169 1
1168 1170 1
1168 1171 1
1168 1172 1
1168 1173 1
1168 1174 1
1168 1175 1
1168 1176 1
1168 1177 1
1168 1178 1
1168 1179 1
1168 1180 1
1168 607 1
1168 1181 1
608 1169 1
608 1170 1
608 1171 1
608 1172 1
608 1173 1
608 1174 1
608 1175 1
608 1176 1
608 1177 1
608 1178 1
608 1179 1
608 1180 1
608 1181 1
1169 1170 1
1169 1171 1
1169 1172 1
1169 1173 1
1169 1174 1
1169 1175 1
1169 1176 1
1169 1177 1
1169 1178 1
1169 1179 1
1169 1180 1
1169 607 1
1169 1181 1
1170 1171 1
1170 1172 1
1170 1173 1
1170 1174 1
1170 1175 1
1170 1176 1
1170 1177 1
1170 1178 1
1170 1179 1
1170 1180 1
1170 607 1
1170 1181 1
1171 1172 1
1171 1173 1
1171 1174 1
1171 1175 1
1171 1176 1
1171 1177 1
1171 1178 1
1171 1179 1
1171 1180 1
1171 607 1
1171 1181 1
1172 1173 1
1172 1174 1
1172 1175 1
1172 1176 1
1172 1177 1
1172 1178 1
1172 1179 1
1172 1180 1
1172 607 1
1172 1181 1
1173 1174 1
1173 1175 1
1173 1176 1
1173 1177 1
1173 1178 1
1173 1179 1
1173 1180 1
1173 607 1
1173 1181 1
1174 1175 1
1174 1176 1
1174 1177 1
1174 1178 1
1174 1179 1
1174 1180 1
1174 607 1
1174 1181 1
1175 1176 1
1175 1177 1
1175 1178 1
1175 1179 1
1175 1180 1
1175 607 1
1175 1181 1
1176 1177 1
1176 1178 1
1176 1179 1
1176 1180 1
1176 607 1
1176 1181 1
1177 1178 1
1177 1179 1
1177 1180 1
1177 607 1
1177 1181 1
1178 1179 1
1178 1180 1
1178 607 1
1178 1181 1
1179 1180 1
1179 607 1
1179 1181 1
1180 607 1
1180 1181 1
607 1181 1
602 1182 1
1099 1183 1
1184 1185 1
1184 1186 1
1185 1186 1
1080 1187 1
1188 1189 1
1190 1191 1
1192 1193 1
1194 1195 1
1196 1197 1
1198 1199 1
1200 1201 2
1202 690 1
1202 625 1
1202 624 1
1202 1203 1
690 625 1
690 624 1
690 1203 1
625 1203 1
624 1203 1
1204 1205 1
1204 1206 1
1204 1207 1
1205 1206 1
1205 1207 1
1206 1207 1
1208 1209 1
1208 1210 1
1208 1211 1
1209 1210 1
1209 1211 1
1210 1211 1
1212 1213 1
1212 1214 1
1212 1215 1
1212 1216 1
1212 1217 1
1213 1214 1
1213 1215 1
1213 1216 1
1213 1217 1
1214 1215 1
1214 1216 1
1214 1217 1
1215 1216 1
1215 1217 1
1216 1217 1
1218 1219 1
1220 1221 1
1222 1223 1
1224 1225 1
1224 1226 1
1224 1227 1
1224 1228 1
1224 1229 1
1225 1226 1
1225 1227 1
1225 1228 1
1225 1229 1
1226 1227 1
1226 1228 1
1226 1229 1
1227 1228 1
1227 1229 1
1228 1229 1
1230 1231 1
1232 1233 1
1234 1235 1
1234 1236 1
1235 1236 1
1237 1224 1
1237 1238 1
1237 1239 1
1224 1238 1
1224 1239 1
1238 1239 1
1240 1241 1
1242 1243 1
1242 1244 1
1243 1244 1
1245 1246 1
1245 1247 1
1245 1248 1
1246 1247 1
1246 1248 1
1247 1248 1
1249 1250 1
1249 1251 1
1249 1252 1
1250 1251 1
1250 1252 1
1251 1252 1
1253 1254 1
1253 1255 1
1254 1255 1
1256 1257 1
1256 1258 1
1257 1258 1
1259 1260 1
1259 1261 1
1260 1261 1
1252 1262 1
1263 1264 1
1263 1265 1
1264 1265 1
1266 1267 1
1268 1269 1
1270 1271 1
1270 1272 1
1270 1267 1
1271 1272 1
1271 1267 1
1272 1267 1
1273 1274 1
1273 1275 1
1274 1275 1
1276 1200 1
1276 1277 1
1200 1277 1
1278 1279 1
1278 1280 1
1279 1280 1
1281 1282 1
1283 1260 1
1284 1285 1
1284 1243 1
1285 1243 1
1286 1287 1
1286 1288 1
1286 1289 1
1286 1290 1
1286 1291 1
1287 1288 1
1287 1289 1
1287 1290 1
1287 1291 1
1288 1289 1
1288 1290 1
1288 1291 1
1289 1290 1
1289 1291 1
1290 1291 1
1292 1293 1
1294 1295 1
1294 1296 1
1294 1297 1
1294 1298 1
1295 1296 1
1295 1297 1
1295 1298 1
1296 1297 1
1296 1298 1
1297 1298 1
1299 1207 1
1300 1301 1
1300 1302 1
1300 1303 1
1300 1304 1
1301 1302 1
1301 1303 1
1301 1304 1
1302 1303 1
1302 1304 1
1303 1304 1
1305 1306 1
1305 1307 1
1305 1308 1
1305 1309 1
1306 1307 1
1306 1308 1
1306 1309 1
1307 1308 1
1307 1309 1
1308 1309 1
