*Vertices 528
1 "603560"
2 "307665"
3 "1618323"
4 "1127189"
5 "860533"
6 "1366966"
7 "176644"
8 "439760"
9 "1230025"
10 "49582"
11 "22780"
12 "270303"
13 "1684406"
14 "1123170"
15 "385978"
16 "515258"
17 "304663"
18 "1072320"
19 "683526"
20 "960494"
21 "419133"
22 "1366003"
23 "696092"
24 "49827"
25 "643150"
26 "1424815"
27 "736657"
28 "157890"
29 "37134"
30 "986229"
31 "218303"
32 "170339"
33 "1118126"
34 "144147"
35 "907966"
36 "1698392"
37 "1380762"
38 "183879"
39 "1056040"
40 "1199843"
41 "838330"
42 "1142976"
43 "550464"
44 "412874"
45 "317513"
46 "696732"
47 "1315643"
48 "175857"
49 "275885"
50 "1116271"
51 "47424"
52 "964241"
53 "1295737"
54 "1074572"
55 "1310840"
56 "236902"
57 "695657"
58 "149319"
59 "380080"
60 "627535"
61 "475365"
62 "623048"
63 "315867"
64 "1379177"
65 "144272"
66 "1263627"
67 "164639"
68 "689185"
69 "494292"
70 "172627"
71 "901959"
72 "1221364"
73 "722477"
74 "1446476"
75 "1702393"
76 "1117425"
77 "1702216"
78 "1516767"
79 "75754"
80 "1679342"
81 "368491"
82 "806919"
83 "1397767"
84 "1143944"
85 "325631"
86 "455354"
87 "1061891"
88 "1685874"
89 "1682885"
90 "646179"
91 "562408"
92 "650890"
93 "1168941"
94 "867275"
95 "851135"
96 "183465"
97 "282440"
98 "1633691"
99 "594700"
100 "1164631"
101 "634409"
102 "1240573"
103 "1504923"
104 "1130988"
105 "978295"
106 "1054186"
107 "1529985"
108 "1567205"
109 "1447135"
110 "630085"
111 "1488384"
112 "1368997"
113 "799573"
114 "170290"
115 "1365521"
116 "591350"
117 "1682213"
118 "1116306"
119 "686772"
120 "550365"
121 "1431623"
122 "1487563"
123 "1691992"
124 "134127"
125 "606243"
126 "452617"
127 "131462"
128 "610947"
129 "138949"
130 "682863"
131 "696068"
132 "1149607"
133 "106508"
134 "34344"
135 "36567"
136 "1602691"
137 "357725"
138 "179091"
139 "528064"
140 "1072714"
141 "1363701"
142 "898932"
143 "1359079"
144 "145611"
145 "594502"
146 "1092890"
147 "306751"
148 "1527677"
149 "908468"
150 "1365930"
151 "194337"
152 "146320"
153 "272018"
154 "941285"
155 "604934"
156 "1060183"
157 "160624"
158 "1024081"
159 "466360"
160 "475507"
161 "1072205"
162 "420726"
163 "1421143"
164 "550331"
165 "713382"
166 "1194029"
167 "658306"
168 "41882"
169 "735787"
170 "1267394"
171 "145017"
172 "1367052"
173 "522031"
174 "2833"
175 "36900"
176 "83071"
177 "1528271"
178 "1683735"
179 "1364580"
180 "1700004"
181 "1161466"
182 "1211107"
183 "1630294"
184 "1691976"
185 "108423"
186 "1393414"
187 "768023"
188 "211061"
189 "158624"
190 "36825"
191 "1480333"
192 "131953"
193 "468405"
194 "1193243"
195 "327633"
196 "259628"
197 "295901"
198 "25822"
199 "720365"
200 "593716"
201 "50379"
202 "145711"
203 "573771"
204 "349857"
205 "1606420"
206 "853671"
207 "561718"
208 "1666938"
209 "389287"
210 "1457203"
211 "399253"
212 "1215242"
213 "83068"
214 "800807"
215 "1456334"
216 "1213028"
217 "1507759"
218 "1649814"
219 "712859"
220 "110928"
221 "309639"
222 "1619710"
223 "575688"
224 "1141312"
225 "1544830"
226 "1221892"
227 "630063"
228 "1200401"
229 "594757"
230 "96276"
231 "1703802"
232 "97047"
233 "1696613"
234 "62910"
235 "81262"
236 "319327"
237 "1189068"
238 "1631530"
239 "472521"
240 "1668228"
241 "1100984"
242 "597328"
243 "340368"
244 "1655811"
245 "1385996"
246 "539918"
247 "1626838"
248 "496380"
249 "601652"
250 "32370"
251 "1653938"
252 "772750"
253 "1644994"
254 "706616"
255 "955814"
256 "1327161"
257 "1474642"
258 "219801"
259 "1353052"
260 "1181102"
261 "377848"
262 "267162"
263 "1073997"
264 "1015405"
265 "446817"
266 "1535061"
267 "1664702"
268 "258957"
269 "1492472"
270 "483251"
271 "1509541"
272 "1110509"
273 "558261"
274 "1625051"
275 "744945"
276 "210108"
277 "1684110"
278 "301038"
279 "1657889"
280 "477862"
281 "972461"
282 "102129"
283 "1519617"
284 "593690"
285 "943888"
286 "740037"
287 "1608503"
288 "718744"
289 "954915"
290 "1160026"
291 "385061"
292 "32866"
293 "1472714"
294 "383627"
295 "865881"
296 "1388922"
297 "1706737"
298 "60914"
299 "852077"
300 "409302"
301 "1270480"
302 "642653"
303 "1620882"
304 "70810"
305 "1324446"
306 "1366836"
307 "395039"
308 "237534"
309 "1538830"
310 "163674"
311 "840620"
312 "1155058"
313 "1222626"
314 "1382682"
315 "782264"
316 "315747"
317 "721948"
318 "1030869"
319 "1674030"
320 "1014157"
321 "1509538"
322 "279251"
323 "1016062"
324 "1508034"
325 "881300"
326 "1387586"
327 "147200"
328 "320641"
329 "436441"
330 "681201"
331 "875727"
332 "877314"
333 "457251"
334 "416794"
335 "1116010"
336 "1094935"
337 "1602940"
338 "674595"
339 "668307"
340 "934838"
341 "991549"
342 "1699615"
343 "469582"
344 "208180"
345 "520647"
346 "393140"
347 "152332"
348 "1679257"
349 "644035"
350 "1340604"
351 "620970"
352 "762701"
353 "1577707"
354 "1157495"
355 "1213440"
356 "81955"
357 "1425138"
358 "600882"
359 "477487"
360 "861089"
361 "1128937"
362 "264958"
363 "1334827"
364 "214973"
365 "278376"
366 "412535"
367 "1515161"
368 "1172171"
369 "1068275"
370 "1407804"
371 "758151"
372 "1052305"
373 "458680"
374 "1009056"
375 "429219"
376 "1564596"
377 "531081"
378 "594302"
379 "646459"
380 "731755"
381 "593201"
382 "20932"
383 "1151681"
384 "649866"
385 "1149527"
386 "957976"
387 "274114"
388 "933916"
389 "1214704"
390 "1556087"
391 "111829"
392 "590048"
393 "1020850"
394 "912686"
395 "512234"
396 "506150"
397 "1611276"
398 "302025"
399 "1347120"
400 "1001559"
401 "168814"
402 "635952"
403 "502702"
404 "1683461"
405 "878024"
406 "1157409"
407 "836370"
408 "270726"
409 "648330"
410 "303850"
411 "842250"
412 "244330"
413 "973241"
414 "835280"
415 "836200"
416 "71241"
417 "496841"
418 "381690"
419 "1644491"
420 "877410"
421 "1210598"
422 "410548"
423 "666780"
424 "340331"
425 "1207567"
426 "1345790"
427 "573706"
428 "303820"
429 "375412"
430 "1319777"
431 "802292"
432 "1673776"
433 "924191"
434 "210874"
435 "441203"
436 "1170365"
437 "1545639"
438 "279496"
439 "1123617"
440 "758427"
441 "759919"
442 "1080149"
443 "1497313"
444 "914602"
445 "1140651"
446 "1646035"
447 "1459271"
448 "1224959"
449 "403737"
450 "302861"
451 "209608"
452 "481756"
453 "374195"
454 "47010"
455 "50119"
456 "54714"
457 "23452"
458 "519612"
459 "762352"
460 "197429"
461 "456311"
462 "1333989"
463 "690012"
464 "45027"
465 "1256204"
466 "1070132"
467 "1273631"
468 "458702"
469 "394053"
470 "276380"
471 "1577750"
472 "1500741"
473 "45023"
474 "1180993"
475 "1335408"
476 "254943"
477 "556592"
478 "1305360"
479 "988931"
480 "639263"
481 "1322237"
482 "1663318"
483 "221091"
484 "1132135"
485 "689139"
486 "1057713"
487 "1593479"
488 "481198"
489 "930358"
490 "844444"
491 "946839"
492 "549819"
493 "1139938"
494 "942278"
495 "1532445"
496 "1585815"
497 "1050327"
498 "1132841"
499 "634750"
500 "766139"
501 "948171"
502 "292496"
503 "1587838"
504 "616414"
505 "1532162"
506 "520071"
507 "1697659"
508 "1234625"
509 "1669577"
510 "212468"
511 "1653597"
512 "57204"
513 "966356"
514 "1548731"
515 "1140606"
516 "617764"
517 "180370"
518 "819690"
519 "518630"
520 "1539890"
521 "259957"
522 "1041969"
523 "718521"
524 "265640"
525 "113690"
526 "502397"
527 "250273"
*Edges
1 2 1
3 4 1
3 5 1
4 5 1
6 7 1
8 9 1
10 11 1
12 13 1
14 15 1
16 17 1
16 18 1
16 19 1
16 20 1
17 18 1
17 19 1
17 20 1
18 19 1
18 20 1
19 20 1
21 22 1
21 23 1
22 23 1
24 3 1
24 25 1
24 26 1
3 25 1
3 26 1
25 26 1
27 28 1
29 30 1
31 30 1
32 33 2
34 35 1
34 36 1
34 37 1
34 38 1
34 39 1
35 36 1
35 37 1
35 38 1
35 39 1
36 37 1
36 38 1
36 39 1
37 38 1
37 39 1
38 39 1
40 41 1
40 42 1
40 43 1
41 42 1
41 43 1
42 43 1
44 45 1
46 47 1
48 49 1
48 50 1
49 50 1
51 52 1
53 54 1
55 56 1
57 58 1
59 60 1
61 62 1
63 64 1
65 66 2
65 67 1
66 67 1
68 69 1
70 71 1
72 73 4
72 74 2
73 74 2
75 47 1
76 77 1
78 79 1
80 81 1
72 82 1
83 84 1
85 86 1
87 88 1
87 89 1
87 90 1
87 91 1
88 89 1
88 90 1
88 91 1
89 90 1
89 91 1
90 91 1
92 93 1
94 95 1
96 97 1
98 99 1
100 101 1
72 102 1
72 103 1
102 103 1
30 104 1
105 96 1
72 106 1
74 106 1
73 106 1
107 108 1
109 110 1
111 112 1
111 113 1
112 113 1
114 115 1
116 117 1
118 119 1
120 121 1
120 122 1
121 122 1
47 123 1
124 125 1
124 126 3
125 126 1
109 127 1
128 129 1
128 130 1
129 130 1
72 131 2
72 132 2
73 131 2
73 132 2
131 132 2
133 134 2
55 135 1
136 137 2
138 139 1
140 141 1
142 101 1
143 144 1
145 146 1
147 148 1
149 124 1
149 126 1
150 151 1
150 152 1
151 152 1
153 154 1
153 155 2
154 155 1
156 157 1
156 158 1
156 159 1
157 158 1
157 159 1
158 159 1
160 161 1
160 162 1
161 162 1
163 164 2
165 119 1
166 167 1
168 169 1
170 171 1
40 172 2
173 174 2
175 176 1
175 177 1
176 177 1
178 179 1
180 126 2
181 182 1
181 183 1
182 183 1
47 184 1
47 185 1
184 185 1
186 109 1
187 109 1
188 189 1
190 191 1
190 192 1
191 192 1
180 124 1
193 194 1
195 196 1
195 197 1
196 197 1
198 199 1
200 201 1
202 203 1
204 205 1
204 206 1
205 206 1
207 208 1
207 209 1
207 210 1
208 209 1
208 210 1
209 210 1
211 212 1
211 213 1
212 213 1
55 214 1
215 216 1
215 217 1
216 217 1
218 219 1
218 220 1
218 221 1
218 222 1
219 220 1
219 221 1
219 222 1
220 221 1
220 222 1
221 222 1
223 224 2
225 166 1
225 30 2
166 30 1
226 227 2
226 228 2
227 228 2
229 230 1
231 232 1
231 233 1
232 233 1
234 235 1
236 237 1
238 239 1
240 241 1
242 243 1
242 244 1
243 244 1
245 246 1
247 248 1
249 250 1
251 30 1
252 253 1
254 255 1
254 256 1
255 256 1
257 258 1
259 260 1
261 262 1
261 224 1
262 224 1
263 264 1
265 266 2
267 268 1
269 270 1
269 271 1
270 271 1
272 273 1
274 275 1
276 277 1
278 279 1
280 281 1
282 283 1
282 284 1
283 284 1
285 286 1
285 287 1
285 236 1
286 287 1
286 236 1
287 236 1
288 289 1
290 291 1
290 292 1
291 292 1
293 294 1
295 296 1
295 297 1
296 297 1
298 299 2
300 301 1
266 302 1
265 302 1
215 303 1
304 305 1
304 306 1
305 306 1
307 308 1
307 309 1
308 309 1
273 310 1
223 311 1
223 312 1
311 312 1
311 224 1
312 224 1
313 314 1
315 316 1
317 318 1
317 319 1
318 319 1
187 320 1
321 136 1
321 322 1
136 322 1
323 109 1
324 325 1
326 327 1
326 328 1
327 328 1
329 330 1
331 332 1
333 334 1
335 336 1
337 47 1
30 121 1
338 339 1
338 340 1
339 340 1
341 342 1
343 344 1
345 346 1
345 347 1
346 347 1
348 349 1
350 351 1
352 353 1
352 354 1
353 354 1
355 356 1
357 358 1
357 359 1
358 359 1
360 361 1
360 362 1
361 362 1
363 364 1
364 365 1
366 367 1
366 368 1
367 368 1
369 370 1
371 372 1
373 374 1
375 376 1
375 377 1
376 377 1
378 379 1
378 380 1
379 380 1
381 382 1
381 383 1
381 384 1
381 385 1
381 386 1
382 383 1
382 384 1
382 385 1
382 386 1
383 384 1
383 385 1
383 386 1
384 385 1
384 386 1
385 386 1
387 388 1
389 390 1
391 392 1
393 394 1
395 396 1
397 398 1
397 399 1
398 399 1
400 401 1
55 402 1
403 404 1
405 406 1
407 408 1
409 410 1
411 412 2
411 413 2
411 414 2
412 413 2
412 414 2
413 414 2
415 416 1
417 418 1
419 420 1
419 421 1
420 421 1
422 423 1
424 425 1
424 426 1
425 426 1
427 428 1
429 430 1
431 432 1
431 433 1
432 433 1
434 435 1
436 437 1
438 439 1
438 440 1
438 441 1
438 442 1
439 440 1
439 441 1
439 442 1
440 441 1
440 442 1
441 442 1
443 444 1
445 446 1
445 447 1
446 447 1
448 449 1
448 450 1
448 451 1
449 450 1
449 451 1
450 451 1
452 453 1
454 455 1
456 457 1
458 459 1
460 461 1
460 462 1
461 462 1
463 464 1
463 465 1
464 465 1
466 467 1
468 469 1
468 470 1
469 470 1
471 290 1
471 472 1
290 472 1
473 474 1
475 476 1
477 478 1
477 479 1
477 480 1
478 479 1
478 480 1
479 480 1
481 482 1
481 483 1
482 483 1
484 485 1
486 487 1
488 489 1
490 491 1
490 492 1
490 493 1
491 492 1
491 493 1
492 493 1
494 495 1
496 497 1
496 498 1
497 498 1
499 500 1
501 502 1
503 504 1
505 506 1
505 507 1
506 507 1
508 509 1
510 511 1
512 513 1
514 515 1
514 516 1
515 516 1
517 518 1
517 519 1
518 519 1
520 521 1
520 522 1
521 522 1
523 524 1
525 526 1
527 243 1
