*Vertices 297
1 "446641"
2 "46453"
3 "1125792"
4 "479820"
5 "789531"
6 "450052"
7 "1405498"
8 "636975"
9 "1083294"
10 "1616153"
11 "229900"
12 "973696"
13 "980601"
14 "1553151"
15 "414053"
16 "1104426"
17 "494674"
18 "1508050"
19 "1586329"
20 "1673520"
21 "486710"
22 "131291"
23 "1240918"
24 "354892"
25 "1006674"
26 "1118367"
27 "718667"
28 "189520"
29 "847461"
30 "1192108"
31 "1260800"
32 "419552"
33 "601932"
34 "909170"
35 "1334163"
36 "484213"
37 "1654886"
38 "334447"
39 "272821"
40 "432334"
41 "338754"
42 "1380114"
43 "469270"
44 "518226"
45 "1706778"
46 "1155208"
47 "479068"
48 "1167803"
49 "1066266"
50 "1584116"
51 "525081"
52 "1479361"
53 "347733"
54 "223650"
55 "629743"
56 "276472"
57 "431603"
58 "306892"
59 "873857"
60 "1695963"
61 "975995"
62 "124819"
63 "143170"
64 "1657092"
65 "1052640"
66 "1214044"
67 "784417"
68 "505260"
69 "1134015"
70 "209608"
71 "902763"
72 "332603"
73 "341248"
74 "830272"
75 "1629243"
76 "636043"
77 "115255"
78 "305489"
79 "373455"
80 "428564"
81 "1089304"
82 "1159391"
83 "773379"
84 "1668661"
85 "992132"
86 "74134"
87 "1134760"
88 "230327"
89 "244793"
90 "1431610"
91 "8513"
92 "1660268"
93 "23977"
94 "1684074"
95 "1582896"
96 "1704171"
97 "791633"
98 "431340"
99 "1041874"
100 "468926"
101 "210537"
102 "131343"
103 "408447"
104 "386725"
105 "1056757"
106 "864010"
107 "352005"
108 "1409310"
109 "1604825"
110 "415349"
111 "1283667"
112 "1656451"
113 "260877"
114 "1169424"
115 "1696547"
116 "282843"
117 "763494"
118 "429219"
119 "1495837"
120 "484611"
121 "360661"
122 "24296"
123 "1488195"
124 "592160"
125 "756489"
126 "179595"
127 "658743"
128 "943301"
129 "421797"
130 "526069"
131 "1645912"
132 "23630"
133 "251854"
134 "458024"
135 "380466"
136 "251706"
137 "638303"
138 "1443772"
139 "259957"
140 "768656"
141 "812194"
142 "1673517"
143 "1041906"
144 "1270538"
145 "1204625"
146 "1002153"
147 "1294701"
148 "1129506"
149 "336080"
150 "1584592"
151 "1630153"
152 "715409"
153 "972276"
154 "1537366"
155 "1611276"
156 "874754"
157 "1226163"
158 "690034"
159 "249642"
160 "303820"
161 "1339235"
162 "462429"
163 "1341474"
164 "1184370"
165 "117156"
166 "1413408"
167 "585154"
168 "78856"
169 "270726"
170 "37096"
171 "1138922"
172 "405710"
173 "343053"
174 "1706127"
175 "1256866"
176 "520920"
177 "808086"
178 "1144490"
179 "865525"
180 "379861"
181 "1041840"
182 "593371"
183 "1104947"
184 "1354124"
185 "1208087"
186 "433975"
187 "1100102"
188 "153251"
189 "879160"
190 "640809"
191 "1690611"
192 "784124"
193 "109268"
194 "1675147"
195 "1429858"
196 "12024"
197 "537521"
198 "394841"
199 "190047"
200 "273647"
201 "771796"
202 "756654"
203 "1529284"
204 "570404"
205 "1060697"
206 "622961"
207 "520412"
208 "487"
209 "150915"
210 "1104083"
211 "418050"
212 "384657"
213 "300165"
214 "1607100"
215 "1205616"
216 "470828"
217 "1547587"
218 "1120362"
219 "374133"
220 "1267585"
221 "500507"
222 "1213619"
223 "1182651"
224 "1137848"
225 "1616809"
226 "90155"
227 "360098"
228 "1103301"
229 "522786"
230 "574677"
231 "454556"
232 "1694576"
233 "487963"
234 "25822"
235 "763155"
236 "321355"
237 "28508"
238 "392345"
239 "1217019"
240 "523074"
241 "1652743"
242 "364644"
243 "1602274"
244 "948106"
245 "1094159"
246 "1266069"
247 "1549988"
248 "128587"
249 "696555"
250 "750250"
251 "1436552"
252 "1520649"
253 "980202"
254 "974259"
255 "1105178"
256 "1117566"
257 "1213246"
258 "1456272"
259 "595474"
260 "779178"
261 "1335956"
262 "776737"
263 "702987"
264 "564788"
265 "441058"
266 "365435"
267 "268499"
268 "1497914"
269 "1233906"
270 "472966"
271 "1158668"
272 "1584312"
273 "1222043"
274 "484566"
275 "535621"
276 "880478"
277 "559585"
278 "1414654"
279 "680480"
280 "837200"
281 "619620"
282 "517877"
283 "191378"
284 "369228"
285 "12666"
286 "1046532"
287 "990738"
288 "827780"
289 "312929"
290 "727269"
291 "1143094"
292 "1652505"
293 "756576"
294 "189981"
295 "1031719"
296 "1627577"
*Edges
1 2 2
3 4 2
5 6 2
7 8 2
7 9 2
7 10 2
8 9 2
8 10 2
9 10 2
11 12 2
13 14 2
15 16 2
17 18 2
19 20 2
21 20 2
22 23 2
24 25 2
26 27 2
26 28 2
27 28 2
29 30 2
29 5 2
30 5 2
31 32 2
31 33 2
32 33 2
34 35 2
34 36 2
35 36 2
37 38 2
37 39 2
37 40 2
37 41 2
37 42 2
37 43 2
38 39 2
38 40 2
38 41 2
38 42 2
38 43 2
39 40 2
39 41 2
39 42 2
39 43 2
40 41 2
40 42 2
40 43 2
41 42 2
41 43 2
42 43 2
44 45 2
46 47 2
48 49 2
50 51 2
50 52 2
50 53 2
51 52 2
51 53 2
52 53 2
54 55 2
56 57 2
58 59 2
60 61 2
60 62 2
60 63 2
61 62 2
61 63 2
62 63 2
64 65 2
64 66 2
64 67 2
65 66 2
65 67 2
66 67 2
68 47 2
69 58 4
70 71 2
20 72 2
21 73 2
74 75 2
74 76 2
75 76 2
77 78 2
77 79 2
77 80 2
78 79 2
78 80 2
79 80 2
46 81 2
46 82 2
81 82 2
83 84 2
85 86 2
87 88 2
87 89 2
88 89 2
21 90 2
91 92 2
91 93 2
92 93 2
94 20 2
94 95 2
20 95 2
96 97 2
98 99 2
98 100 2
99 100 2
101 102 2
103 104 2
105 106 2
105 107 2
106 107 2
108 109 2
110 111 2
112 113 2
112 114 2
113 114 2
115 116 2
115 117 2
115 118 2
115 119 2
115 120 2
115 121 2
116 117 2
116 118 2
116 119 2
116 120 2
116 121 2
117 118 2
117 119 2
117 120 2
117 121 2
118 119 2
118 120 2
118 121 2
119 120 2
119 121 2
120 121 2
122 123 2
122 124 2
122 125 2
123 124 2
123 125 2
124 125 2
126 127 2
101 128 6
129 63 2
54 130 2
131 132 4
131 133 2
132 133 2
132 134 2
132 135 2
132 136 2
134 135 2
134 136 2
134 131 2
135 136 6
135 131 2
136 131 2
134 137 2
138 26 2
139 140 2
141 95 2
142 143 2
144 145 2
21 146 2
147 148 2
149 21 2
22 150 2
22 151 6
152 153 2
152 154 2
153 154 2
69 155 2
155 58 2
68 156 2
68 157 2
156 157 2
158 159 2
160 161 2
162 163 2
162 164 2
162 165 2
163 164 2
163 165 2
164 165 2
166 167 2
166 168 2
167 168 2
169 170 2
169 171 2
169 172 2
170 171 2
170 172 2
171 172 2
69 144 2
173 174 2
173 153 2
173 175 2
173 176 2
173 104 2
174 153 2
174 175 2
174 176 2
174 104 2
153 175 2
153 176 2
153 104 2
175 176 2
175 104 2
176 104 2
177 178 2
179 180 2
179 181 2
180 181 2
62 182 2
183 184 2
185 186 2
185 101 6
186 101 2
187 188 4
189 190 2
62 191 2
182 192 2
182 193 2
182 194 2
182 195 2
182 196 2
182 197 2
182 198 2
192 193 2
192 194 2
192 195 2
192 196 2
192 197 2
192 198 2
193 194 2
193 195 2
193 196 2
193 197 2
193 198 2
194 195 2
194 196 2
194 197 2
194 198 2
195 196 2
195 197 2
195 198 2
196 197 2
196 198 2
197 198 2
199 200 2
201 202 2
201 203 2
202 203 2
144 204 2
144 205 2
144 206 2
144 207 2
204 205 2
204 206 2
204 207 2
205 206 2
205 207 2
206 207 2
153 158 2
34 208 2
209 210 2
211 212 2
213 22 2
190 214 2
215 216 2
217 218 2
219 135 2
219 220 4
219 136 4
135 220 2
220 136 4
146 135 2
146 221 2
146 222 2
146 223 2
146 224 2
146 154 2
146 136 6
135 221 2
135 222 2
135 223 2
135 224 2
135 154 2
221 222 2
221 223 2
221 224 2
221 154 2
221 136 2
222 223 2
222 224 2
222 154 2
222 136 2
223 224 2
223 154 2
223 136 2
224 154 2
224 136 2
154 136 2
136 225 2
146 225 2
188 226 2
188 227 2
188 228 2
188 229 2
226 187 2
226 227 2
226 228 2
226 229 2
187 227 2
187 228 2
187 229 2
227 228 2
227 229 2
228 229 2
230 231 2
230 232 2
230 233 2
230 234 2
231 232 2
231 233 2
231 234 2
232 233 2
232 234 2
233 234 2
101 235 2
101 236 2
101 237 2
101 238 4
185 235 2
185 236 2
185 128 4
185 237 2
185 238 4
235 236 2
235 128 2
235 237 2
235 238 2
236 128 2
236 237 2
236 238 2
128 237 2
128 238 4
237 238 2
151 132 2
151 69 4
132 22 2
132 69 2
22 69 4
239 240 2
241 242 2
218 243 2
218 152 2
218 244 2
218 245 2
243 152 2
243 244 2
243 245 2
152 244 2
152 245 2
244 245 2
246 247 2
130 248 2
130 249 2
248 249 2
241 250 2
251 252 2
253 254 2
255 256 2
255 257 2
256 257 2
258 259 2
258 260 2
259 260 2
136 261 2
136 262 2
219 261 2
219 146 2
219 262 2
261 146 2
261 220 2
261 262 2
146 220 2
146 262 2
220 262 2
263 264 2
263 265 2
263 266 2
263 267 2
264 265 2
264 266 2
264 267 2
265 266 2
265 267 2
266 267 2
268 269 2
270 271 2
270 272 2
271 272 2
273 274 2
273 275 2
273 276 2
274 275 2
274 276 2
275 276 2
277 278 2
58 132 2
58 182 2
132 182 2
279 280 2
279 281 2
279 282 2
280 281 2
280 282 2
281 282 2
151 283 2
284 285 2
185 286 2
101 286 2
286 128 2
286 238 2
287 288 2
287 101 2
288 101 2
289 290 2
289 291 2
290 291 2
292 293 2
292 294 2
295 22 2
169 296 2
