*Vertices 77
1 "446641"
2 "46453"
3 "1125792"
4 "479820"
5 "789531"
6 "450052"
7 "1405498"
8 "636975"
9 "1083294"
10 "1616153"
11 "229900"
12 "973696"
13 "980601"
14 "1553151"
15 "414053"
16 "1104426"
17 "494674"
18 "1508050"
19 "1586329"
20 "1673520"
21 "486710"
22 "131291"
23 "1240918"
24 "354892"
25 "1006674"
26 "1118367"
27 "718667"
28 "189520"
29 "847461"
30 "1192108"
31 "1260800"
32 "419552"
33 "601932"
34 "909170"
35 "1334163"
36 "484213"
37 "1654886"
38 "334447"
39 "272821"
40 "432334"
41 "338754"
42 "1380114"
43 "469270"
44 "518226"
45 "1706778"
46 "1155208"
47 "479068"
48 "1167803"
49 "1066266"
50 "1584116"
51 "525081"
52 "1479361"
53 "347733"
54 "223650"
55 "629743"
56 "276472"
57 "431603"
58 "306892"
59 "873857"
60 "1695963"
61 "975995"
62 "124819"
63 "143170"
64 "1657092"
65 "1052640"
66 "1214044"
67 "784417"
68 "505260"
69 "1134015"
70 "209608"
71 "902763"
72 "332603"
73 "341248"
74 "830272"
75 "1629243"
76 "636043"
*Edges
1 2 2
3 4 2
5 6 2
7 8 2
7 9 2
7 10 2
8 9 2
8 10 2
9 10 2
11 12 2
13 14 2
15 16 2
17 18 2
19 20 2
21 20 2
22 23 2
24 25 2
26 27 2
26 28 2
27 28 2
29 30 2
29 5 2
30 5 2
31 32 2
31 33 2
32 33 2
34 35 2
34 36 2
35 36 2
37 38 2
37 39 2
37 40 2
37 41 2
37 42 2
37 43 2
38 39 2
38 40 2
38 41 2
38 42 2
38 43 2
39 40 2
39 41 2
39 42 2
39 43 2
40 41 2
40 42 2
40 43 2
41 42 2
41 43 2
42 43 2
44 45 2
46 47 2
48 49 2
50 51 2
50 52 2
50 53 2
51 52 2
51 53 2
52 53 2
54 55 2
56 57 2
58 59 2
60 61 2
60 62 2
60 63 2
61 62 2
61 63 2
62 63 2
64 65 2
64 66 2
64 67 2
65 66 2
65 67 2
66 67 2
68 47 2
69 58 2
70 71 2
20 72 2
21 73 2
74 75 2
74 76 2
75 76 2
