*Vertices 898
1 "446641"
2 "46453"
3 "1125792"
4 "479820"
5 "789531"
6 "450052"
7 "1405498"
8 "636975"
9 "1083294"
10 "1616153"
11 "229900"
12 "973696"
13 "980601"
14 "1553151"
15 "414053"
16 "1104426"
17 "494674"
18 "1508050"
19 "1586329"
20 "1673520"
21 "486710"
22 "131291"
23 "1240918"
24 "354892"
25 "1006674"
26 "1118367"
27 "718667"
28 "189520"
29 "847461"
30 "1192108"
31 "1260800"
32 "419552"
33 "601932"
34 "909170"
35 "1334163"
36 "484213"
37 "1654886"
38 "334447"
39 "272821"
40 "432334"
41 "338754"
42 "1380114"
43 "469270"
44 "518226"
45 "1706778"
46 "1155208"
47 "479068"
48 "1167803"
49 "1066266"
50 "1584116"
51 "525081"
52 "1479361"
53 "347733"
54 "223650"
55 "629743"
56 "276472"
57 "431603"
58 "306892"
59 "873857"
60 "1695963"
61 "975995"
62 "124819"
63 "143170"
64 "1657092"
65 "1052640"
66 "1214044"
67 "784417"
68 "505260"
69 "1134015"
70 "209608"
71 "902763"
72 "332603"
73 "341248"
74 "830272"
75 "1629243"
76 "636043"
77 "115255"
78 "305489"
79 "373455"
80 "428564"
81 "1089304"
82 "1159391"
83 "773379"
84 "1668661"
85 "992132"
86 "74134"
87 "1134760"
88 "230327"
89 "244793"
90 "1431610"
91 "8513"
92 "1660268"
93 "23977"
94 "1684074"
95 "1582896"
96 "1704171"
97 "791633"
98 "431340"
99 "1041874"
100 "468926"
101 "210537"
102 "131343"
103 "408447"
104 "386725"
105 "1056757"
106 "864010"
107 "352005"
108 "1409310"
109 "1604825"
110 "415349"
111 "1283667"
112 "1656451"
113 "260877"
114 "1169424"
115 "1696547"
116 "282843"
117 "763494"
118 "429219"
119 "1495837"
120 "484611"
121 "360661"
122 "24296"
123 "1488195"
124 "592160"
125 "756489"
126 "179595"
127 "658743"
128 "943301"
129 "421797"
130 "526069"
131 "1645912"
132 "23630"
133 "251854"
134 "458024"
135 "380466"
136 "251706"
137 "638303"
138 "1443772"
139 "259957"
140 "768656"
141 "812194"
142 "1673517"
143 "1041906"
144 "1270538"
145 "1204625"
146 "1002153"
147 "1294701"
148 "1129506"
149 "336080"
150 "1584592"
151 "1630153"
152 "715409"
153 "972276"
154 "1537366"
155 "1611276"
156 "874754"
157 "1226163"
158 "690034"
159 "249642"
160 "303820"
161 "1339235"
162 "462429"
163 "1341474"
164 "1184370"
165 "117156"
166 "1413408"
167 "585154"
168 "78856"
169 "270726"
170 "37096"
171 "1138922"
172 "405710"
173 "343053"
174 "1706127"
175 "1256866"
176 "520920"
177 "808086"
178 "1144490"
179 "865525"
180 "379861"
181 "1041840"
182 "593371"
183 "1104947"
184 "1354124"
185 "1208087"
186 "433975"
187 "1100102"
188 "153251"
189 "879160"
190 "640809"
191 "1690611"
192 "784124"
193 "109268"
194 "1675147"
195 "1429858"
196 "12024"
197 "537521"
198 "394841"
199 "190047"
200 "273647"
201 "771796"
202 "756654"
203 "1529284"
204 "570404"
205 "1060697"
206 "622961"
207 "520412"
208 "487"
209 "150915"
210 "1104083"
211 "418050"
212 "384657"
213 "300165"
214 "1607100"
215 "1205616"
216 "470828"
217 "1547587"
218 "1120362"
219 "374133"
220 "1267585"
221 "500507"
222 "1213619"
223 "1182651"
224 "1137848"
225 "1616809"
226 "90155"
227 "360098"
228 "1103301"
229 "522786"
230 "574677"
231 "454556"
232 "1694576"
233 "487963"
234 "25822"
235 "763155"
236 "321355"
237 "28508"
238 "392345"
239 "1217019"
240 "523074"
241 "1652743"
242 "364644"
243 "1602274"
244 "948106"
245 "1094159"
246 "1266069"
247 "1549988"
248 "128587"
249 "696555"
250 "750250"
251 "1436552"
252 "1520649"
253 "980202"
254 "974259"
255 "1105178"
256 "1117566"
257 "1213246"
258 "1456272"
259 "595474"
260 "779178"
261 "1335956"
262 "776737"
263 "702987"
264 "564788"
265 "441058"
266 "365435"
267 "268499"
268 "1497914"
269 "1233906"
270 "472966"
271 "1158668"
272 "1584312"
273 "1222043"
274 "484566"
275 "535621"
276 "880478"
277 "559585"
278 "1414654"
279 "680480"
280 "837200"
281 "619620"
282 "517877"
283 "191378"
284 "369228"
285 "12666"
286 "1046532"
287 "990738"
288 "827780"
289 "312929"
290 "727269"
291 "1143094"
292 "1652505"
293 "756576"
294 "189981"
295 "1031719"
296 "1627577"
297 "1683539"
298 "34708"
299 "1619552"
300 "1449586"
301 "26813"
302 "254"
303 "519157"
304 "33716"
305 "1412688"
306 "1134154"
307 "1383045"
308 "1668457"
309 "319282"
310 "231845"
311 "481106"
312 "1285545"
313 "800301"
314 "733437"
315 "93050"
316 "1174220"
317 "1166431"
318 "1196457"
319 "771615"
320 "1090198"
321 "1309737"
322 "1415669"
323 "1106581"
324 "270419"
325 "1453195"
326 "417624"
327 "1705207"
328 "1569475"
329 "320291"
330 "245192"
331 "913756"
332 "414073"
333 "307941"
334 "763179"
335 "52217"
336 "161783"
337 "1270813"
338 "47813"
339 "1098059"
340 "535362"
341 "605408"
342 "960286"
343 "1643108"
344 "1205385"
345 "791483"
346 "174670"
347 "1507217"
348 "1500386"
349 "1352426"
350 "249950"
351 "1608019"
352 "1006252"
353 "919623"
354 "1275830"
355 "1480194"
356 "567782"
357 "332147"
358 "1604619"
359 "119066"
360 "1019382"
361 "1165131"
362 "990456"
363 "34120"
364 "1078388"
365 "1193665"
366 "1166105"
367 "1549893"
368 "144025"
369 "1683461"
370 "1682935"
371 "1157409"
372 "1180405"
373 "25180"
374 "389379"
375 "393794"
376 "336038"
377 "768399"
378 "1693053"
379 "1522952"
380 "755611"
381 "1683724"
382 "460124"
383 "1330925"
384 "160395"
385 "398079"
386 "706611"
387 "669184"
388 "44769"
389 "485103"
390 "804055"
391 "403838"
392 "1384820"
393 "1266688"
394 "715051"
395 "517311"
396 "282777"
397 "1034743"
398 "1509077"
399 "1002541"
400 "574373"
401 "984256"
402 "61860"
403 "395067"
404 "83653"
405 "1015332"
406 "1165563"
407 "1661693"
408 "1567143"
409 "958800"
410 "1467165"
411 "190447"
412 "714390"
413 "188037"
414 "1172465"
415 "11545"
416 "833104"
417 "1529985"
418 "483566"
419 "691847"
420 "319877"
421 "823072"
422 "848238"
423 "947712"
424 "1428458"
425 "919673"
426 "719973"
427 "590644"
428 "1627966"
429 "1643031"
430 "755129"
431 "808701"
432 "827405"
433 "1710065"
434 "61322"
435 "1262441"
436 "1262424"
437 "769177"
438 "1337854"
439 "47827"
440 "1288076"
441 "1508873"
442 "443906"
443 "1600546"
444 "1000937"
445 "1441320"
446 "378124"
447 "1218654"
448 "771471"
449 "452140"
450 "397068"
451 "531258"
452 "528727"
453 "1456556"
454 "372901"
455 "366585"
456 "869349"
457 "1167478"
458 "380791"
459 "1442571"
460 "1687619"
461 "984583"
462 "1070194"
463 "550010"
464 "95304"
465 "1238911"
466 "330693"
467 "531887"
468 "1455371"
469 "1614108"
470 "1602551"
471 "863208"
472 "1165409"
473 "867686"
474 "1363661"
475 "1120591"
476 "1579233"
477 "355010"
478 "1297631"
479 "1146540"
480 "1332574"
481 "382812"
482 "1635366"
483 "923323"
484 "520879"
485 "971083"
486 "375755"
487 "563441"
488 "547436"
489 "830388"
490 "292747"
491 "1168001"
492 "812443"
493 "13264"
494 "1001168"
495 "390633"
496 "920608"
497 "1705524"
498 "1136153"
499 "928484"
500 "1104146"
501 "1545975"
502 "1709051"
503 "429575"
504 "130780"
505 "724540"
506 "1691179"
507 "301994"
508 "295752"
509 "1094209"
510 "1492783"
511 "849017"
512 "1244826"
513 "644970"
514 "1149091"
515 "137411"
516 "393996"
517 "274288"
518 "1002022"
519 "901751"
520 "1611287"
521 "1301732"
522 "1670169"
523 "70009"
524 "1539890"
525 "1017894"
526 "311239"
527 "219660"
528 "447658"
529 "458425"
530 "1118638"
531 "425978"
532 "257414"
533 "102619"
534 "420685"
535 "1370393"
536 "1620096"
537 "564910"
538 "564272"
539 "1270997"
540 "154419"
541 "902311"
542 "396543"
543 "541791"
544 "108697"
545 "1621035"
546 "1522906"
547 "734606"
548 "1578965"
549 "805174"
550 "500966"
551 "275866"
552 "1534009"
553 "1180383"
554 "236782"
555 "1026112"
556 "545436"
557 "1295638"
558 "1698434"
559 "758075"
560 "1697657"
561 "1357496"
562 "910495"
563 "1194566"
564 "1082925"
565 "108695"
566 "1413582"
567 "1806"
568 "505058"
569 "680834"
570 "638428"
571 "1428293"
572 "782960"
573 "190232"
574 "751446"
575 "1512041"
576 "903051"
577 "395080"
578 "814435"
579 "1367084"
580 "1153448"
581 "1488141"
582 "1136574"
583 "273271"
584 "1122566"
585 "108548"
586 "444469"
587 "631027"
588 "1699245"
589 "219909"
590 "1509987"
591 "398261"
592 "520775"
593 "1645421"
594 "1057595"
595 "1396611"
596 "1015407"
597 "761680"
598 "563339"
599 "1386371"
600 "1676239"
601 "900043"
602 "1297678"
603 "821360"
604 "740297"
605 "898534"
606 "761570"
607 "1672778"
608 "301219"
609 "1662456"
610 "1182673"
611 "369182"
612 "1229517"
613 "1706803"
614 "1453143"
615 "1383202"
616 "633758"
617 "1348094"
618 "427616"
619 "919620"
620 "144014"
621 "1238912"
622 "1297489"
623 "1437503"
624 "216080"
625 "821367"
626 "131189"
627 "820585"
628 "808187"
629 "1613503"
630 "203715"
631 "436526"
632 "461152"
633 "1612540"
634 "190515"
635 "192754"
636 "1000765"
637 "1697599"
638 "1158334"
639 "1556849"
640 "566832"
641 "493122"
642 "772930"
643 "1103375"
644 "1662405"
645 "301222"
646 "420330"
647 "731728"
648 "1210120"
649 "810277"
650 "552777"
651 "1155440"
652 "1617362"
653 "1248179"
654 "28277"
655 "1431272"
656 "1109808"
657 "595042"
658 "1689921"
659 "647652"
660 "1512712"
661 "365704"
662 "323672"
663 "1042226"
664 "592982"
665 "856037"
666 "773345"
667 "114416"
668 "1653695"
669 "1655045"
670 "991003"
671 "1489117"
672 "1191390"
673 "399725"
674 "241666"
675 "527888"
676 "1673776"
677 "1406253"
678 "1156962"
679 "1100313"
680 "1469302"
681 "957258"
682 "1710597"
683 "1368607"
684 "1233877"
685 "982431"
686 "1646432"
687 "1424851"
688 "1170128"
689 "1590887"
690 "1190922"
691 "712430"
692 "322302"
693 "594302"
694 "1439125"
695 "1583402"
696 "752356"
697 "1469127"
698 "643322"
699 "1482888"
700 "670948"
701 "1664300"
702 "782725"
703 "1683547"
704 "1254310"
705 "407823"
706 "1178185"
707 "1469047"
708 "1177234"
709 "1195063"
710 "1289407"
711 "552229"
712 "494669"
713 "831352"
714 "373587"
715 "900873"
716 "722606"
717 "383358"
718 "416053"
719 "293823"
720 "350939"
721 "1420857"
722 "494540"
723 "393420"
724 "1629372"
725 "1405710"
726 "1261033"
727 "250258"
728 "1511330"
729 "1700687"
730 "1455677"
731 "192559"
732 "1233384"
733 "533520"
734 "1587391"
735 "960599"
736 "546245"
737 "1438568"
738 "164531"
739 "1178292"
740 "150555"
741 "557603"
742 "1366423"
743 "341078"
744 "626817"
745 "382837"
746 "1166874"
747 "1411747"
748 "25701"
749 "904963"
750 "1237268"
751 "840265"
752 "1522051"
753 "1574999"
754 "691884"
755 "1512361"
756 "32406"
757 "1349398"
758 "93453"
759 "1032104"
760 "333555"
761 "796713"
762 "75976"
763 "1640656"
764 "643693"
765 "632261"
766 "276709"
767 "1512997"
768 "1547377"
769 "28551"
770 "504207"
771 "1415517"
772 "285257"
773 "1398883"
774 "1385911"
775 "421448"
776 "1410264"
777 "336406"
778 "552388"
779 "267158"
780 "40750"
781 "541725"
782 "1586373"
783 "1337088"
784 "961718"
785 "1333565"
786 "614533"
787 "1420800"
788 "1276506"
789 "49806"
790 "862453"
791 "468987"
792 "958915"
793 "1137423"
794 "516559"
795 "1709939"
796 "981981"
797 "1679063"
798 "1202692"
799 "124568"
800 "991514"
801 "1121238"
802 "84937"
803 "1555669"
804 "400326"
805 "231746"
806 "1504124"
807 "1276066"
808 "1467892"
809 "867778"
810 "780785"
811 "702168"
812 "620346"
813 "487955"
814 "1583456"
815 "272841"
816 "1653057"
817 "1700728"
818 "130718"
819 "690441"
820 "987755"
821 "1654363"
822 "339874"
823 "1496254"
824 "214973"
825 "1549795"
826 "1471321"
827 "1142268"
828 "1694174"
829 "885087"
830 "908241"
831 "540061"
832 "1533947"
833 "783211"
834 "681588"
835 "618636"
836 "903755"
837 "1010161"
838 "758578"
839 "382444"
840 "391617"
841 "1334456"
842 "987086"
843 "523704"
844 "180370"
845 "1481873"
846 "474036"
847 "329561"
848 "1114579"
849 "403286"
850 "347388"
851 "404603"
852 "877143"
853 "728347"
854 "800846"
855 "1287294"
856 "161339"
857 "254919"
858 "282214"
859 "644678"
860 "31730"
861 "1268783"
862 "479284"
863 "781755"
864 "482879"
865 "763696"
866 "1630087"
867 "693075"
868 "541163"
869 "310104"
870 "1381282"
871 "179322"
872 "990517"
873 "674744"
874 "985269"
875 "1511553"
876 "487374"
877 "1088792"
878 "401357"
879 "359018"
880 "603476"
881 "943418"
882 "231935"
883 "1364808"
884 "222453"
885 "811281"
886 "1699615"
887 "970182"
888 "637017"
889 "66820"
890 "808122"
891 "534699"
892 "1022176"
893 "868401"
894 "336724"
895 "763454"
896 "1458868"
897 "256356"
*Edges
1 2 2
3 4 2
5 6 2
7 8 2
7 9 2
7 10 2
8 9 2
8 10 2
9 10 2
11 12 2
13 14 2
15 16 2
17 18 2
19 20 2
21 20 2
22 23 2
24 25 2
26 27 2
26 28 2
27 28 2
29 30 2
29 5 2
30 5 2
31 32 2
31 33 2
32 33 2
34 35 2
34 36 2
35 36 2
37 38 2
37 39 2
37 40 2
37 41 2
37 42 2
37 43 2
38 39 2
38 40 2
38 41 2
38 42 2
38 43 2
39 40 2
39 41 2
39 42 2
39 43 2
40 41 2
40 42 2
40 43 2
41 42 2
41 43 2
42 43 2
44 45 2
46 47 2
48 49 2
50 51 2
50 52 2
50 53 2
51 52 2
51 53 2
52 53 2
54 55 2
56 57 2
58 59 2
60 61 2
60 62 2
60 63 2
61 62 2
61 63 2
62 63 2
64 65 2
64 66 2
64 67 2
65 66 2
65 67 2
66 67 2
68 47 2
69 58 4
70 71 2
20 72 2
21 73 2
74 75 2
74 76 2
75 76 2
77 78 2
77 79 2
77 80 2
78 79 2
78 80 2
79 80 2
46 81 2
46 82 2
81 82 2
83 84 2
85 86 2
87 88 2
87 89 2
88 89 2
21 90 2
91 92 2
91 93 2
92 93 2
94 20 2
94 95 2
20 95 2
96 97 2
98 99 2
98 100 2
99 100 2
101 102 2
103 104 2
105 106 2
105 107 2
106 107 2
108 109 2
110 111 2
112 113 2
112 114 2
113 114 2
115 116 2
115 117 2
115 118 2
115 119 2
115 120 2
115 121 2
116 117 2
116 118 2
116 119 2
116 120 2
116 121 2
117 118 2
117 119 2
117 120 2
117 121 2
118 119 2
118 120 2
118 121 2
119 120 2
119 121 2
120 121 2
122 123 2
122 124 2
122 125 2
123 124 2
123 125 2
124 125 2
126 127 2
101 128 6
129 63 2
54 130 2
131 132 4
131 133 2
132 133 2
132 134 2
132 135 2
132 136 2
134 135 2
134 136 2
134 131 2
135 136 6
135 131 2
136 131 2
134 137 2
138 26 2
139 140 2
141 95 2
142 143 2
144 145 2
21 146 2
147 148 2
149 21 2
22 150 2
22 151 6
152 153 2
152 154 2
153 154 2
69 155 2
155 58 2
68 156 2
68 157 2
156 157 2
158 159 2
160 161 2
162 163 2
162 164 2
162 165 2
163 164 2
163 165 2
164 165 2
166 167 2
166 168 2
167 168 2
169 170 2
169 171 2
169 172 2
170 171 2
170 172 2
171 172 2
69 144 2
173 174 2
173 153 2
173 175 2
173 176 2
173 104 2
174 153 2
174 175 2
174 176 2
174 104 2
153 175 2
153 176 2
153 104 2
175 176 2
175 104 2
176 104 2
177 178 2
179 180 2
179 181 2
180 181 2
62 182 2
183 184 2
185 186 2
185 101 6
186 101 2
187 188 4
189 190 2
62 191 2
182 192 2
182 193 2
182 194 2
182 195 2
182 196 2
182 197 2
182 198 2
192 193 2
192 194 2
192 195 2
192 196 2
192 197 2
192 198 2
193 194 2
193 195 2
193 196 2
193 197 2
193 198 2
194 195 2
194 196 2
194 197 2
194 198 2
195 196 2
195 197 2
195 198 2
196 197 2
196 198 2
197 198 2
199 200 2
201 202 2
201 203 2
202 203 2
144 204 2
144 205 2
144 206 2
144 207 2
204 205 2
204 206 2
204 207 2
205 206 2
205 207 2
206 207 2
153 158 2
34 208 2
209 210 2
211 212 2
213 22 2
190 214 2
215 216 2
217 218 2
219 135 2
219 220 4
219 136 4
135 220 2
220 136 4
146 135 2
146 221 2
146 222 2
146 223 2
146 224 2
146 154 2
146 136 6
135 221 2
135 222 2
135 223 2
135 224 2
135 154 2
221 222 2
221 223 2
221 224 2
221 154 2
221 136 2
222 223 2
222 224 2
222 154 2
222 136 2
223 224 2
223 154 2
223 136 2
224 154 2
224 136 2
154 136 2
136 225 2
146 225 2
188 226 12
188 227 2
188 228 2
188 229 2
226 187 2
226 227 2
226 228 2
226 229 2
187 227 2
187 228 2
187 229 2
227 228 2
227 229 2
228 229 2
230 231 2
230 232 2
230 233 2
230 234 2
231 232 2
231 233 2
231 234 2
232 233 2
232 234 2
233 234 2
101 235 2
101 236 2
101 237 2
101 238 4
185 235 2
185 236 2
185 128 4
185 237 2
185 238 4
235 236 2
235 128 2
235 237 2
235 238 2
236 128 2
236 237 2
236 238 2
128 237 2
128 238 4
237 238 2
151 132 4
151 69 4
132 22 2
132 69 2
22 69 4
239 240 2
241 242 2
218 243 2
218 152 2
218 244 2
218 245 2
243 152 2
243 244 2
243 245 2
152 244 2
152 245 2
244 245 2
246 247 2
130 248 2
130 249 2
248 249 2
241 250 4
251 252 2
253 302 2
255 256 2
255 257 2
256 257 2
258 259 2
258 260 2
259 260 2
136 261 2
136 262 2
219 261 2
219 146 2
219 262 2
261 146 2
261 220 2
261 262 2
146 220 2
146 262 2
220 262 2
263 264 2
263 265 2
263 266 2
263 267 2
264 265 2
264 266 2
264 267 2
265 266 2
265 267 2
266 267 2
268 269 2
270 271 2
270 272 2
271 272 2
273 274 2
273 275 2
273 276 2
274 275 2
274 276 2
275 276 2
277 278 2
58 132 2
58 182 2
132 182 2
279 280 2
279 281 2
279 282 2
280 281 2
280 282 2
281 282 2
151 283 2
284 285 2
185 286 2
101 286 2
286 128 2
286 238 2
287 288 2
287 101 2
288 101 2
289 290 2
289 291 2
290 291 2
292 293 2
292 294 2
295 22 2
169 296 2
297 298 2
297 299 2
298 299 2
300 301 2
190 302 4
190 303 4
190 304 6
190 305 2
190 306 4
190 307 2
190 308 2
302 303 4
302 304 4
302 305 2
302 306 2
302 307 2
302 308 2
303 304 4
303 305 2
303 306 2
303 307 2
303 308 2
304 305 2
304 306 4
304 307 2
304 308 2
305 306 2
305 307 2
305 308 2
306 307 2
306 308 2
307 308 2
309 310 2
309 311 2
309 312 2
310 311 2
310 312 2
311 312 2
313 218 2
314 315 2
316 317 2
318 319 2
320 321 2
320 322 2
321 322 2
323 324 2
323 325 2
323 326 2
324 325 2
324 326 2
325 326 2
327 292 2
328 329 2
330 331 2
330 332 2
330 333 2
331 332 2
331 333 2
332 333 2
334 335 2
334 336 2
334 337 2
334 338 2
335 336 2
335 337 2
335 338 2
336 337 2
336 338 2
337 338 2
339 340 2
339 341 2
339 342 2
340 341 2
340 342 2
341 342 2
343 344 2
343 345 2
343 346 2
344 345 2
344 346 2
345 346 2
241 130 2
250 130 2
347 348 2
349 350 2
349 351 2
349 352 2
349 353 2
350 351 2
350 352 2
350 353 2
351 352 2
351 353 2
352 353 2
354 355 2
354 356 2
354 357 2
355 356 2
355 357 2
356 357 2
329 358 2
329 359 2
329 360 2
329 361 2
358 359 2
358 360 2
358 361 2
359 360 2
359 361 2
360 361 2
153 362 2
153 363 2
153 364 2
153 365 2
153 366 2
153 367 2
362 363 2
362 364 2
362 365 2
362 366 2
362 367 2
363 364 2
363 365 2
363 366 2
363 367 2
364 365 2
364 366 2
364 367 2
365 366 2
365 367 2
366 367 2
346 368 2
346 201 2
368 201 2
369 370 2
371 190 2
371 372 2
190 372 2
373 374 2
373 375 2
374 375 2
303 376 2
302 376 2
190 376 2
304 376 2
137 377 2
137 378 2
137 379 2
137 380 2
377 378 2
377 379 2
377 380 2
378 379 2
378 380 2
379 380 2
151 381 2
151 382 2
381 382 2
381 132 2
382 132 2
383 384 2
385 226 2
385 386 2
385 387 2
226 386 2
226 387 2
386 387 2
388 389 2
388 390 2
388 391 2
389 390 2
389 391 2
390 391 2
392 393 2
394 395 2
394 396 4
394 397 2
395 396 2
395 397 2
396 397 2
398 399 2
400 169 2
151 401 2
151 402 4
401 402 2
403 244 2
403 404 2
244 404 2
405 406 2
407 408 2
407 409 2
408 409 2
410 411 2
410 412 2
411 412 2
413 414 2
413 415 2
414 415 2
416 417 2
418 419 2
418 420 2
419 420 2
306 421 2
190 421 2
304 421 2
422 423 2
422 424 2
422 425 2
423 424 2
423 425 2
424 425 2
243 426 2
243 327 4
426 327 2
427 428 2
207 429 2
430 431 2
430 432 2
430 433 2
430 434 2
431 432 2
431 433 2
431 434 2
432 433 2
432 434 2
433 434 2
435 436 2
437 438 2
439 440 2
441 442 2
443 444 2
443 445 4
444 445 2
446 447 6
446 22 2
447 22 2
448 449 2
448 450 2
448 451 2
449 450 2
449 451 2
450 451 2
307 452 4
307 453 4
452 453 4
454 228 4
455 371 2
236 456 2
457 458 2
457 459 2
458 459 2
69 446 2
460 386 2
460 461 2
460 462 2
386 461 2
386 462 2
461 462 2
463 464 6
463 188 6
463 226 6
464 188 6
464 226 6
465 466 2
465 467 2
466 467 2
468 469 2
468 470 2
469 470 2
471 472 2
471 188 2
471 226 4
471 473 2
472 188 2
472 226 2
472 473 2
188 473 2
226 473 2
474 440 2
475 476 2
477 478 2
479 169 2
480 101 2
481 482 2
483 484 2
485 486 2
485 487 2
486 487 2
488 489 2
488 490 2
489 490 2
405 491 2
492 493 2
492 494 2
493 494 2
371 289 2
495 496 2
497 441 2
497 498 2
441 498 2
499 314 2
500 501 2
500 502 2
500 503 2
500 504 2
501 502 2
501 503 2
501 504 2
502 503 2
502 504 2
503 504 2
505 442 2
506 244 2
307 228 2
307 454 2
453 228 2
453 454 2
452 228 2
452 454 2
507 508 4
507 438 4
508 438 4
509 510 2
511 440 6
511 218 4
440 218 6
512 513 2
416 453 2
514 515 2
514 241 2
514 516 2
515 241 2
515 516 2
241 516 2
517 518 2
519 520 2
521 522 2
521 523 2
522 523 2
524 525 2
526 201 2
527 528 2
527 529 2
527 530 4
528 529 2
528 530 2
529 530 2
531 374 2
532 533 2
534 535 2
536 463 2
536 190 2
536 537 2
463 190 2
463 537 2
190 537 2
538 539 2
538 540 2
539 540 2
541 542 2
541 296 2
542 296 2
62 447 4
62 446 6
62 402 4
447 402 4
446 402 4
543 69 2
544 545 2
544 546 2
544 547 2
544 201 2
545 546 2
545 547 2
545 201 4
546 547 2
546 201 2
547 201 4
548 365 4
394 549 2
394 550 2
394 551 2
394 552 2
549 550 2
549 396 2
549 551 2
549 552 2
550 396 2
550 551 2
550 552 2
396 551 2
396 552 2
551 552 2
553 554 2
555 496 2
555 556 2
555 437 2
496 556 2
496 437 2
556 437 2
557 558 2
559 453 2
559 417 2
559 560 2
453 417 2
453 560 2
417 560 2
561 562 2
446 563 2
446 564 2
563 62 2
563 564 2
62 564 2
565 566 2
565 567 2
565 568 2
565 569 2
566 567 2
566 568 2
566 569 2
567 568 2
567 569 2
568 569 2
570 422 2
571 572 2
573 574 2
575 404 2
575 440 2
404 440 2
576 577 2
576 578 2
577 578 2
579 580 2
464 437 2
464 581 2
464 347 2
437 581 2
437 347 2
581 347 2
582 583 2
584 463 2
585 442 2
586 228 2
587 440 2
587 218 2
588 471 2
588 441 2
471 441 2
589 169 2
590 591 2
463 182 2
463 592 2
182 592 2
593 594 4
593 595 4
593 255 2
593 596 2
594 595 4
594 255 2
594 596 2
595 255 2
595 596 2
255 596 2
443 404 2
445 404 2
597 598 2
597 599 2
597 600 2
598 599 4
598 600 4
599 600 8
601 602 2
603 604 2
603 605 2
603 606 2
603 607 2
603 608 2
604 605 2
604 606 2
604 607 2
604 608 2
605 606 2
605 607 4
605 608 2
606 607 2
606 608 2
607 608 2
609 346 4
610 611 2
610 612 2
611 612 2
169 613 2
614 615 2
614 616 2
614 613 2
615 616 2
615 613 2
616 613 2
617 292 2
617 211 2
292 211 2
467 618 2
467 619 2
467 620 2
467 621 2
618 619 2
618 620 2
618 621 2
619 620 2
619 621 2
620 621 4
622 623 2
624 463 8
625 626 2
365 627 2
365 628 2
365 629 2
627 628 2
627 629 2
627 548 2
628 629 2
628 548 2
629 548 2
530 630 2
630 527 2
631 460 2
632 633 2
632 464 2
632 634 2
633 464 2
633 634 2
464 634 2
151 635 2
151 437 2
635 437 2
635 402 2
437 402 2
636 637 2
638 463 4
639 619 2
640 641 2
400 642 2
400 643 4
642 643 2
644 346 2
645 646 4
645 647 4
645 648 4
645 649 4
645 650 4
646 647 4
646 648 4
646 649 4
646 650 4
647 648 4
647 649 4
647 650 4
648 649 4
648 650 4
649 650 4
651 652 4
651 653 4
651 654 4
651 655 4
651 656 4
652 653 4
652 654 4
652 655 4
652 656 4
653 654 4
653 655 4
653 656 4
654 655 4
654 656 4
655 656 4
657 658 4
659 660 4
659 661 4
660 661 4
662 663 4
599 664 6
664 600 6
665 624 4
665 463 4
666 667 4
400 668 2
668 643 2
640 669 2
670 671 2
672 673 2
674 675 2
674 676 2
675 676 2
677 678 2
679 680 2
681 682 2
683 684 2
685 686 2
687 688 2
689 690 2
689 691 2
690 691 2
617 692 2
693 694 2
695 696 2
695 697 2
696 697 2
698 699 2
698 700 2
698 701 2
699 700 2
699 701 2
700 701 2
702 703 2
702 704 2
702 683 2
702 348 2
703 704 2
703 683 2
703 348 2
704 683 2
704 348 2
683 348 2
346 617 2
705 706 2
705 707 2
705 708 2
705 709 2
705 710 2
706 707 2
706 708 2
706 709 2
706 710 2
707 708 2
707 709 2
707 710 2
708 709 2
708 710 2
709 710 2
711 712 2
713 714 2
569 715 2
569 716 2
569 717 2
715 716 2
715 717 2
716 717 2
718 719 2
718 464 2
719 464 2
152 720 2
721 226 4
721 188 2
722 723 2
722 724 2
722 440 2
722 526 2
723 724 2
723 440 2
723 526 2
724 440 2
724 526 2
440 526 4
725 438 2
726 511 4
726 727 2
726 440 4
511 727 2
727 440 2
728 729 2
730 598 2
730 571 2
598 571 2
731 732 2
733 296 2
734 735 2
734 736 2
734 737 2
735 736 2
735 737 2
736 737 2
738 739 2
738 740 2
739 740 2
741 742 2
741 736 2
741 743 2
742 736 2
742 743 2
736 743 2
744 745 2
744 746 2
745 746 2
463 747 2
463 748 2
747 748 2
747 624 2
748 624 2
749 597 2
750 594 2
750 593 2
750 751 2
750 595 2
594 751 2
593 751 2
751 595 2
752 753 2
752 754 2
752 755 2
752 756 2
752 757 2
752 758 2
752 759 2
752 760 2
753 754 2
753 755 2
753 756 2
753 757 2
753 758 2
753 759 2
753 760 2
754 755 2
754 756 2
754 757 2
754 758 2
754 759 2
754 760 2
755 756 2
755 757 2
755 758 2
755 759 2
755 760 2
756 757 2
756 758 2
756 759 2
756 760 2
757 758 2
757 759 2
757 760 2
758 759 2
758 760 2
759 760 2
598 761 2
598 762 2
761 762 2
763 764 2
763 218 2
764 218 4
765 443 2
766 767 2
768 769 2
768 770 2
769 770 2
771 772 2
773 774 2
773 775 2
773 726 2
773 776 2
773 764 2
773 777 2
773 511 2
773 778 2
773 445 2
773 440 2
773 526 2
773 218 2
774 775 2
774 726 2
774 776 2
774 764 2
774 777 2
774 511 2
774 778 2
774 445 2
774 440 2
774 526 2
774 218 2
775 726 2
775 776 2
775 764 2
775 777 2
775 511 2
775 778 2
775 445 2
775 440 2
775 526 2
775 218 2
726 776 2
726 764 2
726 777 2
726 778 2
726 445 2
726 526 2
726 218 2
776 764 2
776 777 2
776 511 2
776 778 2
776 445 2
776 440 2
776 526 2
776 218 2
764 777 2
764 511 2
764 778 2
764 445 2
764 440 2
764 526 2
777 511 2
777 778 2
777 445 2
777 440 2
777 526 2
777 218 2
511 778 2
511 445 2
511 526 2
778 445 2
778 440 2
778 526 2
778 218 2
445 440 4
445 526 2
445 218 2
526 218 2
779 780 2
781 664 2
781 782 2
781 599 2
781 598 2
781 600 2
664 782 2
664 598 2
782 599 2
782 598 2
782 600 2
783 440 2
783 445 2
784 785 2
784 786 2
785 786 2
787 441 2
788 626 2
621 466 2
621 789 2
620 466 2
620 789 2
466 789 2
790 791 2
790 611 2
790 496 2
790 559 4
790 792 2
791 611 2
791 496 2
791 559 2
791 792 2
611 496 2
611 559 2
611 792 2
496 559 2
496 792 2
559 792 2
530 551 2
793 794 2
795 228 2
795 385 2
228 385 2
796 390 2
796 463 2
390 463 2
797 404 2
798 799 2
798 800 2
798 801 2
799 800 2
799 801 2
800 801 2
802 803 2
802 804 2
802 805 2
803 804 2
803 805 2
804 805 2
806 807 2
806 808 2
807 808 2
809 810 4
809 496 4
810 496 4
169 811 2
812 813 2
812 814 2
813 814 2
815 471 2
815 816 2
815 226 2
471 816 2
816 226 2
817 470 2
818 611 2
818 626 2
611 626 2
819 820 2
819 464 2
819 425 2
820 464 2
820 425 2
464 425 2
387 394 2
821 822 2
821 823 2
821 824 2
822 823 2
822 824 2
823 824 2
825 826 2
825 827 2
826 827 2
828 829 2
828 830 2
828 831 2
828 101 4
829 830 2
829 831 2
829 101 2
830 831 2
830 101 2
831 101 2
832 833 2
834 835 2
834 836 2
835 836 2
837 838 2
837 839 2
837 840 2
837 841 2
837 842 2
837 843 2
838 839 2
838 840 2
838 841 2
838 842 2
838 843 2
839 840 2
839 841 2
839 842 2
839 843 2
840 841 2
840 842 2
840 843 2
841 842 2
841 843 2
842 843 2
844 845 2
846 365 2
847 101 2
847 828 2
848 849 2
848 850 2
848 851 2
848 852 2
848 853 2
848 431 2
848 854 2
848 855 2
848 856 2
848 857 2
848 858 2
848 859 2
848 860 2
849 850 2
849 851 2
849 852 2
849 853 2
849 431 2
849 854 2
849 855 2
849 856 2
849 857 2
849 858 2
849 859 2
849 860 2
850 851 2
850 852 2
850 853 2
850 431 2
850 854 2
850 855 2
850 856 2
850 857 2
850 858 2
850 859 2
850 860 2
851 852 2
851 853 2
851 431 2
851 854 2
851 855 2
851 856 2
851 857 2
851 858 2
851 859 2
851 860 2
852 853 2
852 431 2
852 854 2
852 855 2
852 856 2
852 857 2
852 858 2
852 859 2
852 860 2
853 431 2
853 854 2
853 855 2
853 856 2
853 857 2
853 858 2
853 859 2
853 860 2
431 854 2
431 855 2
431 856 2
431 857 2
431 858 2
431 859 2
431 860 2
854 855 2
854 856 2
854 857 2
854 858 2
854 859 2
854 860 2
855 856 2
855 857 2
855 858 2
855 859 2
855 860 2
856 857 2
856 858 2
856 859 2
856 860 2
857 858 2
857 859 2
857 860 2
858 859 2
858 860 2
859 860 2
861 862 2
863 864 2
863 865 2
864 865 2
866 867 2
866 459 2
867 459 2
868 869 2
868 870 2
868 871 2
868 872 2
868 873 2
868 874 2
869 870 2
869 871 2
869 872 2
869 873 2
869 874 2
870 871 2
870 872 2
870 873 2
870 874 2
871 872 2
871 873 2
871 874 2
872 873 2
872 874 2
873 874 2
875 673 2
876 454 2
876 877 2
876 296 2
454 877 2
454 296 2
877 296 2
878 879 2
880 881 2
882 463 2
882 638 2
882 623 2
463 623 2
638 623 2
684 883 2
684 721 2
883 721 2
884 885 2
884 886 2
885 886 2
346 887 2
888 889 2
888 170 2
889 170 2
496 890 2
496 891 2
496 464 2
890 891 2
890 464 2
891 464 2
790 892 2
892 559 2
893 365 2
301 894 2
895 896 2
895 897 2
896 897 2
