*Vertices 1874
1 "446641"
2 "46453"
3 "1125792"
4 "479820"
5 "789531"
6 "450052"
7 "1405498"
8 "636975"
9 "1083294"
10 "1616153"
11 "229900"
12 "973696"
13 "980601"
14 "1553151"
15 "414053"
16 "1104426"
17 "494674"
18 "1508050"
19 "1586329"
20 "1673520"
21 "486710"
22 "131291"
23 "1240918"
24 "354892"
25 "1006674"
26 "1118367"
27 "718667"
28 "189520"
29 "847461"
30 "1192108"
31 "1260800"
32 "419552"
33 "601932"
34 "909170"
35 "1334163"
36 "484213"
37 "1654886"
38 "334447"
39 "272821"
40 "432334"
41 "338754"
42 "1380114"
43 "469270"
44 "518226"
45 "1706778"
46 "1155208"
47 "479068"
48 "1167803"
49 "1066266"
50 "1584116"
51 "525081"
52 "1479361"
53 "347733"
54 "223650"
55 "629743"
56 "276472"
57 "431603"
58 "306892"
59 "873857"
60 "1695963"
61 "975995"
62 "124819"
63 "143170"
64 "1657092"
65 "1052640"
66 "1214044"
67 "784417"
68 "505260"
69 "1134015"
70 "209608"
71 "902763"
72 "332603"
73 "341248"
74 "830272"
75 "1629243"
76 "636043"
77 "115255"
78 "305489"
79 "373455"
80 "428564"
81 "1089304"
82 "1159391"
83 "773379"
84 "1668661"
85 "992132"
86 "74134"
87 "1134760"
88 "230327"
89 "244793"
90 "1431610"
91 "8513"
92 "1660268"
93 "23977"
94 "1684074"
95 "1582896"
96 "1704171"
97 "791633"
98 "431340"
99 "1041874"
100 "468926"
101 "210537"
102 "131343"
103 "408447"
104 "386725"
105 "1056757"
106 "864010"
107 "352005"
108 "1409310"
109 "1604825"
110 "415349"
111 "1283667"
112 "1656451"
113 "260877"
114 "1169424"
115 "1696547"
116 "282843"
117 "763494"
118 "429219"
119 "1495837"
120 "484611"
121 "360661"
122 "24296"
123 "1488195"
124 "592160"
125 "756489"
126 "179595"
127 "658743"
128 "943301"
129 "421797"
130 "526069"
131 "1645912"
132 "23630"
133 "251854"
134 "458024"
135 "380466"
136 "251706"
137 "638303"
138 "1443772"
139 "259957"
140 "768656"
141 "812194"
142 "1673517"
143 "1041906"
144 "1270538"
145 "1204625"
146 "1002153"
147 "1294701"
148 "1129506"
149 "336080"
150 "1584592"
151 "1630153"
152 "715409"
153 "972276"
154 "1537366"
155 "1611276"
156 "874754"
157 "1226163"
158 "690034"
159 "249642"
160 "303820"
161 "1339235"
162 "462429"
163 "1341474"
164 "1184370"
165 "117156"
166 "1413408"
167 "585154"
168 "78856"
169 "270726"
170 "37096"
171 "1138922"
172 "405710"
173 "343053"
174 "1706127"
175 "1256866"
176 "520920"
177 "808086"
178 "1144490"
179 "865525"
180 "379861"
181 "1041840"
182 "593371"
183 "1104947"
184 "1354124"
185 "1208087"
186 "433975"
187 "1100102"
188 "153251"
189 "879160"
190 "640809"
191 "1690611"
192 "784124"
193 "109268"
194 "1675147"
195 "1429858"
196 "12024"
197 "537521"
198 "394841"
199 "190047"
200 "273647"
201 "771796"
202 "756654"
203 "1529284"
204 "570404"
205 "1060697"
206 "622961"
207 "520412"
208 "487"
209 "150915"
210 "1104083"
211 "418050"
212 "384657"
213 "300165"
214 "1607100"
215 "1205616"
216 "470828"
217 "1547587"
218 "1120362"
219 "374133"
220 "1267585"
221 "500507"
222 "1213619"
223 "1182651"
224 "1137848"
225 "1616809"
226 "90155"
227 "360098"
228 "1103301"
229 "522786"
230 "574677"
231 "454556"
232 "1694576"
233 "487963"
234 "25822"
235 "763155"
236 "321355"
237 "28508"
238 "392345"
239 "1217019"
240 "523074"
241 "1652743"
242 "364644"
243 "1602274"
244 "948106"
245 "1094159"
246 "1266069"
247 "1549988"
248 "128587"
249 "696555"
250 "750250"
251 "1436552"
252 "1520649"
253 "980202"
254 "974259"
255 "1105178"
256 "1117566"
257 "1213246"
258 "1456272"
259 "595474"
260 "779178"
261 "1335956"
262 "776737"
263 "702987"
264 "564788"
265 "441058"
266 "365435"
267 "268499"
268 "1497914"
269 "1233906"
270 "472966"
271 "1158668"
272 "1584312"
273 "1222043"
274 "484566"
275 "535621"
276 "880478"
277 "559585"
278 "1414654"
279 "680480"
280 "837200"
281 "619620"
282 "517877"
283 "191378"
284 "369228"
285 "12666"
286 "1046532"
287 "990738"
288 "827780"
289 "312929"
290 "727269"
291 "1143094"
292 "1652505"
293 "756576"
294 "189981"
295 "1031719"
296 "1627577"
297 "1683539"
298 "34708"
299 "1619552"
300 "1449586"
301 "26813"
302 "254"
303 "519157"
304 "33716"
305 "1412688"
306 "1134154"
307 "1383045"
308 "1668457"
309 "319282"
310 "231845"
311 "481106"
312 "1285545"
313 "800301"
314 "733437"
315 "93050"
316 "1174220"
317 "1166431"
318 "1196457"
319 "771615"
320 "1090198"
321 "1309737"
322 "1415669"
323 "1106581"
324 "270419"
325 "1453195"
326 "417624"
327 "1705207"
328 "1569475"
329 "320291"
330 "245192"
331 "913756"
332 "414073"
333 "307941"
334 "763179"
335 "52217"
336 "161783"
337 "1270813"
338 "47813"
339 "1098059"
340 "535362"
341 "605408"
342 "960286"
343 "1643108"
344 "1205385"
345 "791483"
346 "174670"
347 "1507217"
348 "1500386"
349 "1352426"
350 "249950"
351 "1608019"
352 "1006252"
353 "919623"
354 "1275830"
355 "1480194"
356 "567782"
357 "332147"
358 "1604619"
359 "119066"
360 "1019382"
361 "1165131"
362 "990456"
363 "34120"
364 "1078388"
365 "1193665"
366 "1166105"
367 "1549893"
368 "144025"
369 "1683461"
370 "1682935"
371 "1157409"
372 "1180405"
373 "25180"
374 "389379"
375 "393794"
376 "336038"
377 "768399"
378 "1693053"
379 "1522952"
380 "755611"
381 "1683724"
382 "460124"
383 "1330925"
384 "160395"
385 "398079"
386 "706611"
387 "669184"
388 "44769"
389 "485103"
390 "804055"
391 "403838"
392 "1384820"
393 "1266688"
394 "715051"
395 "517311"
396 "282777"
397 "1034743"
398 "1509077"
399 "1002541"
400 "574373"
401 "984256"
402 "61860"
403 "395067"
404 "83653"
405 "1015332"
406 "1165563"
407 "1661693"
408 "1567143"
409 "958800"
410 "1467165"
411 "190447"
412 "714390"
413 "188037"
414 "1172465"
415 "11545"
416 "833104"
417 "1529985"
418 "483566"
419 "691847"
420 "319877"
421 "823072"
422 "848238"
423 "947712"
424 "1428458"
425 "919673"
426 "719973"
427 "590644"
428 "1627966"
429 "1643031"
430 "755129"
431 "808701"
432 "827405"
433 "1710065"
434 "61322"
435 "1262441"
436 "1262424"
437 "769177"
438 "1337854"
439 "47827"
440 "1288076"
441 "1508873"
442 "443906"
443 "1600546"
444 "1000937"
445 "1441320"
446 "378124"
447 "1218654"
448 "771471"
449 "452140"
450 "397068"
451 "531258"
452 "528727"
453 "1456556"
454 "372901"
455 "366585"
456 "869349"
457 "1167478"
458 "380791"
459 "1442571"
460 "1687619"
461 "984583"
462 "1070194"
463 "550010"
464 "95304"
465 "1238911"
466 "330693"
467 "531887"
468 "1455371"
469 "1614108"
470 "1602551"
471 "863208"
472 "1165409"
473 "867686"
474 "1363661"
475 "1120591"
476 "1579233"
477 "355010"
478 "1297631"
479 "1146540"
480 "1332574"
481 "382812"
482 "1635366"
483 "923323"
484 "520879"
485 "971083"
486 "375755"
487 "563441"
488 "547436"
489 "830388"
490 "292747"
491 "1168001"
492 "812443"
493 "13264"
494 "1001168"
495 "390633"
496 "920608"
497 "1705524"
498 "1136153"
499 "928484"
500 "1104146"
501 "1545975"
502 "1709051"
503 "429575"
504 "130780"
505 "724540"
506 "1691179"
507 "301994"
508 "295752"
509 "1094209"
510 "1492783"
511 "849017"
512 "1244826"
513 "644970"
514 "1149091"
515 "137411"
516 "393996"
517 "274288"
518 "1002022"
519 "901751"
520 "1611287"
521 "1301732"
522 "1670169"
523 "70009"
524 "1539890"
525 "1017894"
526 "311239"
527 "219660"
528 "447658"
529 "458425"
530 "1118638"
531 "425978"
532 "257414"
533 "102619"
534 "420685"
535 "1370393"
536 "1620096"
537 "564910"
538 "564272"
539 "1270997"
540 "154419"
541 "902311"
542 "396543"
543 "541791"
544 "108697"
545 "1621035"
546 "1522906"
547 "734606"
548 "1578965"
549 "805174"
550 "500966"
551 "275866"
552 "1534009"
553 "1180383"
554 "236782"
555 "1026112"
556 "545436"
557 "1295638"
558 "1698434"
559 "758075"
560 "1697657"
561 "1357496"
562 "910495"
563 "1194566"
564 "1082925"
565 "108695"
566 "1413582"
567 "1806"
568 "505058"
569 "680834"
570 "638428"
571 "1428293"
572 "782960"
573 "190232"
574 "751446"
575 "1512041"
576 "903051"
577 "395080"
578 "814435"
579 "1367084"
580 "1153448"
581 "1488141"
582 "1136574"
583 "273271"
584 "1122566"
585 "108548"
586 "444469"
587 "631027"
588 "1699245"
589 "219909"
590 "1509987"
591 "398261"
592 "520775"
593 "1645421"
594 "1057595"
595 "1396611"
596 "1015407"
597 "761680"
598 "563339"
599 "1386371"
600 "1676239"
601 "900043"
602 "1297678"
603 "821360"
604 "740297"
605 "898534"
606 "761570"
607 "1672778"
608 "301219"
609 "1662456"
610 "1182673"
611 "369182"
612 "1229517"
613 "1706803"
614 "1453143"
615 "1383202"
616 "633758"
617 "1348094"
618 "427616"
619 "919620"
620 "144014"
621 "1238912"
622 "1297489"
623 "1437503"
624 "216080"
625 "821367"
626 "131189"
627 "820585"
628 "808187"
629 "1613503"
630 "203715"
631 "436526"
632 "461152"
633 "1612540"
634 "190515"
635 "192754"
636 "1000765"
637 "1697599"
638 "1158334"
639 "1556849"
640 "566832"
641 "493122"
642 "772930"
643 "1103375"
644 "1662405"
645 "301222"
646 "420330"
647 "731728"
648 "1210120"
649 "810277"
650 "552777"
651 "1155440"
652 "1617362"
653 "1248179"
654 "28277"
655 "1431272"
656 "1109808"
657 "595042"
658 "1689921"
659 "647652"
660 "1512712"
661 "365704"
662 "323672"
663 "1042226"
664 "592982"
665 "856037"
666 "773345"
667 "114416"
668 "1653695"
669 "1655045"
670 "991003"
671 "1489117"
672 "1191390"
673 "399725"
674 "241666"
675 "527888"
676 "1673776"
677 "1406253"
678 "1156962"
679 "1100313"
680 "1469302"
681 "957258"
682 "1710597"
683 "1368607"
684 "1233877"
685 "982431"
686 "1646432"
687 "1424851"
688 "1170128"
689 "1590887"
690 "1190922"
691 "712430"
692 "322302"
693 "594302"
694 "1439125"
695 "1583402"
696 "752356"
697 "1469127"
698 "643322"
699 "1482888"
700 "670948"
701 "1664300"
702 "782725"
703 "1683547"
704 "1254310"
705 "407823"
706 "1178185"
707 "1469047"
708 "1177234"
709 "1195063"
710 "1289407"
711 "552229"
712 "494669"
713 "831352"
714 "373587"
715 "900873"
716 "722606"
717 "383358"
718 "416053"
719 "293823"
720 "350939"
721 "1420857"
722 "494540"
723 "393420"
724 "1629372"
725 "1405710"
726 "1261033"
727 "250258"
728 "1511330"
729 "1700687"
730 "1455677"
731 "192559"
732 "1233384"
733 "533520"
734 "1587391"
735 "960599"
736 "546245"
737 "1438568"
738 "164531"
739 "1178292"
740 "150555"
741 "557603"
742 "1366423"
743 "341078"
744 "626817"
745 "382837"
746 "1166874"
747 "1411747"
748 "25701"
749 "904963"
750 "1237268"
751 "840265"
752 "1522051"
753 "1574999"
754 "691884"
755 "1512361"
756 "32406"
757 "1349398"
758 "93453"
759 "1032104"
760 "333555"
761 "796713"
762 "75976"
763 "1640656"
764 "643693"
765 "632261"
766 "276709"
767 "1512997"
768 "1547377"
769 "28551"
770 "504207"
771 "1415517"
772 "285257"
773 "1398883"
774 "1385911"
775 "421448"
776 "1410264"
777 "336406"
778 "552388"
779 "267158"
780 "40750"
781 "541725"
782 "1586373"
783 "1337088"
784 "961718"
785 "1333565"
786 "614533"
787 "1420800"
788 "1276506"
789 "49806"
790 "862453"
791 "468987"
792 "958915"
793 "1137423"
794 "516559"
795 "1709939"
796 "981981"
797 "1679063"
798 "1202692"
799 "124568"
800 "991514"
801 "1121238"
802 "84937"
803 "1555669"
804 "400326"
805 "231746"
806 "1504124"
807 "1276066"
808 "1467892"
809 "867778"
810 "780785"
811 "702168"
812 "620346"
813 "487955"
814 "1583456"
815 "272841"
816 "1653057"
817 "1700728"
818 "130718"
819 "690441"
820 "987755"
821 "1654363"
822 "339874"
823 "1496254"
824 "214973"
825 "1549795"
826 "1471321"
827 "1142268"
828 "1694174"
829 "885087"
830 "908241"
831 "540061"
832 "1533947"
833 "783211"
834 "681588"
835 "618636"
836 "903755"
837 "1010161"
838 "758578"
839 "382444"
840 "391617"
841 "1334456"
842 "987086"
843 "523704"
844 "180370"
845 "1481873"
846 "474036"
847 "329561"
848 "1114579"
849 "403286"
850 "347388"
851 "404603"
852 "877143"
853 "728347"
854 "800846"
855 "1287294"
856 "161339"
857 "254919"
858 "282214"
859 "644678"
860 "31730"
861 "1268783"
862 "479284"
863 "781755"
864 "482879"
865 "763696"
866 "1630087"
867 "693075"
868 "541163"
869 "310104"
870 "1381282"
871 "179322"
872 "990517"
873 "674744"
874 "985269"
875 "1511553"
876 "487374"
877 "1088792"
878 "401357"
879 "359018"
880 "603476"
881 "943418"
882 "231935"
883 "1364808"
884 "222453"
885 "811281"
886 "1699615"
887 "970182"
888 "637017"
889 "66820"
890 "808122"
891 "534699"
892 "1022176"
893 "868401"
894 "336724"
895 "763454"
896 "1458868"
897 "256356"
898 "580566"
899 "69191"
900 "1013533"
901 "942554"
902 "45281"
903 "398999"
904 "3545"
905 "50718"
906 "134529"
907 "244841"
908 "1546685"
909 "380717"
910 "961406"
911 "1703083"
912 "442014"
913 "1495503"
914 "1026130"
915 "1165283"
916 "37761"
917 "158060"
918 "875691"
919 "1489617"
920 "671846"
921 "32996"
922 "1125431"
923 "397941"
924 "561572"
925 "764998"
926 "98680"
927 "802531"
928 "1138171"
929 "318335"
930 "521715"
931 "850024"
932 "106082"
933 "394249"
934 "1549641"
935 "158830"
936 "1710981"
937 "1325175"
938 "299093"
939 "1683911"
940 "991127"
941 "537510"
942 "1641424"
943 "580088"
944 "550654"
945 "488094"
946 "1668236"
947 "1262256"
948 "1642721"
949 "1523838"
950 "1453456"
951 "1055735"
952 "1155376"
953 "1565471"
954 "443376"
955 "456369"
956 "1430828"
957 "69608"
958 "545143"
959 "354121"
960 "471541"
961 "1512928"
962 "975603"
963 "778729"
964 "1001665"
965 "1687561"
966 "1540613"
967 "1170570"
968 "328304"
969 "849887"
970 "547399"
971 "561278"
972 "605742"
973 "1350917"
974 "1696072"
975 "1385566"
976 "1176731"
977 "1622819"
978 "386707"
979 "51631"
980 "1443243"
981 "484697"
982 "529947"
983 "685044"
984 "754568"
985 "1553903"
986 "1171932"
987 "715959"
988 "987467"
989 "343591"
990 "1679882"
991 "799549"
992 "1422134"
993 "1368685"
994 "274793"
995 "784320"
996 "1651331"
997 "785283"
998 "344465"
999 "1025758"
1000 "123040"
1001 "1027540"
1002 "1665899"
1003 "204786"
1004 "1657688"
1005 "835329"
1006 "79515"
1007 "993748"
1008 "513579"
1009 "1261389"
1010 "359031"
1011 "1018373"
1012 "985039"
1013 "359400"
1014 "1383787"
1015 "982700"
1016 "572746"
1017 "373182"
1018 "589855"
1019 "335660"
1020 "722213"
1021 "1120399"
1022 "1498217"
1023 "382887"
1024 "977831"
1025 "1426218"
1026 "1235167"
1027 "267846"
1028 "1114373"
1029 "848234"
1030 "1459944"
1031 "631549"
1032 "1161939"
1033 "116042"
1034 "1351185"
1035 "749275"
1036 "953697"
1037 "745269"
1038 "419182"
1039 "704306"
1040 "733885"
1041 "351114"
1042 "404244"
1043 "533985"
1044 "1646298"
1045 "835177"
1046 "563990"
1047 "563338"
1048 "926099"
1049 "1138177"
1050 "1632677"
1051 "344359"
1052 "731636"
1053 "993177"
1054 "1647592"
1055 "1605171"
1056 "576519"
1057 "359658"
1058 "83036"
1059 "254790"
1060 "1192622"
1061 "476920"
1062 "1024140"
1063 "750173"
1064 "533657"
1065 "888771"
1066 "1524871"
1067 "1445709"
1068 "496247"
1069 "300314"
1070 "1022502"
1071 "611303"
1072 "55399"
1073 "319146"
1074 "378049"
1075 "1686396"
1076 "1633889"
1077 "34852"
1078 "392691"
1079 "801012"
1080 "66593"
1081 "911982"
1082 "174726"
1083 "1040523"
1084 "878127"
1085 "120881"
1086 "1679223"
1087 "1634546"
1088 "1631290"
1089 "340868"
1090 "132"
1091 "1368323"
1092 "360723"
1093 "165054"
1094 "261964"
1095 "1598562"
1096 "258819"
1097 "581396"
1098 "788454"
1099 "812401"
1100 "615112"
1101 "485452"
1102 "1481471"
1103 "1643463"
1104 "1078646"
1105 "256978"
1106 "650558"
1107 "1455358"
1108 "258119"
1109 "624174"
1110 "1385570"
1111 "1566550"
1112 "1195122"
1113 "1535660"
1114 "1120557"
1115 "1330912"
1116 "976515"
1117 "964363"
1118 "563621"
1119 "1318024"
1120 "29882"
1121 "503191"
1122 "1690111"
1123 "357377"
1124 "488691"
1125 "932802"
1126 "187971"
1127 "1061040"
1128 "1176569"
1129 "1555674"
1130 "1343211"
1131 "395104"
1132 "315768"
1133 "1078452"
1134 "66827"
1135 "1225946"
1136 "416525"
1137 "1680742"
1138 "624480"
1139 "53783"
1140 "590307"
1141 "112598"
1142 "7682"
1143 "546695"
1144 "1003680"
1145 "425433"
1146 "1125646"
1147 "957482"
1148 "1362449"
1149 "757238"
1150 "269267"
1151 "393792"
1152 "648906"
1153 "1155108"
1154 "1423251"
1155 "1035408"
1156 "571855"
1157 "771050"
1158 "833171"
1159 "1142399"
1160 "799170"
1161 "1312987"
1162 "102634"
1163 "1184184"
1164 "137769"
1165 "503982"
1166 "794740"
1167 "1094787"
1168 "1016265"
1169 "1521865"
1170 "812556"
1171 "398082"
1172 "112723"
1173 "1002438"
1174 "577106"
1175 "179692"
1176 "510118"
1177 "1181012"
1178 "942397"
1179 "50467"
1180 "931417"
1181 "799436"
1182 "393965"
1183 "369343"
1184 "974533"
1185 "1261659"
1186 "14782"
1187 "772348"
1188 "605734"
1189 "1175189"
1190 "680417"
1191 "750728"
1192 "1223769"
1193 "391806"
1194 "972786"
1195 "1114441"
1196 "551229"
1197 "789140"
1198 "1510188"
1199 "414218"
1200 "1437797"
1201 "345931"
1202 "1301849"
1203 "434850"
1204 "1261273"
1205 "574544"
1206 "1272824"
1207 "315423"
1208 "987313"
1209 "795113"
1210 "1612790"
1211 "382935"
1212 "1697959"
1213 "533267"
1214 "1125512"
1215 "722189"
1216 "1159431"
1217 "1219948"
1218 "251836"
1219 "723731"
1220 "1271856"
1221 "1094062"
1222 "1047639"
1223 "238906"
1224 "334610"
1225 "1294315"
1226 "532144"
1227 "369436"
1228 "1677230"
1229 "57742"
1230 "1265656"
1231 "381262"
1232 "1309116"
1233 "1081456"
1234 "532093"
1235 "1365734"
1236 "1536204"
1237 "1062965"
1238 "481089"
1239 "1577024"
1240 "733722"
1241 "409869"
1242 "544336"
1243 "1473"
1244 "144021"
1245 "380559"
1246 "662672"
1247 "1391974"
1248 "255206"
1249 "510117"
1250 "694295"
1251 "482117"
1252 "1108421"
1253 "1536523"
1254 "95462"
1255 "1491092"
1256 "544381"
1257 "406274"
1258 "1606606"
1259 "394242"
1260 "944669"
1261 "1147246"
1262 "306919"
1263 "176508"
1264 "1135752"
1265 "1270556"
1266 "242309"
1267 "1185865"
1268 "1597281"
1269 "1296885"
1270 "934135"
1271 "653915"
1272 "1510153"
1273 "1537386"
1274 "239439"
1275 "680287"
1276 "1134999"
1277 "390372"
1278 "1659887"
1279 "974723"
1280 "1459020"
1281 "1628660"
1282 "81418"
1283 "1376711"
1284 "1605307"
1285 "1538605"
1286 "1176363"
1287 "633950"
1288 "235649"
1289 "902346"
1290 "680414"
1291 "1180629"
1292 "369969"
1293 "306261"
1294 "148414"
1295 "1459877"
1296 "806984"
1297 "690033"
1298 "1306594"
1299 "1058979"
1300 "1313692"
1301 "639786"
1302 "413723"
1303 "418439"
1304 "465045"
1305 "965528"
1306 "331328"
1307 "1178222"
1308 "927646"
1309 "729775"
1310 "1156641"
1311 "432321"
1312 "1484781"
1313 "294140"
1314 "6608"
1315 "1098421"
1316 "414069"
1317 "1005823"
1318 "1594795"
1319 "1050962"
1320 "387790"
1321 "721845"
1322 "478432"
1323 "1412123"
1324 "591081"
1325 "3938"
1326 "343987"
1327 "1139028"
1328 "1587226"
1329 "877194"
1330 "644615"
1331 "1128705"
1332 "1585481"
1333 "1030201"
1334 "634357"
1335 "223795"
1336 "251671"
1337 "1177681"
1338 "157789"
1339 "840156"
1340 "1636246"
1341 "366617"
1342 "1566859"
1343 "1115049"
1344 "631542"
1345 "746451"
1346 "686065"
1347 "1136085"
1348 "604348"
1349 "528937"
1350 "1489314"
1351 "402546"
1352 "286852"
1353 "1330520"
1354 "1680359"
1355 "772969"
1356 "823678"
1357 "1625027"
1358 "898823"
1359 "974721"
1360 "1621801"
1361 "1316115"
1362 "1493347"
1363 "1451850"
1364 "142768"
1365 "125334"
1366 "1281636"
1367 "292274"
1368 "1605592"
1369 "263766"
1370 "1518970"
1371 "1166368"
1372 "1445793"
1373 "1696925"
1374 "1332986"
1375 "132923"
1376 "994743"
1377 "596132"
1378 "808850"
1379 "119094"
1380 "347852"
1381 "759497"
1382 "289249"
1383 "1554938"
1384 "250369"
1385 "25558"
1386 "357030"
1387 "635106"
1388 "993809"
1389 "230052"
1390 "44904"
1391 "1569524"
1392 "308274"
1393 "1509392"
1394 "130962"
1395 "1320970"
1396 "420088"
1397 "921728"
1398 "407192"
1399 "1113131"
1400 "144570"
1401 "718592"
1402 "1447209"
1403 "1325117"
1404 "490317"
1405 "1695703"
1406 "1657788"
1407 "658483"
1408 "359230"
1409 "1330891"
1410 "188858"
1411 "779868"
1412 "754308"
1413 "598093"
1414 "293756"
1415 "1443520"
1416 "1098459"
1417 "1458244"
1418 "865213"
1419 "993651"
1420 "1619061"
1421 "318401"
1422 "4472"
1423 "680581"
1424 "57056"
1425 "1183415"
1426 "462173"
1427 "960873"
1428 "1221511"
1429 "1314162"
1430 "1587320"
1431 "1692851"
1432 "294663"
1433 "120630"
1434 "245220"
1435 "359149"
1436 "1591295"
1437 "38525"
1438 "1361054"
1439 "417577"
1440 "1609202"
1441 "1299356"
1442 "860094"
1443 "399242"
1444 "562552"
1445 "1076320"
1446 "878582"
1447 "1138776"
1448 "250339"
1449 "779188"
1450 "1455592"
1451 "719688"
1452 "1485698"
1453 "1701345"
1454 "301840"
1455 "1512173"
1456 "1098587"
1457 "41057"
1458 "860313"
1459 "1043700"
1460 "1295001"
1461 "1181125"
1462 "266698"
1463 "1383166"
1464 "1059381"
1465 "232730"
1466 "145173"
1467 "117907"
1468 "780105"
1469 "1103746"
1470 "1365602"
1471 "504914"
1472 "1012620"
1473 "1300957"
1474 "1285989"
1475 "1481209"
1476 "1104110"
1477 "273633"
1478 "1519927"
1479 "1646046"
1480 "336426"
1481 "591282"
1482 "522647"
1483 "26437"
1484 "626451"
1485 "1489349"
1486 "360221"
1487 "1546905"
1488 "1332107"
1489 "1627355"
1490 "535732"
1491 "1293898"
1492 "379394"
1493 "760142"
1494 "683585"
1495 "517668"
1496 "259333"
1497 "782746"
1498 "893843"
1499 "404182"
1500 "407656"
1501 "1020672"
1502 "1509559"
1503 "1165764"
1504 "379593"
1505 "1102174"
1506 "800856"
1507 "521507"
1508 "529787"
1509 "1689729"
1510 "494171"
1511 "1426241"
1512 "518331"
1513 "1453856"
1514 "1366961"
1515 "1586409"
1516 "558070"
1517 "749945"
1518 "431046"
1519 "1621390"
1520 "511338"
1521 "508196"
1522 "520169"
1523 "620969"
1524 "334808"
1525 "192942"
1526 "1360354"
1527 "490158"
1528 "1055879"
1529 "485488"
1530 "481441"
1531 "481437"
1532 "424554"
1533 "656821"
1534 "365337"
1535 "592470"
1536 "443805"
1537 "1479945"
1538 "1130932"
1539 "1263141"
1540 "1688956"
1541 "113307"
1542 "608016"
1543 "1208131"
1544 "1663230"
1545 "166434"
1546 "238386"
1547 "1636752"
1548 "933463"
1549 "1369029"
1550 "982009"
1551 "648552"
1552 "929108"
1553 "581114"
1554 "1500374"
1555 "1294866"
1556 "897809"
1557 "746364"
1558 "650981"
1559 "641717"
1560 "1512683"
1561 "230645"
1562 "919617"
1563 "516763"
1564 "101414"
1565 "522320"
1566 "1599689"
1567 "681287"
1568 "765025"
1569 "419279"
1570 "140976"
1571 "1005714"
1572 "1339906"
1573 "731789"
1574 "817913"
1575 "333386"
1576 "1227310"
1577 "841300"
1578 "501965"
1579 "861142"
1580 "392982"
1581 "1078650"
1582 "1285369"
1583 "1694585"
1584 "329750"
1585 "369404"
1586 "1397558"
1587 "864409"
1588 "1447553"
1589 "368193"
1590 "369919"
1591 "345812"
1592 "933907"
1593 "1664181"
1594 "1532068"
1595 "1068985"
1596 "401659"
1597 "187295"
1598 "380675"
1599 "939261"
1600 "78883"
1601 "1692813"
1602 "562076"
1603 "1528439"
1604 "411841"
1605 "409547"
1606 "288203"
1607 "259727"
1608 "993610"
1609 "471153"
1610 "1496007"
1611 "1045164"
1612 "1177251"
1613 "1695163"
1614 "390367"
1615 "914579"
1616 "1476116"
1617 "971280"
1618 "485486"
1619 "726934"
1620 "1294314"
1621 "148342"
1622 "1382788"
1623 "855988"
1624 "603930"
1625 "848135"
1626 "1630230"
1627 "848432"
1628 "208790"
1629 "1314167"
1630 "1500869"
1631 "1073683"
1632 "1054891"
1633 "461559"
1634 "1060110"
1635 "1024247"
1636 "56421"
1637 "1631101"
1638 "278392"
1639 "581485"
1640 "1517346"
1641 "871663"
1642 "712388"
1643 "38384"
1644 "68435"
1645 "1459362"
1646 "319801"
1647 "717788"
1648 "1407202"
1649 "1111204"
1650 "525223"
1651 "144825"
1652 "862147"
1653 "157546"
1654 "592404"
1655 "455184"
1656 "902083"
1657 "223192"
1658 "511257"
1659 "1568792"
1660 "1635573"
1661 "397944"
1662 "1689534"
1663 "110690"
1664 "302053"
1665 "862444"
1666 "230448"
1667 "1165027"
1668 "1293473"
1669 "1488430"
1670 "393842"
1671 "531797"
1672 "1372997"
1673 "990170"
1674 "70678"
1675 "1049630"
1676 "522277"
1677 "564899"
1678 "468899"
1679 "638750"
1680 "1690809"
1681 "26882"
1682 "1265544"
1683 "211177"
1684 "1236930"
1685 "1329314"
1686 "931807"
1687 "1490989"
1688 "230438"
1689 "175948"
1690 "368203"
1691 "89096"
1692 "107731"
1693 "244206"
1694 "1536539"
1695 "1104888"
1696 "568202"
1697 "417653"
1698 "1129189"
1699 "894769"
1700 "59657"
1701 "1335698"
1702 "535507"
1703 "876017"
1704 "1692844"
1705 "885417"
1706 "942345"
1707 "697048"
1708 "554983"
1709 "1157417"
1710 "1630994"
1711 "993588"
1712 "1460370"
1713 "1482569"
1714 "1457801"
1715 "1496810"
1716 "718634"
1717 "790366"
1718 "191944"
1719 "1319174"
1720 "494523"
1721 "1122053"
1722 "501540"
1723 "930006"
1724 "411585"
1725 "1363375"
1726 "232573"
1727 "411087"
1728 "240358"
1729 "590771"
1730 "1185887"
1731 "911719"
1732 "1593676"
1733 "412497"
1734 "446092"
1735 "9512"
1736 "1362456"
1737 "733575"
1738 "247821"
1739 "1285506"
1740 "1454777"
1741 "684583"
1742 "1368427"
1743 "332416"
1744 "1578254"
1745 "1669129"
1746 "995083"
1747 "382466"
1748 "1455673"
1749 "864121"
1750 "640345"
1751 "923027"
1752 "258923"
1753 "777018"
1754 "66363"
1755 "529729"
1756 "241050"
1757 "379270"
1758 "392955"
1759 "933703"
1760 "582831"
1761 "31118"
1762 "153959"
1763 "473518"
1764 "705970"
1765 "1158325"
1766 "1147862"
1767 "1137518"
1768 "1142664"
1769 "428722"
1770 "239924"
1771 "1308042"
1772 "1261135"
1773 "1284726"
1774 "228402"
1775 "109451"
1776 "412517"
1777 "82470"
1778 "1598550"
1779 "622957"
1780 "1207872"
1781 "240606"
1782 "1549788"
1783 "137794"
1784 "1653916"
1785 "704041"
1786 "102060"
1787 "952928"
1788 "1356824"
1789 "347410"
1790 "811240"
1791 "1202472"
1792 "370009"
1793 "852618"
1794 "462730"
1795 "414310"
1796 "468764"
1797 "375213"
1798 "1683428"
1799 "419041"
1800 "419344"
1801 "665760"
1802 "881353"
1803 "1006947"
1804 "1434667"
1805 "1336432"
1806 "23215"
1807 "865194"
1808 "96536"
1809 "707235"
1810 "1510780"
1811 "746471"
1812 "129919"
1813 "1311240"
1814 "22227"
1815 "601817"
1816 "1002089"
1817 "262025"
1818 "794803"
1819 "1460900"
1820 "654664"
1821 "1314988"
1822 "477382"
1823 "445626"
1824 "622256"
1825 "956120"
1826 "61771"
1827 "621026"
1828 "221519"
1829 "260218"
1830 "510020"
1831 "602231"
1832 "561158"
1833 "1577731"
1834 "418552"
1835 "236825"
1836 "1440030"
1837 "337773"
1838 "1175811"
1839 "27356"
1840 "522435"
1841 "635672"
1842 "866886"
1843 "877678"
1844 "1591422"
1845 "549167"
1846 "640344"
1847 "548452"
1848 "17296"
1849 "403971"
1850 "1524624"
1851 "838659"
1852 "447098"
1853 "26312"
1854 "872883"
1855 "1607873"
1856 "775285"
1857 "1686438"
1858 "1348360"
1859 "654728"
1860 "1101927"
1861 "1633435"
1862 "79766"
1863 "433680"
1864 "607914"
1865 "545144"
1866 "1369880"
1867 "835393"
1868 "1636866"
1869 "1636364"
1870 "1356662"
1871 "1610725"
1872 "1234720"
1873 "996986"
*Edges
1 2 2
3 4 2
5 6 2
7 8 2
7 9 2
7 10 2
8 9 2
8 10 2
9 10 2
11 12 2
13 14 2
15 16 2
17 18 2
19 20 2
21 20 2
22 23 2
24 25 2
26 27 2
26 28 2
27 28 2
29 30 2
29 5 2
30 5 2
31 32 2
31 33 2
32 33 2
34 35 2
34 36 2
35 36 2
37 38 2
37 39 2
37 40 2
37 41 2
37 42 2
37 43 2
38 39 2
38 40 2
38 41 2
38 42 2
38 43 2
39 40 2
39 41 2
39 42 2
39 43 2
40 41 2
40 42 2
40 43 2
41 42 2
41 43 2
42 43 2
44 45 2
46 47 2
48 49 2
50 51 2
50 52 2
50 53 2
51 52 2
51 53 2
52 53 2
54 55 2
56 57 2
58 59 2
60 61 2
60 62 2
60 63 2
61 62 2
61 63 2
62 63 2
64 65 2
64 66 2
64 67 2
65 66 2
65 67 2
66 67 2
68 47 2
69 58 4
70 71 2
20 72 2
21 73 2
74 75 2
74 76 2
75 76 2
77 78 2
77 79 2
77 80 2
78 79 2
78 80 2
79 80 2
46 81 2
46 82 2
81 82 2
83 84 2
85 86 2
87 88 2
87 89 2
88 89 2
21 90 2
91 92 2
91 93 2
92 93 2
94 20 2
94 95 2
20 95 2
96 97 2
98 99 2
98 100 2
99 100 2
101 102 2
103 104 2
105 106 2
105 107 2
106 107 2
108 109 2
110 111 2
112 113 2
112 114 2
113 114 2
115 116 2
115 117 2
115 118 2
115 119 2
115 120 2
115 121 2
116 117 2
116 118 2
116 119 2
116 120 2
116 121 2
117 118 2
117 119 2
117 120 2
117 121 2
118 119 2
118 120 2
118 121 2
119 120 2
119 121 2
120 121 2
122 123 2
122 124 2
122 125 2
123 124 2
123 125 2
124 125 2
126 127 2
101 128 6
129 63 2
54 130 2
131 1090 4
131 133 2
1090 133 2
1090 134 2
1090 135 2
1090 136 2
134 135 2
134 136 2
134 131 2
135 136 6
135 131 2
136 131 2
134 137 2
138 26 2
139 140 2
141 95 2
142 143 2
144 145 2
21 146 2
147 148 2
149 21 2
22 150 2
22 151 6
152 153 2
152 154 2
153 154 2
69 155 2
155 58 2
68 156 2
68 157 2
156 157 2
158 159 2
160 161 2
162 163 2
162 164 2
162 165 2
163 164 2
163 165 2
164 165 2
166 167 2
166 168 2
167 168 2
169 170 2
169 171 2
169 172 2
170 171 2
170 172 2
171 172 2
69 144 2
173 174 2
173 153 2
173 175 2
173 176 2
173 104 2
174 153 2
174 175 2
174 176 2
174 104 2
153 175 2
153 176 2
153 104 2
175 176 2
175 104 2
176 104 2
177 178 2
179 180 2
179 181 2
180 181 2
62 182 2
183 184 2
185 186 2
185 101 6
186 101 2
187 188 4
189 190 2
62 191 2
182 192 2
182 193 2
182 194 2
182 195 2
182 196 2
182 197 2
182 198 2
192 193 2
192 194 2
192 195 2
192 196 2
192 197 2
192 198 2
193 194 2
193 195 2
193 196 2
193 197 2
193 198 2
194 195 2
194 196 2
194 197 2
194 198 2
195 196 2
195 197 2
195 198 2
196 197 2
196 198 2
197 198 2
199 200 2
201 202 2
201 203 2
202 203 2
144 204 2
144 205 2
144 206 2
144 207 2
204 205 2
204 206 2
204 207 2
205 206 2
205 207 2
206 207 2
153 158 2
34 208 2
209 210 2
211 212 2
213 22 2
190 214 2
215 216 2
217 218 2
219 135 2
219 220 4
219 136 4
135 220 2
220 136 4
146 135 2
146 221 2
146 222 2
146 223 2
146 224 2
146 154 2
146 136 6
135 221 2
135 222 2
135 223 2
135 224 2
135 154 2
221 222 2
221 223 2
221 224 2
221 154 2
221 136 2
222 223 2
222 224 2
222 154 2
222 136 2
223 224 2
223 154 2
223 136 2
224 154 2
224 136 2
154 136 2
136 225 2
146 225 2
188 226 12
188 227 2
188 228 2
188 229 2
226 187 2
226 227 2
226 228 2
226 229 2
187 227 2
187 228 2
187 229 2
227 228 2
227 229 2
228 229 2
230 231 2
230 232 2
230 233 2
230 234 2
231 232 2
231 233 2
231 234 2
232 233 2
232 234 2
233 234 2
101 235 2
101 236 2
101 237 2
101 238 4
185 235 2
185 236 2
185 128 4
185 237 2
185 238 4
235 236 2
235 128 2
235 237 2
235 238 2
236 128 2
236 237 2
236 238 2
128 237 2
128 238 4
237 238 2
151 1090 4
151 69 4
1090 22 2
1090 69 2
22 69 4
239 240 2
241 242 2
218 243 2
218 152 2
218 244 2
218 245 2
243 152 2
243 244 2
243 245 2
152 244 2
152 245 2
244 245 2
246 247 2
130 248 2
130 249 2
248 249 2
241 250 4
251 252 2
253 302 2
255 256 2
255 257 2
256 257 2
258 259 2
258 260 2
259 260 2
136 261 2
136 262 2
219 261 2
219 146 2
219 262 2
261 146 2
261 220 2
261 262 2
146 220 2
146 262 2
220 262 2
263 264 2
263 265 2
263 266 2
263 267 2
264 265 2
264 266 2
264 267 2
265 266 2
265 267 2
266 267 2
268 269 2
270 271 2
270 272 2
271 272 2
273 274 2
273 275 2
273 276 2
274 275 2
274 276 2
275 276 2
277 278 2
58 1090 2
58 182 2
1090 182 2
279 280 2
279 281 2
279 282 2
280 281 2
280 282 2
281 282 2
151 283 2
284 285 2
185 286 2
101 286 2
286 128 2
286 238 2
287 288 2
287 101 2
288 101 2
289 290 2
289 291 2
290 291 2
292 293 2
292 294 2
295 22 2
169 296 2
297 298 2
297 299 2
298 299 2
300 301 2
190 302 4
190 303 4
190 304 6
190 305 2
190 306 4
190 307 4
190 308 2
302 303 4
302 304 4
302 305 2
302 306 2
302 307 2
302 308 2
303 304 4
303 305 2
303 306 2
303 307 2
303 308 2
304 305 2
304 306 4
304 307 2
304 308 2
305 306 2
305 307 2
305 308 2
306 307 2
306 308 2
307 308 2
309 310 2
309 311 2
309 312 2
310 311 2
310 312 2
311 312 2
313 218 2
314 315 2
316 317 2
318 319 2
320 321 2
320 322 2
321 322 2
323 324 2
323 325 2
323 326 2
324 325 2
324 326 2
325 326 2
327 292 2
328 329 2
330 331 2
330 332 2
330 333 2
331 332 2
331 333 2
332 333 2
334 335 2
334 336 2
334 337 2
334 338 2
335 336 2
335 337 2
335 338 2
336 337 2
336 338 2
337 338 2
339 340 2
339 341 2
339 342 2
340 341 2
340 342 2
341 342 2
343 344 2
343 345 2
343 346 2
344 345 2
344 346 2
345 346 2
241 130 2
250 130 2
347 348 2
349 350 2
349 351 2
349 352 2
349 353 2
350 351 2
350 352 2
350 353 2
351 352 2
351 353 2
352 353 2
354 355 2
354 356 2
354 357 2
355 356 2
355 357 2
356 357 2
329 358 2
329 359 2
329 360 2
329 361 2
358 359 2
358 360 2
358 361 2
359 360 2
359 361 2
360 361 2
153 362 2
153 363 2
153 364 2
153 365 2
153 366 2
153 367 2
362 363 2
362 364 2
362 365 2
362 366 2
362 367 2
363 364 2
363 365 2
363 366 2
363 367 2
364 365 2
364 366 2
364 367 2
365 366 2
365 367 2
366 367 2
346 368 2
346 201 2
368 201 4
369 370 2
371 190 2
371 372 2
190 372 2
373 374 2
373 375 2
374 375 2
303 376 2
302 376 2
190 376 2
304 376 2
137 377 2
137 378 2
137 379 2
137 380 2
377 378 2
377 379 2
377 380 2
378 379 2
378 380 2
379 380 2
151 381 2
151 382 2
381 382 2
381 1090 2
382 1090 2
383 384 2
385 226 2
385 386 2
385 387 2
226 386 2
226 387 2
386 387 2
388 389 2
388 390 2
388 391 2
389 390 2
389 391 2
390 391 2
392 393 2
394 395 2
394 396 4
394 397 2
395 396 2
395 397 2
396 397 2
398 399 2
400 169 2
151 401 2
151 402 4
401 402 2
403 244 2
403 404 2
244 404 2
405 406 2
407 408 2
407 409 2
408 409 2
410 411 2
410 412 2
411 412 2
413 414 2
413 415 2
414 415 2
416 417 2
418 419 2
418 420 2
419 420 2
306 421 2
190 421 2
304 421 2
422 423 2
422 424 2
422 425 2
423 424 2
423 425 2
424 425 2
243 426 2
243 327 4
426 327 2
427 428 2
207 429 2
430 431 2
430 432 2
430 433 2
430 434 2
431 432 2
431 433 2
431 434 2
432 433 2
432 434 2
433 434 2
435 436 2
437 438 2
439 440 2
441 442 2
443 444 2
443 445 4
444 445 2
446 447 6
446 22 2
447 22 2
448 449 2
448 450 2
448 451 2
449 450 2
449 451 2
450 451 2
307 452 6
307 453 4
452 453 4
454 228 4
455 371 2
236 456 2
457 458 2
457 459 2
458 459 2
69 446 2
460 386 2
460 461 2
460 462 2
386 461 4
386 462 2
461 462 2
463 464 6
463 188 6
463 226 8
464 188 6
464 226 6
465 466 2
465 467 2
466 467 4
468 469 2
468 470 2
469 470 2
471 472 2
471 188 2
471 226 4
471 473 2
472 188 2
472 226 2
472 473 2
188 473 2
226 473 2
474 440 2
475 476 2
477 478 2
479 169 2
480 101 2
481 482 2
483 484 2
485 486 2
485 487 2
486 487 2
488 489 2
488 490 2
489 490 2
405 491 2
492 493 2
492 494 2
493 494 2
371 289 2
495 496 2
497 441 2
497 498 2
441 498 2
499 314 2
500 501 2
500 502 2
500 503 2
500 504 2
501 502 2
501 503 2
501 504 2
502 503 2
502 504 2
503 504 2
505 442 2
506 244 2
307 228 2
307 454 2
453 228 2
453 454 2
452 228 2
452 454 2
507 508 4
507 438 4
508 438 4
509 510 2
511 440 6
511 218 4
440 218 6
512 513 2
416 453 2
514 515 2
514 241 2
514 516 2
515 241 2
515 516 2
241 516 2
517 518 2
519 520 2
521 522 2
521 523 2
522 523 2
524 525 2
526 201 2
527 528 2
527 529 2
527 530 6
528 529 2
528 530 2
529 530 2
531 374 2
532 533 2
534 535 2
536 463 2
536 190 4
536 537 2
463 190 2
463 537 2
190 537 2
538 539 2
538 540 2
539 540 2
541 542 2
541 296 2
542 296 2
62 447 4
62 446 6
62 402 4
447 402 4
446 402 4
543 69 2
544 545 2
544 546 2
544 547 2
544 201 2
545 546 2
545 547 2
545 201 4
546 547 2
546 201 2
547 201 4
548 365 4
394 549 4
394 550 2
394 551 2
394 552 2
549 550 2
549 396 2
549 551 2
549 552 2
550 396 2
550 551 2
550 552 2
396 551 2
396 552 2
551 552 2
553 554 2
555 496 4
555 556 2
555 437 2
496 556 2
496 437 2
556 437 2
557 558 2
559 453 2
559 417 2
559 560 2
453 417 2
453 560 2
417 560 2
561 562 2
446 563 2
446 564 2
563 62 2
563 564 2
62 564 2
565 566 2
565 567 2
565 568 2
565 569 2
566 567 2
566 568 2
566 569 2
567 568 2
567 569 2
568 569 2
570 422 2
571 572 2
573 574 2
575 404 2
575 440 2
404 440 2
576 577 2
576 578 2
577 578 2
579 580 2
464 437 2
464 581 2
464 347 2
437 581 2
437 347 2
581 347 2
582 583 2
584 463 2
585 442 2
586 228 2
587 440 2
587 218 2
588 471 2
588 441 2
471 441 2
589 169 2
590 591 2
463 182 2
463 592 2
182 592 2
593 594 4
593 595 4
593 255 2
593 596 2
594 595 4
594 255 2
594 596 2
595 255 2
595 596 2
255 596 2
443 404 2
445 404 2
597 598 2
597 599 2
597 600 4
598 599 4
598 600 4
599 600 8
601 602 2
603 604 2
603 605 2
603 606 2
603 607 2
603 608 2
604 605 2
604 606 2
604 607 2
604 608 2
605 606 2
605 607 4
605 608 2
606 607 2
606 608 2
607 608 2
609 346 4
610 611 2
610 612 2
611 612 2
169 613 2
614 615 2
614 616 2
614 613 2
615 616 2
615 613 2
616 613 2
617 292 2
617 211 2
292 211 2
467 618 2
467 619 4
467 620 2
467 621 2
618 619 2
618 620 2
618 621 2
619 620 2
619 621 2
620 621 4
622 623 2
624 463 8
625 626 2
365 627 2
365 628 2
365 629 4
627 628 2
627 629 2
627 548 2
628 629 2
628 548 2
629 548 2
530 630 2
630 527 2
631 460 2
632 633 2
632 464 2
632 634 2
633 464 2
633 634 2
464 634 2
151 635 2
151 437 2
635 437 2
635 402 2
437 402 2
636 637 2
638 463 4
639 619 4
640 641 2
400 642 2
400 643 4
642 643 2
644 346 2
645 646 4
645 647 4
645 648 4
645 649 4
645 650 4
646 647 4
646 648 4
646 649 4
646 650 4
647 648 4
647 649 4
647 650 4
648 649 4
648 650 4
649 650 4
651 652 4
651 653 4
651 654 4
651 655 4
651 656 4
652 653 4
652 654 4
652 655 4
652 656 4
653 654 4
653 655 4
653 656 4
654 655 4
654 656 4
655 656 4
657 658 4
659 660 4
659 661 4
660 661 4
662 663 4
599 664 6
664 600 6
665 624 4
665 463 4
666 667 4
400 668 2
668 643 2
640 669 2
670 671 2
672 673 2
674 675 2
674 676 2
675 676 2
677 678 2
679 680 2
681 682 2
683 684 2
685 686 2
687 688 2
689 690 2
689 691 2
690 691 2
617 692 2
693 694 2
695 696 2
695 697 2
696 697 2
698 699 2
698 700 2
698 701 2
699 700 2
699 701 2
700 701 2
702 703 2
702 704 2
702 683 2
702 348 2
703 704 2
703 683 2
703 348 2
704 683 2
704 348 2
683 348 2
346 617 2
705 706 2
705 707 2
705 708 2
705 709 2
705 710 2
706 707 2
706 708 2
706 709 2
706 710 2
707 708 2
707 709 2
707 710 2
708 709 2
708 710 2
709 710 2
711 712 2
713 714 2
569 715 4
569 716 4
569 717 2
715 716 2
715 717 2
716 717 2
718 719 2
718 464 2
719 464 2
152 720 2
721 226 6
721 188 2
722 723 2
722 724 2
722 440 2
722 526 2
723 724 2
723 440 2
723 526 4
724 440 2
724 526 2
440 526 6
725 438 2
726 511 4
726 727 2
726 440 4
511 727 2
727 440 2
728 729 2
730 598 2
730 571 2
598 571 2
731 732 2
733 296 2
734 735 2
734 736 2
734 737 2
735 736 2
735 737 2
736 737 2
738 739 2
738 740 2
739 740 2
741 742 2
741 736 4
741 743 2
742 736 2
742 743 2
736 743 2
744 745 2
744 746 2
745 746 2
463 747 2
463 748 2
747 748 2
747 624 2
748 624 2
749 597 4
750 594 2
750 593 2
750 751 2
750 595 2
594 751 2
593 751 2
751 595 2
752 753 2
752 754 2
752 755 2
752 756 2
752 757 2
752 758 2
752 759 2
752 760 2
753 754 2
753 755 2
753 756 2
753 757 2
753 758 2
753 759 2
753 760 2
754 755 2
754 756 2
754 757 2
754 758 2
754 759 2
754 760 2
755 756 2
755 757 2
755 758 2
755 759 2
755 760 2
756 757 2
756 758 2
756 759 2
756 760 2
757 758 2
757 759 2
757 760 2
758 759 2
758 760 2
759 760 2
598 761 2
598 762 2
761 762 2
763 764 2
763 218 2
764 218 4
765 443 2
766 767 2
768 769 2
768 770 2
769 770 2
771 772 2
773 774 2
773 775 4
773 726 2
773 776 2
773 764 2
773 777 2
773 511 2
773 778 2
773 445 4
773 440 2
773 526 2
773 218 4
774 775 2
774 726 2
774 776 2
774 764 2
774 777 2
774 511 2
774 778 2
774 445 2
774 440 2
774 526 2
774 218 2
775 726 2
775 776 2
775 764 2
775 777 2
775 511 2
775 778 2
775 445 4
775 440 2
775 526 2
775 218 4
726 776 2
726 764 2
726 777 2
726 778 2
726 445 2
726 526 2
726 218 2
776 764 2
776 777 2
776 511 2
776 778 2
776 445 2
776 440 2
776 526 2
776 218 2
764 777 2
764 511 2
764 778 2
764 445 2
764 440 2
764 526 2
777 511 2
777 778 2
777 445 2
777 440 2
777 526 2
777 218 2
511 778 2
511 445 2
511 526 2
778 445 2
778 440 2
778 526 2
778 218 2
445 440 4
445 526 2
445 218 4
526 218 2
779 780 2
781 664 2
781 782 2
781 599 2
781 598 2
781 600 2
664 782 2
664 598 2
782 599 2
782 598 2
782 600 2
783 440 2
783 445 2
784 785 2
784 786 2
785 786 2
787 441 2
788 626 4
621 466 2
621 789 2
620 466 2
620 789 2
466 789 2
790 791 2
790 611 2
790 496 2
790 559 4
790 792 2
791 611 2
791 496 2
791 559 2
791 792 2
611 496 2
611 559 2
611 792 4
496 559 2
496 792 2
559 792 2
530 551 2
793 794 2
795 228 2
795 385 2
228 385 2
796 390 2
796 463 2
390 463 2
797 404 4
798 799 2
798 800 2
798 801 2
799 800 2
799 801 2
800 801 2
802 803 2
802 804 2
802 805 2
803 804 4
803 805 4
804 805 6
806 807 2
806 808 2
807 808 2
809 810 6
809 496 6
810 496 6
169 811 4
812 813 2
812 814 2
813 814 2
815 471 4
815 816 2
815 226 4
471 816 2
816 226 2
817 470 2
818 611 2
818 626 2
611 626 2
819 820 4
819 464 4
819 425 4
820 464 8
820 425 6
464 425 6
387 394 2
821 822 2
821 823 2
821 824 2
822 823 2
822 824 2
823 824 2
825 826 2
825 827 2
826 827 2
828 829 2
828 830 2
828 831 2
828 101 10
829 830 2
829 831 2
829 101 4
830 831 2
830 101 2
831 101 2
832 833 2
834 835 2
834 836 2
835 836 2
837 838 2
837 839 2
837 840 2
837 841 2
837 842 2
837 843 2
838 839 2
838 840 2
838 841 2
838 842 2
838 843 2
839 840 2
839 841 2
839 842 2
839 843 2
840 841 2
840 842 2
840 843 2
841 842 2
841 843 2
842 843 2
844 845 2
846 365 4
847 101 4
847 828 4
848 849 2
848 850 2
848 851 2
848 852 2
848 853 2
848 431 2
848 854 2
848 855 2
848 856 2
848 857 2
848 858 2
848 859 2
848 860 2
849 850 2
849 851 2
849 852 2
849 853 2
849 431 2
849 854 2
849 855 2
849 856 2
849 857 2
849 858 2
849 859 2
849 860 2
850 851 2
850 852 2
850 853 2
850 431 2
850 854 2
850 855 2
850 856 2
850 857 2
850 858 2
850 859 2
850 860 2
851 852 2
851 853 2
851 431 2
851 854 2
851 855 2
851 856 2
851 857 2
851 858 2
851 859 2
851 860 2
852 853 2
852 431 2
852 854 2
852 855 2
852 856 2
852 857 2
852 858 2
852 859 2
852 860 2
853 431 2
853 854 2
853 855 2
853 856 2
853 857 2
853 858 2
853 859 2
853 860 2
431 854 2
431 855 2
431 856 2
431 857 2
431 858 2
431 859 2
431 860 2
854 855 2
854 856 2
854 857 2
854 858 2
854 859 2
854 860 2
855 856 2
855 857 2
855 858 2
855 859 2
855 860 2
856 857 2
856 858 2
856 859 2
856 860 2
857 858 2
857 859 2
857 860 2
858 859 2
858 860 2
859 860 2
861 862 2
863 864 2
863 865 2
864 865 2
866 867 2
866 459 4
867 459 2
868 869 2
868 870 2
868 871 2
868 872 2
868 873 2
868 874 2
869 870 2
869 871 2
869 872 2
869 873 2
869 874 2
870 871 2
870 872 2
870 873 2
870 874 2
871 872 2
871 873 2
871 874 2
872 873 2
872 874 2
873 874 2
875 673 10
876 454 2
876 877 2
876 296 2
454 877 2
454 296 2
877 296 2
878 879 2
880 881 2
882 463 2
882 638 2
882 623 2
463 623 2
638 623 2
684 883 2
684 721 2
883 721 2
884 885 2
884 886 2
885 886 2
346 887 2
888 889 2
888 170 2
889 170 2
496 890 2
496 891 2
496 464 4
890 891 2
890 464 2
891 464 2
790 892 2
892 559 2
893 365 2
301 894 2
895 896 2
895 897 2
896 897 2
898 899 2
900 526 2
900 723 2
900 901 2
900 902 2
900 903 2
526 901 2
526 902 2
526 903 2
723 901 2
723 902 2
723 903 2
901 902 2
901 903 2
902 903 2
503 904 2
503 905 2
503 906 2
904 905 2
904 906 2
905 906 2
907 908 2
907 437 2
908 437 2
909 385 2
910 422 4
910 911 2
910 665 2
910 912 2
422 911 2
422 665 2
422 912 2
911 665 2
911 912 2
665 912 2
459 717 2
459 913 2
866 717 2
866 913 2
717 913 2
464 914 2
464 915 4
819 914 2
819 915 2
914 425 2
914 915 2
914 820 2
425 915 2
915 820 2
846 916 2
916 365 2
917 918 2
917 792 2
917 527 2
917 611 2
918 792 2
918 527 2
918 611 2
792 527 2
527 611 4
383 619 2
383 919 4
383 466 2
383 639 2
383 467 2
619 919 2
619 466 2
919 466 2
919 639 2
919 467 2
466 639 2
639 467 2
749 609 2
597 609 2
815 920 2
815 921 2
815 555 2
815 721 2
920 921 2
920 555 2
920 226 2
920 721 2
921 555 2
921 226 2
921 721 2
555 226 2
555 721 2
922 611 4
922 923 2
611 923 2
771 611 6
771 530 2
611 530 4
463 924 4
463 925 6
463 926 4
463 927 8
463 928 4
463 929 2
463 441 2
924 925 4
924 926 4
924 927 4
924 928 4
924 929 2
924 441 2
925 926 4
925 927 4
925 928 4
925 929 2
925 441 2
926 927 4
926 928 4
926 929 2
926 441 2
927 928 4
927 929 2
927 441 2
928 929 2
928 441 2
929 441 2
526 930 2
526 931 2
526 932 2
930 931 2
930 932 2
930 440 2
931 932 2
931 440 2
932 440 2
624 933 4
624 849 2
624 934 2
624 935 2
624 569 4
624 443 2
933 849 2
933 934 2
933 935 2
933 569 6
933 443 2
849 934 2
849 935 2
849 569 2
849 443 2
934 935 2
934 569 2
934 443 2
935 569 2
935 443 2
569 443 2
478 936 2
478 387 2
478 937 2
478 938 2
478 939 2
478 940 2
478 941 2
478 942 2
936 387 2
936 937 2
936 938 2
936 939 2
936 940 2
936 941 2
936 942 2
387 937 2
387 938 2
387 939 2
387 940 2
387 941 2
387 942 2
937 938 2
937 939 2
937 940 2
937 941 2
937 942 2
938 939 2
938 940 2
938 941 2
938 942 2
939 940 2
939 941 2
939 942 2
940 941 2
940 942 2
941 942 2
943 944 2
875 945 6
945 673 10
549 611 2
611 394 2
946 947 2
852 569 6
948 404 2
949 950 2
951 480 2
952 953 2
952 954 2
953 954 2
541 955 2
541 956 2
955 956 2
957 958 2
957 959 2
958 959 2
960 961 2
960 899 2
961 899 2
962 963 2
962 964 2
962 965 2
962 772 2
963 964 2
963 965 2
963 772 2
964 965 2
964 772 2
965 772 2
771 966 2
966 611 2
967 968 2
967 969 2
968 969 2
970 971 2
970 972 2
970 442 2
971 972 6
971 442 2
972 442 2
973 682 4
974 975 2
974 536 4
974 976 2
975 536 2
975 976 2
536 976 2
977 978 2
977 979 2
978 979 2
980 551 2
981 365 2
982 983 2
982 984 2
983 984 2
985 986 2
985 987 2
986 987 2
988 989 2
575 990 2
575 803 2
990 803 2
991 992 2
991 910 2
991 463 2
991 809 2
991 810 2
991 422 2
991 555 2
991 496 2
992 910 2
992 463 2
992 809 2
992 810 2
992 422 2
992 555 2
992 496 2
910 463 2
910 809 2
910 810 2
910 555 2
910 496 2
463 809 2
463 810 2
463 422 2
463 555 2
463 496 2
809 422 2
809 555 2
810 422 2
810 555 2
422 555 2
422 496 2
993 994 2
995 876 2
996 997 2
996 998 2
996 999 2
996 1000 2
997 998 2
997 999 2
997 1000 2
998 999 2
998 1000 2
999 1000 2
1001 1002 2
1001 496 4
1002 496 2
875 1003 2
1004 1005 2
1004 535 2
1005 535 2
1006 169 2
875 1007 4
875 1008 2
875 1009 4
945 1007 4
945 1008 2
945 1009 2
673 1007 8
673 1008 8
673 1009 4
1007 1008 6
1007 1009 2
1008 1009 2
963 460 2
625 1010 2
933 1011 2
1011 624 2
1011 569 2
569 1012 6
569 1013 8
933 1012 2
933 1013 2
1012 1013 4
1014 1015 2
1016 1017 2
1016 1018 2
1016 1019 2
1016 459 2
1017 1018 2
1017 1019 2
1017 459 2
1018 1019 2
1018 459 2
1019 459 2
631 1020 6
1021 313 2
1022 1023 2
1022 1024 2
1022 1025 2
1022 1026 2
1022 1027 2
1023 1024 2
1023 1025 2
1023 1026 2
1023 1027 2
1024 1025 2
1024 1026 2
1024 1027 2
1025 1026 2
1025 1027 2
1026 1027 2
924 459 2
1028 682 2
1029 1030 4
1029 1031 2
1030 1031 2
1032 661 2
371 1033 2
1034 1035 2
1034 1036 2
1034 1037 2
1034 1038 2
1035 1036 2
1035 1037 2
1035 1038 2
1036 1037 2
1036 1038 2
1037 1038 2
544 1039 2
544 1040 2
544 1041 2
1039 1040 2
1039 1041 2
1040 1041 2
1042 345 2
1042 1043 2
1042 373 2
1042 1044 2
345 1043 2
345 373 2
345 1044 2
1043 373 2
1043 1044 2
373 1044 2
790 1045 2
560 1046 2
609 1047 2
609 1048 2
609 547 2
609 1049 2
1047 1048 2
1047 547 2
1047 1049 2
1048 547 2
1048 1049 2
547 1049 2
1050 1051 2
1050 1052 2
1051 1052 2
1053 1054 2
1053 1055 2
1053 1056 2
1054 1055 2
1054 1056 2
1055 1056 2
306 1057 2
306 1058 2
306 537 2
1057 1058 2
1057 537 2
1058 537 2
1059 1060 2
1059 1061 2
1060 1061 2
1062 544 2
1063 717 4
1064 1065 2
1064 1066 2
1065 1066 2
1067 834 2
1068 867 6
1069 1070 2
793 611 2
1012 1071 2
1072 1073 2
1072 1074 2
1073 1074 2
1075 1076 2
1075 502 2
1075 1077 2
1076 502 2
1076 1077 2
502 1077 2
1078 1079 2
1078 1080 2
1078 1081 2
1079 1080 2
1079 1081 2
1080 1081 2
1082 1083 2
1082 1084 2
1082 1085 2
1082 464 2
1082 500 2
1083 1084 2
1083 1085 4
1083 464 2
1083 500 2
1084 1085 2
1084 464 2
1084 500 2
1085 464 4
1085 500 2
464 500 4
1086 1087 2
1088 1089 2
1090 1091 2
861 1092 2
861 1093 4
1092 1093 2
1094 1095 2
1096 1097 2
1096 1098 2
1097 1098 2
1099 1100 2
1101 464 4
1101 500 2
1102 682 2
1020 790 2
1020 1103 2
790 1103 4
1104 1105 2
1104 1106 2
1104 293 2
1104 83 2
1104 1107 2
1105 1106 2
1105 293 2
1105 83 2
1105 1107 2
1106 293 2
1106 83 2
1106 1107 2
293 83 2
293 1107 2
83 1107 2
569 1108 2
1109 1103 2
1109 471 4
1103 471 2
1110 1111 2
1112 1113 2
1112 1114 2
1113 1114 2
1115 611 2
1116 1117 6
1116 1118 10
1117 1118 6
1119 463 2
1116 1120 6
1116 1121 2
1116 1122 2
1116 1123 2
1120 1121 2
1120 1122 2
1120 1123 2
1120 1117 2
1120 1118 6
1121 1122 2
1121 1123 2
1121 1117 2
1121 1118 2
1122 1123 2
1122 1117 2
1122 1118 2
1123 1117 2
1123 1118 2
1124 1125 2
365 1126 2
1127 1128 2
1127 804 2
1127 1129 2
1127 805 2
1128 804 2
1128 1129 2
1128 805 2
804 1129 2
1129 805 2
631 1130 2
631 296 10
1130 296 2
1007 1131 2
1007 1132 2
1007 1133 2
1131 1132 2
1131 673 4
1131 1133 2
1131 1008 2
1132 673 2
1132 1133 2
1132 1008 2
673 1133 2
1133 1008 2
875 1134 2
875 1135 2
875 1131 2
673 1134 2
673 1135 2
1009 1134 2
1009 1135 2
1009 1131 2
1134 1135 2
1134 1131 2
1135 1131 2
536 307 2
536 452 2
536 1136 2
536 1137 2
307 1136 2
307 974 2
307 1137 2
452 1136 2
452 974 2
452 1137 2
452 190 2
1136 974 2
1136 1137 2
1136 190 2
974 1137 2
974 190 2
1137 190 2
1020 371 6
1138 1139 2
1138 1101 2
1138 464 2
1139 1101 2
1139 464 2
1140 463 2
1141 1142 2
1143 1144 2
1143 1145 2
1144 1145 2
1146 1147 2
1148 1149 2
1148 1150 2
1148 1151 2
1149 1150 2
1149 1151 2
1150 1151 2
1152 1153 2
1152 1154 2
1152 1155 2
1152 1156 2
1152 1157 2
1152 1158 2
1152 1159 2
1152 780 2
1152 1160 2
1153 1154 2
1153 1155 2
1153 1156 2
1153 1157 2
1153 1158 2
1153 1159 2
1153 780 2
1153 1160 2
1154 1155 2
1154 1156 2
1154 1157 2
1154 1158 2
1154 1159 2
1154 780 2
1154 1160 2
1155 1156 2
1155 1157 2
1155 1158 2
1155 1159 2
1155 780 2
1155 1160 2
1156 1157 2
1156 1158 2
1156 1159 2
1156 780 2
1156 1160 2
1157 1158 2
1157 1159 2
1157 780 2
1157 1160 2
1158 1159 2
1158 780 2
1158 1160 2
1159 780 2
1159 1160 2
780 1160 2
1116 1161 4
1161 1118 4
1161 1117 2
1162 471 8
1162 1109 2
1162 1163 2
1162 1164 4
1162 815 2
471 1163 6
471 1164 12
1109 1163 2
1109 1164 2
1109 815 2
1163 1164 4
1163 815 2
1164 815 2
1165 471 2
1165 1166 2
471 1166 2
1167 861 2
1168 1169 2
927 1170 2
1170 463 2
1171 1172 2
1173 1174 6
1173 1175 4
1173 1176 4
1174 1175 4
1174 1176 6
1175 1176 4
1177 1178 2
1177 1179 2
1177 1180 2
1177 503 6
1178 1179 2
1178 1180 2
1178 503 2
1179 1180 2
1179 503 2
1180 503 2
1181 1182 2
1181 201 2
1181 368 2
1182 201 2
1182 368 2
1183 1184 2
1185 1186 6
1187 1188 2
1189 1190 2
1189 1191 2
1189 1192 2
1190 1191 2
1190 1192 2
1191 1192 2
1193 1194 2
1193 1195 2
1194 1195 2
569 975 2
1196 422 2
1197 631 4
1197 296 4
631 371 4
1198 460 2
804 1199 2
803 1199 2
1199 805 2
875 1200 2
945 1200 2
673 1200 2
1200 1007 2
1201 294 2
629 1202 2
629 1203 2
629 1204 2
629 1205 2
629 941 2
1202 1203 2
1202 1204 2
1202 1205 2
1202 941 6
1203 1204 2
1203 1205 2
1203 941 2
1204 1205 2
1204 941 2
1205 941 2
1206 1207 2
1000 394 8
1208 453 2
1209 1210 2
1211 1212 2
1211 1213 2
1212 1213 2
386 1071 2
386 1214 2
386 1215 2
386 888 2
386 1216 2
1071 1214 2
1071 1215 2
1071 888 2
1071 1216 2
1071 461 2
1214 1215 2
1214 888 2
1214 1216 2
1214 461 2
1215 888 2
1215 1216 2
1215 461 2
888 1216 2
888 461 2
1216 461 2
1217 1185 2
1217 1218 2
1185 1218 2
1139 1219 2
1139 422 4
1219 422 2
1173 1021 4
1021 1174 6
1021 1175 2
1021 1176 4
790 1220 2
1221 1222 2
1221 365 2
1222 365 2
681 1223 4
681 1224 2
1223 1224 2
1225 1012 2
1225 1013 2
1226 1227 2
1228 1229 2
1228 1230 4
1229 1230 2
1231 947 2
1232 1233 6
1234 1235 2
1234 1236 4
1234 500 4
1235 1236 6
1235 500 8
1236 500 8
1237 1238 2
1237 1239 2
1237 1240 2
1238 1239 2
1238 1240 2
1239 1240 2
1241 631 4
1241 296 4
1242 1243 2
1244 1245 2
1244 767 2
1245 767 2
1246 1247 4
1246 509 4
1246 1248 4
1247 509 4
1247 1248 4
509 1248 4
1174 1012 2
1174 1249 2
1012 1173 2
1012 1021 2
1012 1249 2
1173 1249 2
1021 1249 2
1250 1123 2
1251 1252 2
1251 1253 2
1252 1253 2
1254 832 2
716 793 4
1255 1256 2
1255 365 2
1255 1257 2
1256 365 2
1256 1257 2
365 1257 2
1258 934 2
1259 1260 2
1259 1261 2
1259 1262 2
1259 1258 2
1260 1261 2
1260 1262 4
1260 1258 2
1261 1262 2
1261 1258 2
1262 1258 2
1231 1259 2
1263 1264 2
1265 1259 2
1266 715 2
1266 569 2
1267 1268 2
1269 1270 2
1269 1271 2
1270 1271 2
1008 612 8
1272 1273 2
585 1274 2
585 1275 6
1274 1275 2
1276 828 2
1276 101 2
1277 1236 2
1278 1279 2
1280 1281 4
1118 1282 4
1120 1161 2
1120 1282 4
1116 1282 4
1161 1282 2
1283 1284 2
1285 815 2
1285 386 2
1285 1286 2
815 386 2
815 1286 2
386 1286 2
1124 1287 2
1288 919 2
1288 383 2
1288 1289 2
1288 1290 2
1288 1291 2
1288 1292 2
1288 1293 2
1288 1294 2
919 1289 2
919 1290 2
919 1291 2
919 1292 2
919 1293 2
919 1294 2
383 1289 2
383 1290 2
383 1291 2
383 1292 2
383 1293 2
383 1294 2
1289 1290 2
1289 1291 2
1289 1292 2
1289 1293 2
1289 1294 2
1290 1291 2
1290 1292 2
1290 1293 2
1290 1294 2
1291 1292 2
1291 1293 2
1291 1294 2
1292 1293 2
1292 1294 2
1293 1294 2
1295 1296 2
1295 569 4
1296 569 2
1297 1298 2
1297 1299 2
1297 1300 2
1297 1301 2
1298 1299 2
1298 1300 2
1298 1301 2
1299 1300 2
1299 1301 2
1300 1301 2
1301 1302 2
1116 1303 2
1303 1120 2
1303 1118 2
1303 1282 2
924 1304 2
924 464 2
1304 464 2
1305 1306 2
1305 1307 2
1306 1307 2
1126 1308 2
1126 1309 2
1308 1309 2
1310 1311 2
1310 971 2
1310 972 2
1311 971 2
1311 972 2
460 1312 4
460 1313 2
1312 1313 2
1314 828 2
1314 101 2
1315 1316 2
1315 1317 2
1315 1318 2
1315 508 2
1315 425 6
1316 1317 2
1316 1318 2
1316 508 2
1316 425 2
1317 1318 2
1317 508 2
1317 425 2
1318 508 2
1318 425 2
508 425 2
569 1319 2
569 1320 2
1319 1013 2
1319 1320 2
1013 1320 2
974 1321 2
1322 1323 2
1324 1325 4
1324 742 4
1324 793 4
1325 742 4
1325 793 4
742 793 8
511 1326 2
511 1327 2
511 1328 2
1326 1327 2
1326 1328 2
1327 1328 2
1329 1330 2
1329 1331 2
1329 1332 2
1329 1333 2
1329 1334 2
1329 1335 2
1329 1336 2
1329 597 2
1329 600 2
1330 1331 2
1330 1332 2
1330 1333 2
1330 1334 2
1330 1335 2
1330 1336 2
1330 597 2
1330 600 2
1331 1332 2
1331 1333 2
1331 1334 2
1331 1335 2
1331 1336 2
1331 597 2
1331 600 2
1332 1333 2
1332 1334 2
1332 1335 2
1332 1336 2
1332 597 2
1332 600 2
1333 1334 2
1333 1335 2
1333 1336 2
1333 597 2
1333 600 2
1334 1335 2
1334 1336 2
1334 597 2
1334 600 2
1335 1336 2
1335 597 2
1335 600 2
1336 597 2
1336 600 2
1337 1338 2
1337 1339 2
1337 1340 2
1337 1341 2
1337 1342 2
1338 1339 2
1338 1340 2
1338 1341 2
1338 1342 2
1339 1340 2
1339 1341 2
1339 1342 2
1340 1341 2
1340 1342 2
1341 1342 2
1343 1344 2
1343 775 2
1343 445 2
1343 218 2
1343 773 2
1344 775 2
1344 445 2
1344 218 2
1344 773 2
1345 1346 8
1345 771 12
1345 773 2
1346 771 8
1346 773 2
771 773 2
1347 1348 2
1347 1349 2
1347 1350 2
1347 1351 2
1348 1349 2
1348 1350 2
1348 1351 2
1349 1350 2
1349 1351 2
1350 1351 2
1352 786 2
1352 1353 2
1352 1354 2
1352 1355 2
786 1353 2
786 1354 2
786 1355 2
1353 1354 2
1353 1355 2
1354 1355 2
1356 1357 2
1356 1358 2
1356 1359 2
1356 500 2
1356 1360 2
1357 1358 2
1357 1359 2
1357 500 2
1357 1360 2
1358 1359 2
1358 500 2
1358 1360 2
1359 500 2
1359 1360 2
500 1360 2
782 1361 2
782 1362 4
782 539 4
1361 1362 2
1361 539 2
1362 539 4
1363 769 2
1363 1086 2
1363 1228 2
769 1086 2
769 1228 2
1086 1228 2
1364 741 2
1364 599 2
1364 736 6
741 599 2
599 736 2
1365 1366 2
1365 1367 2
1366 1367 2
1368 1369 2
1368 1370 2
1369 1370 2
446 1371 2
446 1372 2
446 1373 2
446 788 2
446 1374 2
446 626 2
1371 1372 2
1371 1373 2
1371 788 2
1371 1374 2
1371 626 2
1372 1373 2
1372 788 2
1372 1374 2
1372 626 2
1373 788 2
1373 1374 2
1373 626 2
788 1374 2
1374 626 2
1375 1376 2
1375 1377 2
1375 1378 2
1375 1379 2
1375 445 2
1376 1377 2
1376 1378 2
1376 1379 2
1376 445 2
1377 1378 2
1377 1379 2
1377 445 2
1378 1379 2
1378 445 2
1379 445 2
1380 1381 2
1380 1382 2
1381 1382 2
508 1383 2
508 1384 2
508 1385 2
508 1386 2
508 1387 2
508 1388 2
508 1389 2
508 1390 2
508 1391 2
508 1392 2
1383 1384 2
1383 1385 2
1383 1386 2
1383 1387 2
1383 1388 2
1383 1389 2
1383 1390 2
1383 1391 2
1383 1392 2
1384 1385 2
1384 1386 2
1384 1387 2
1384 1388 2
1384 1389 2
1384 1390 2
1384 1391 2
1384 1392 2
1385 1386 2
1385 1387 2
1385 1388 2
1385 1389 2
1385 1390 2
1385 1391 2
1385 1392 2
1386 1387 2
1386 1388 2
1386 1389 2
1386 1390 2
1386 1391 2
1386 1392 2
1387 1388 2
1387 1389 2
1387 1390 2
1387 1391 2
1387 1392 2
1388 1389 2
1388 1390 2
1388 1391 2
1388 1392 2
1389 1390 2
1389 1391 2
1389 1392 2
1390 1391 2
1390 1392 2
1391 1392 2
1393 1394 2
1395 1396 2
1395 1397 2
1395 1398 2
1396 1397 2
1396 1398 2
1397 1398 2
1399 1400 2
1399 1401 2
1399 595 2
1400 1401 2
1400 595 2
1401 595 2
1402 1403 2
1404 441 2
1404 226 2
441 226 2
1405 1406 2
1405 1407 2
1406 1407 2
1408 1409 2
1408 1410 2
1409 1410 2
771 1411 6
1346 1411 6
1345 1411 6
1412 1413 2
1412 937 2
1412 1414 2
1412 1415 2
1413 937 2
1413 1414 2
1413 1415 2
937 1414 2
937 1415 2
1414 1415 2
1416 575 2
1417 1418 2
1417 1004 2
1417 1419 2
1418 1004 2
1418 1419 2
1004 1419 2
1420 1421 2
1420 1422 2
1421 1422 2
767 1423 2
767 1424 2
767 1425 2
767 1426 2
1423 1424 2
1423 1425 2
1423 1426 2
1424 1425 2
1424 1426 2
1425 1426 2
1427 1428 2
1427 793 2
1427 742 2
1427 1429 2
1428 793 2
1428 742 2
1428 1429 2
793 1429 2
742 1429 2
1430 1431 2
1432 1246 2
1432 1433 2
1432 1247 2
1432 509 2
1432 1248 2
1432 1434 2
1246 1433 2
1246 1434 2
1433 1247 2
1433 509 2
1433 1248 2
1433 1434 2
1247 1434 2
509 1434 2
1248 1434 2
1435 1237 2
1435 1436 2
1237 1436 2
1272 1437 2
1438 1439 2
1438 1440 2
1438 1441 2
1438 793 2
1439 1440 2
1439 1441 2
1439 793 2
1440 1441 2
1440 793 2
1441 793 4
1442 611 2
1442 934 2
611 934 4
1443 527 2
1443 922 2
1443 611 2
1443 530 2
527 922 2
922 530 2
1444 1445 2
1444 395 2
1444 972 2
1444 971 6
1445 395 2
1445 972 2
1445 971 2
395 972 2
395 971 2
1446 1447 2
1446 1448 2
1446 820 2
1446 496 2
1446 1449 2
1446 464 2
1447 1448 2
1447 820 2
1447 496 2
1447 1449 2
1447 464 2
1448 820 2
1448 496 2
1448 1449 2
1448 464 2
820 496 2
820 1449 2
496 1449 2
1449 464 2
1162 1085 4
471 1085 10
1281 1450 2
1450 1280 2
1451 1085 4
1234 1452 2
1236 1452 2
1452 500 2
612 673 4
1453 1454 2
1453 1455 2
1453 673 2
1453 1456 2
1454 1455 2
1454 673 2
1454 1456 2
1455 673 8
1455 1456 2
673 1456 2
1457 1458 2
1457 1459 2
1458 1459 2
1460 1461 2
1462 1463 2
915 1464 2
1464 464 2
681 948 4
569 793 2
569 1441 2
569 1465 4
793 1013 2
793 1465 2
716 1013 2
716 1441 2
716 1465 2
1013 1441 2
1013 1465 2
1441 1465 2
1466 1467 4
1466 1468 2
1467 1468 2
1469 1470 4
1469 1471 4
1470 1471 6
1472 1473 2
1472 1474 2
1472 1475 2
1473 1474 2
1473 1475 2
1474 1475 2
829 1476 2
1477 1478 2
1479 569 2
1008 1455 2
1007 1455 2
1007 612 2
1455 612 2
1021 1480 2
1174 1480 2
1176 1480 2
1481 1482 2
1481 1270 2
1482 1270 2
1483 1484 2
1483 1485 2
1484 1485 2
1486 1139 2
1486 793 2
1486 422 2
1139 793 2
793 422 2
1241 1487 2
1487 631 2
1487 296 2
1488 545 2
1489 1490 2
1489 1491 2
1489 1492 2
1490 1491 2
1490 1492 2
1491 1492 2
1493 1494 2
1495 1496 2
1495 1497 2
1495 1498 2
1495 1499 2
1495 1500 2
1495 1501 2
1495 1502 2
1495 1503 2
1496 1497 2
1496 1498 2
1496 1499 2
1496 1500 2
1496 1501 2
1496 1502 2
1496 1503 2
1497 1498 2
1497 1499 2
1497 1500 2
1497 1501 2
1497 1502 2
1497 1503 2
1498 1499 2
1498 1500 2
1498 1501 2
1498 1502 2
1498 1503 2
1499 1500 2
1499 1501 2
1499 1502 2
1499 1503 2
1500 1501 2
1500 1502 2
1500 1503 2
1501 1502 2
1501 1503 2
1502 1503 2
1504 1505 2
1258 1506 2
1507 1506 2
1508 1509 2
1510 1511 2
1510 1512 2
1510 1513 2
1510 1514 2
1510 1515 2
1510 1516 2
1510 987 2
1511 1512 2
1511 1513 2
1511 1514 2
1511 1515 2
1511 1516 2
1511 987 2
1512 1513 2
1512 1514 2
1512 1515 2
1512 1516 2
1512 987 2
1513 1514 2
1513 1515 2
1513 1516 2
1513 987 2
1514 1515 2
1514 1516 2
1514 987 2
1515 1516 2
1515 987 2
1516 987 2
1517 1518 2
1469 1519 2
1470 1519 2
1519 1471 2
1262 1520 2
1521 1522 2
1521 1523 2
1522 1523 2
1506 1524 2
1525 1526 2
1525 1527 2
1525 1528 2
1526 1527 2
1526 1528 2
1527 1528 2
1529 1000 4
1529 394 4
1530 1531 10
771 1532 2
1532 1411 2
1532 1345 2
1532 1346 2
1345 1533 2
1533 1346 2
1533 1411 2
1533 771 2
1534 1474 6
471 1535 2
471 1536 2
1162 1535 2
1162 1536 2
1535 1085 2
1535 1536 2
1085 1536 2
1537 631 6
1444 611 4
1444 856 4
971 611 6
971 856 4
611 856 6
829 1538 2
829 1539 2
829 532 2
829 1540 2
829 1541 2
1538 1539 2
1538 532 2
1538 1540 2
1538 1541 2
1539 532 2
1539 1540 2
1539 1541 2
532 1540 2
532 1541 2
1540 1541 2
1542 1543 2
1542 527 2
1543 527 2
1544 1545 6
1544 934 2
1545 934 2
1546 631 10
1547 611 2
1547 1548 2
1547 856 2
1547 1549 2
611 1548 2
611 1549 2
1548 856 2
1548 1549 2
856 1549 2
1550 1312 2
1550 460 2
1550 1551 2
1312 1551 2
460 1551 2
1552 1553 2
1554 1555 2
1554 1556 2
1554 1557 2
1555 1556 2
1555 1557 2
1556 1557 2
704 1553 2
1558 1559 2
1558 1560 2
1558 812 2
1559 1560 2
1559 812 2
1560 812 2
1561 1562 2
1561 681 2
1561 1563 2
1561 1564 2
1562 681 2
1562 1563 2
1562 1564 2
681 1563 2
681 1564 2
1563 1564 2
1565 1279 2
1566 1567 2
1568 1569 2
1570 1571 2
1572 1573 2
1574 1575 2
1576 1577 2
1578 1579 2
1580 1581 2
1580 1582 2
1581 1582 2
1001 1583 2
1583 496 2
1584 1274 2
1584 725 2
1274 725 2
1225 1174 2
1225 1585 2
1225 1465 2
1174 1585 2
1174 1465 2
1585 1465 2
1586 1122 2
1587 1549 2
1587 1588 2
1549 1588 2
1589 1590 2
1589 1591 2
1589 1592 2
1589 1073 2
1590 1591 2
1590 1592 2
1590 1073 2
1591 1592 2
1591 1073 2
1592 1073 2
1593 1594 2
1593 1595 2
1593 1596 2
1594 1595 2
1594 1596 2
1595 1596 2
1597 948 4
1597 1598 2
948 1598 2
1599 1600 2
1599 1601 2
1599 1473 2
1600 1601 2
1600 1473 2
1601 1473 2
612 771 2
771 1008 2
681 1602 2
1602 1223 2
1602 948 2
1223 948 2
1603 1604 2
1270 1422 2
1605 963 2
948 1606 2
948 1607 2
1606 1607 2
1465 153 2
153 569 2
1608 585 2
1545 856 6
1609 1610 4
1199 1611 2
1199 1612 2
1611 1612 2
1613 1614 2
1615 1616 2
1617 1618 2
1139 1619 2
1139 1620 2
1619 1620 2
1621 1622 2
1621 1623 2
1621 1624 2
1622 1623 2
1622 1624 2
1623 1624 2
1625 1626 2
1627 1628 2
1627 1002 2
1628 1002 2
1629 1630 2
459 1631 2
459 1632 2
459 1633 2
459 1634 2
459 1635 2
1631 1632 2
1631 1633 2
1631 1634 2
1631 1635 2
1632 1633 2
1632 1634 2
1632 1635 2
1633 1634 2
1633 1635 2
1634 1635 2
1275 1636 2
1636 585 2
1637 1638 4
1637 1639 2
1638 1639 2
1542 971 2
1542 611 2
1640 1641 2
1640 365 2
1641 365 2
1642 1643 2
1644 974 2
1644 619 2
974 619 2
1645 1646 2
1645 867 2
1646 867 2
1647 1648 2
1649 673 6
1650 1277 2
1280 1126 2
1651 1652 2
1651 1234 2
1652 1234 2
1653 1654 2
1655 1656 2
1655 1657 2
1656 1657 2
1658 815 2
1658 1659 2
1658 1660 2
815 1659 2
815 1660 2
1659 1660 2
1288 1661 2
1662 307 6
1662 1000 4
1662 1663 4
1662 1664 4
1662 1665 6
1662 1272 6
1662 1464 4
1662 619 6
1662 1666 4
307 1000 4
307 1663 4
307 1664 4
307 1665 6
307 1272 6
307 1464 4
307 619 6
307 1666 4
1000 1663 4
1000 1664 4
1000 1665 4
1000 1272 4
1000 1464 4
1000 619 4
1000 1666 4
1663 1664 4
1663 1665 4
1663 1272 4
1663 1464 4
1663 619 4
1663 1666 4
1664 1665 4
1664 1272 4
1664 1464 4
1664 619 4
1664 1666 4
1665 1272 6
1665 1464 4
1665 619 6
1665 1666 4
1272 1464 4
1272 619 6
1272 1666 4
1464 619 4
1464 1666 4
619 1666 4
1140 1667 4
1140 1155 4
1140 1668 4
1667 1155 4
1667 1668 4
1155 1668 4
1544 856 4
1544 1669 4
856 1669 4
1669 1545 4
1670 1671 4
1670 460 4
1671 460 4
1672 496 4
1673 1674 4
1673 1345 4
1673 771 4
1673 1675 4
1674 1345 4
1674 771 4
1674 1675 4
1345 1675 4
771 1675 4
1676 1537 4
1676 631 4
1676 454 4
1537 454 4
631 454 4
1677 1678 4
1677 1639 4
1678 1639 4
1679 1680 4
1679 1452 4
1679 1681 4
1680 1452 4
1680 1681 4
1452 1681 4
1682 1683 4
1682 1540 4
1683 1540 4
1202 1684 4
1202 1685 4
1202 1686 4
1684 1685 4
1684 1686 4
1684 941 4
1685 1686 4
1685 941 4
1686 941 4
1687 1688 4
1687 1234 4
1688 1234 4
1689 1690 6
1689 1691 4
1689 1692 4
1689 1280 6
1690 1691 4
1690 1692 4
1690 1280 8
1691 1692 4
1691 1280 4
1692 1280 4
1693 1694 4
1693 1695 4
1693 1696 4
1694 1695 4
1694 1696 4
1695 1696 4
1697 1419 4
1697 1698 4
1419 1698 4
1699 673 4
1699 1455 4
1699 1649 4
1699 1700 4
1699 1701 4
1699 945 4
1699 1702 4
1699 1703 4
673 1700 4
673 1701 4
673 1702 4
673 1703 4
1455 1649 4
1455 1700 4
1455 1701 4
1455 945 4
1455 1702 4
1455 1703 4
1649 1700 4
1649 1701 4
1649 945 4
1649 1702 4
1649 1703 4
1700 1701 4
1700 945 4
1700 1702 4
1700 1703 4
1701 945 4
1701 1702 4
1701 1703 4
945 1702 4
945 1703 4
1702 1703 4
1085 1164 4
1085 1704 4
1085 1705 4
1085 1706 6
1085 928 4
1164 1704 4
1164 1705 4
1164 1706 4
1164 928 4
1704 1705 4
1704 1706 4
1704 471 4
1704 928 4
1705 1706 4
1705 471 4
1705 928 4
1706 471 4
1706 928 4
471 928 4
1707 1708 4
1707 1126 6
1708 1126 4
1000 631 6
1000 1709 4
1000 1546 6
1000 1661 4
631 1709 4
631 1661 4
1709 1546 4
1709 1661 4
1546 1661 4
1710 1711 6
1710 1712 6
1710 1234 6
1710 226 6
1711 1712 6
1711 1234 6
1711 226 6
1712 1234 6
1712 226 6
1234 226 6
1713 1714 4
1713 819 6
1714 819 4
1715 1197 4
1715 460 4
1197 460 4
1716 1717 4
1716 1718 4
1716 948 4
1717 1718 4
1717 948 4
1718 948 4
1719 1720 4
1719 1721 4
1719 235 4
1719 404 4
1719 526 4
1720 1721 4
1720 235 4
1720 404 4
1720 526 4
1721 235 6
1721 404 4
1721 526 6
235 404 4
235 526 6
404 526 4
500 631 2
1722 941 2
1723 1724 2
1723 1530 4
1723 1531 4
1724 1530 2
1724 1531 2
1597 1725 2
1597 1726 2
948 1725 2
948 1726 2
1725 1726 2
1727 1728 2
1729 1730 2
1729 1731 2
1730 1731 2
1732 1733 2
1734 1735 2
1736 1737 2
1736 442 2
1737 442 2
1738 459 2
1739 1740 2
1739 805 2
1740 805 2
1741 1742 2
1741 1743 2
1741 1415 2
1742 1743 2
1742 1415 2
1743 1415 2
1662 1744 2
1662 1745 2
1744 1745 2
1746 1534 4
1746 1474 4
598 1747 2
1748 1085 2
1749 1530 4
1749 1531 4
1750 1236 2
1750 1751 2
1750 1752 2
1750 1235 2
1750 1753 2
1750 1754 2
1750 500 2
1236 1751 2
1236 1752 2
1236 1753 2
1236 1754 2
1751 1752 2
1751 1235 2
1751 1753 2
1751 1754 2
1751 500 2
1752 1235 2
1752 1753 2
1752 1754 2
1752 500 2
1235 1753 2
1235 1754 2
1753 1754 2
1753 500 2
1754 500 2
1755 1756 2
1755 1757 2
1755 569 2
1755 471 2
1755 1163 2
1755 1758 2
1755 1759 2
1755 1174 2
1756 1757 2
1756 569 2
1756 471 2
1756 1163 2
1756 1758 2
1756 1759 2
1756 1174 2
1757 569 2
1757 471 2
1757 1163 2
1757 1758 2
1757 1759 2
1757 1174 2
569 471 2
569 1163 2
569 1758 2
569 1759 2
569 1174 2
471 1758 2
471 1759 2
471 1174 2
1163 1758 2
1163 1759 2
1163 1174 2
1758 1759 2
1758 1174 2
1759 1174 2
1760 1085 4
1760 1761 2
1760 1762 2
1085 1761 2
1085 1762 2
1761 1762 2
1637 1763 2
1637 1764 2
1763 1764 2
1763 1638 2
1764 1638 2
1765 1766 2
1765 1767 2
1765 1768 2
1765 1769 2
1765 1770 2
1766 1767 2
1766 1768 2
1766 1769 2
1766 1770 2
1767 1768 2
1767 1769 2
1767 1770 2
1768 1769 2
1768 1770 2
1769 1770 2
1771 828 2
1771 101 2
1771 847 2
1772 1773 2
1774 1775 2
1552 1776 2
1732 1777 2
1506 1279 2
1778 1779 2
1780 1781 2
1782 1783 2
1782 585 2
1783 585 2
1784 1576 2
1784 1262 2
1576 1262 2
1785 681 2
1786 1787 2
1788 1552 2
1789 1790 2
1791 1792 2
1791 1793 2
1791 1794 2
1791 1795 2
1791 1796 2
1792 1793 2
1792 1794 2
1792 1795 2
1792 1796 2
1793 1794 2
1793 1795 2
1793 1796 2
1794 1795 2
1794 1796 2
1795 1796 2
1797 1798 2
148 1799 2
148 1800 2
1799 1800 2
1801 1802 2
1803 1231 2
1803 790 2
1803 1103 2
1803 1198 2
1803 1804 2
1231 790 2
1231 1103 2
1231 1198 2
1231 1804 2
790 1198 2
790 1804 2
1103 1198 2
1103 1804 2
1198 1804 2
1805 1687 2
1805 1172 2
1805 673 2
1805 1806 2
1687 1172 2
1687 673 2
1687 1806 2
1172 673 2
1172 1806 2
673 1806 2
1807 1808 2
1807 1809 2
1807 1810 2
1807 1811 2
1808 1809 2
1808 1810 2
1808 1811 2
1809 1810 2
1809 1811 2
1810 1811 2
549 1812 2
549 1813 2
1812 1813 2
1814 1508 2
1814 1815 2
1814 565 2
1814 1816 2
1814 1817 2
1508 1815 2
1508 565 2
1508 1816 2
1508 1817 2
1815 565 2
1815 1816 2
1815 1817 2
565 1816 2
565 1817 2
1816 1817 2
1818 1819 2
1818 934 2
1818 611 2
1819 934 2
1819 611 2
1820 371 2
1820 1821 2
1820 1822 2
1820 1544 2
371 1821 2
371 1822 2
371 1544 2
1821 1822 2
1821 1544 2
1822 1544 2
1530 1823 2
1530 1824 2
1530 1825 2
1530 1826 2
1531 1823 2
1531 1824 2
1531 1825 2
1531 1826 2
1723 1749 2
1723 1823 2
1723 1824 2
1723 1825 2
1723 1826 2
1749 1823 2
1749 1824 2
1749 1825 2
1749 1826 2
1823 1824 2
1823 1825 2
1823 1826 2
1824 1825 2
1824 1826 2
1825 1826 2
1827 1828 2
1827 1172 2
1827 464 2
1828 1172 2
1828 464 2
1172 464 2
1760 471 2
1760 1083 2
1760 1829 2
471 1083 2
471 1829 2
1083 1829 2
1829 1085 2
1830 1831 2
1832 1833 2
1832 1834 2
1832 1835 2
1832 1836 2
1832 1837 2
1832 1642 2
1832 1298 2
1832 1838 2
1833 1834 2
1833 1835 2
1833 1836 2
1833 1837 2
1833 1642 2
1833 1298 2
1833 1838 2
1834 1835 2
1834 1836 2
1834 1837 2
1834 1642 2
1834 1298 2
1834 1838 2
1835 1836 2
1835 1837 2
1835 1642 2
1835 1298 2
1835 1838 2
1836 1837 2
1836 1642 2
1836 1298 2
1836 1838 2
1837 1642 2
1837 1298 2
1837 1838 2
1642 1298 2
1642 1838 2
1298 1838 2
1839 721 2
1839 445 2
721 445 2
1840 1721 2
1840 235 2
1840 526 2
1840 1378 2
1721 1378 2
235 1378 2
526 1378 2
1841 463 2
1841 226 2
771 1842 2
1843 1844 2
1843 1713 2
1843 1845 2
1843 819 2
1844 1713 2
1844 1845 2
1844 819 2
1713 1845 2
1845 819 2
1846 1847 2
1846 1848 2
1846 1014 2
1846 1236 2
1847 1848 2
1847 1014 2
1847 1236 2
1848 1014 2
1848 1236 2
1014 1236 2
1706 1849 2
1706 1850 2
1849 1850 2
1849 1085 2
1850 1085 2
1000 1851 2
1000 1852 2
1000 1853 2
631 1851 2
631 1852 2
631 1853 2
1851 1852 2
1851 1546 2
1851 1853 2
1852 1546 2
1852 1853 2
1546 1853 2
1711 374 2
1712 374 2
1710 374 2
1234 374 2
226 374 2
1854 1855 2
1854 381 2
1854 611 2
1855 381 2
1855 611 2
381 611 2
1856 1857 2
1856 151 2
1856 446 2
1856 1858 2
1857 151 2
1857 446 2
1857 1858 2
151 446 2
151 1858 2
446 1858 2
1362 1085 2
539 1085 2
782 1085 2
1179 1859 2
1179 1860 2
1859 1860 2
1861 585 2
1242 1862 2
1863 1864 2
1863 1865 2
1864 1865 2
1552 1866 2
1552 1867 2
1552 1868 2
1866 1867 2
1866 1868 2
1867 1868 2
1869 1870 2
1871 1872 2
1873 569 2
