*Vertices 120
1 "522544"
2 "36964"
3 "672775"
4 "419116"
5 "928452"
6 "1552647"
7 "666581"
8 "639652"
9 "600521"
10 "1411758"
11 "36331"
12 "1687661"
13 "1353272"
14 "824902"
15 "55451"
16 "1708537"
17 "961841"
18 "1169101"
19 "798659"
20 "442587"
21 "575030"
22 "1628129"
23 "96022"
24 "611000"
25 "757999"
26 "241400"
27 "279689"
28 "463530"
29 "1255601"
30 "801048"
31 "280465"
32 "1466586"
33 "414215"
34 "1161073"
35 "589788"
36 "106572"
37 "1520037"
38 "30838"
39 "697900"
40 "359016"
41 "807307"
42 "634190"
43 "1411893"
44 "1367177"
45 "807635"
46 "437975"
47 "3645"
48 "1706701"
49 "689574"
50 "161613"
51 "733554"
52 "52779"
53 "536038"
54 "1308573"
55 "1606630"
56 "770423"
57 "1465674"
58 "1118671"
59 "1278392"
60 "1298918"
61 "149795"
62 "668311"
63 "1593683"
64 "1212442"
65 "127996"
66 "477103"
67 "196846"
68 "103245"
69 "1679734"
70 "848859"
71 "611222"
72 "873924"
73 "105678"
74 "667004"
75 "1617904"
76 "123600"
77 "125702"
78 "930191"
79 "881457"
80 "868051"
81 "831909"
82 "1416282"
83 "1695421"
84 "259325"
85 "974842"
86 "976076"
87 "470119"
88 "129638"
89 "346497"
90 "255785"
91 "1669203"
92 "494348"
93 "366556"
94 "114133"
95 "852815"
96 "1455838"
97 "782254"
98 "129732"
99 "1497757"
100 "187410"
101 "1561377"
102 "1496618"
103 "734501"
104 "254666"
105 "903763"
106 "1154081"
107 "365934"
108 "904127"
109 "269780"
110 "1203792"
111 "1628273"
112 "866995"
113 "155516"
114 "804426"
115 "976243"
116 "904973"
117 "1128111"
118 "1362013"
119 "1606068"
*Edges
1 2 1
3 4 1
3 5 1
3 6 1
4 5 1
4 6 1
5 6 1
7 8 1
9 10 1
9 11 1
10 11 1
12 13 1
14 15 1
16 17 1
16 18 1
16 19 1
17 18 1
17 19 1
18 19 1
20 21 1
22 23 1
24 25 1
26 27 1
28 29 1
30 31 2
32 33 1
34 35 1
36 37 1
38 39 1
38 40 1
39 40 1
41 42 1
43 1 1
44 45 1
44 46 1
44 11 1
45 46 1
45 11 1
46 11 1
47 48 1
47 49 1
48 49 1
50 51 1
50 52 1
51 52 1
53 54 1
55 56 1
55 57 1
56 57 1
58 59 1
60 61 1
62 63 1
64 65 1
66 67 1
66 68 1
67 68 1
44 69 1
44 70 1
44 71 1
44 72 1
69 70 1
69 71 1
69 72 1
70 71 1
70 72 1
71 72 1
73 74 1
75 76 1
75 77 1
76 77 1
78 79 1
80 81 1
82 83 1
84 85 1
84 86 1
84 87 1
85 86 1
85 87 1
86 87 1
88 89 2
88 90 2
89 90 2
30 91 1
92 93 1
94 95 1
96 97 1
98 99 1
100 101 1
102 103 1
104 105 1
106 107 1
106 108 1
106 109 1
106 110 1
107 108 1
107 109 1
107 110 1
108 109 1
108 110 1
109 110 1
111 112 1
113 114 1
115 116 1
117 118 1
119 118 1
