*Vertices 12
1 "522544"
2 "36964"
3 "672775"
4 "419116"
5 "928452"
6 "1552647"
7 "666581"
8 "639652"
9 "600521"
10 "1411758"
11 "36331"
*Edges
1 2 1
3 4 1
3 5 1
3 6 1
4 5 1
4 6 1
5 6 1
7 8 1
9 10 1
9 11 1
10 11 1
