*Vertices 366
1 "73103"
2 "1516498"
3 "447365"
4 "468444"
5 "1648419"
6 "1134296"
7 "424062"
8 "435315"
9 "454535"
10 "630283"
11 "605153"
12 "631712"
13 "604306"
14 "911454"
15 "470240"
16 "940688"
17 "438327"
18 "455110"
19 "424621"
20 "606930"
21 "453276"
22 "436442"
23 "435902"
24 "617684"
25 "455042"
26 "456338"
27 "760376"
28 "704938"
29 "1578089"
30 "468438"
31 "109914"
32 "403512"
33 "1274469"
34 "1088115"
35 "1603344"
36 "443050"
37 "1141312"
38 "447574"
39 "860572"
40 "619684"
41 "456669"
42 "235640"
43 "604147"
44 "436275"
45 "1447473"
46 "631730"
47 "535859"
48 "1197295"
49 "607524"
50 "845242"
51 "604436"
52 "1321051"
53 "424435"
54 "631640"
55 "1657092"
56 "456486"
57 "384541"
58 "620061"
59 "617615"
60 "87380"
61 "45110"
62 "1468109"
63 "456465"
64 "454087"
65 "332592"
66 "812110"
67 "626650"
68 "438058"
69 "456323"
70 "436329"
71 "607009"
72 "547337"
73 "749283"
74 "1060080"
75 "876242"
76 "1562115"
77 "1048320"
78 "1296335"
79 "461677"
80 "617397"
81 "1381547"
82 "440807"
83 "436464"
84 "454107"
85 "631840"
86 "631495"
87 "1476173"
88 "630641"
89 "721316"
90 "953692"
91 "94169"
92 "768392"
93 "617642"
94 "606899"
95 "469100"
96 "616878"
97 "626215"
98 "229458"
99 "435670"
100 "605598"
101 "440203"
102 "1536957"
103 "181837"
104 "452421"
105 "423757"
106 "340470"
107 "607478"
108 "468135"
109 "438572"
110 "1154768"
111 "1265078"
112 "1142403"
113 "470905"
114 "604149"
115 "441481"
116 "440133"
117 "604666"
118 "482625"
119 "559189"
120 "470916"
121 "370958"
122 "1355527"
123 "803995"
124 "1089445"
125 "1471688"
126 "438926"
127 "1420869"
128 "436889"
129 "931752"
130 "1633970"
131 "562416"
132 "54700"
133 "1065317"
134 "622021"
135 "1702584"
136 "53674"
137 "583324"
138 "864250"
139 "631841"
140 "60040"
141 "1327647"
142 "747478"
143 "452909"
144 "320249"
145 "723084"
146 "1529818"
147 "831024"
148 "1035652"
149 "307682"
150 "535883"
151 "1687995"
152 "435662"
153 "1701144"
154 "534066"
155 "635502"
156 "93446"
157 "1247688"
158 "928509"
159 "42679"
160 "1368371"
161 "171"
162 "631958"
163 "440720"
164 "436914"
165 "1154264"
166 "452021"
167 "78677"
168 "465125"
169 "1402449"
170 "440722"
171 "880182"
172 "935865"
173 "557394"
174 "631872"
175 "617248"
176 "561776"
177 "471838"
178 "468338"
179 "454642"
180 "607057"
181 "1600320"
182 "468083"
183 "454449"
184 "62099"
185 "424091"
186 "813580"
187 "687413"
188 "823932"
189 "455318"
190 "1420873"
191 "708977"
192 "619870"
193 "702795"
194 "468469"
195 "962549"
196 "151938"
197 "1481529"
198 "883242"
199 "1182233"
200 "942544"
201 "455162"
202 "189919"
203 "424393"
204 "148685"
205 "435307"
206 "722164"
207 "504452"
208 "263234"
209 "1635698"
210 "365724"
211 "921137"
212 "1517863"
213 "74700"
214 "618987"
215 "618935"
216 "96381"
217 "457018"
218 "435910"
219 "1197730"
220 "447124"
221 "1178362"
222 "141617"
223 "457098"
224 "670720"
225 "927295"
226 "909372"
227 "1259912"
228 "934741"
229 "235223"
230 "1552062"
231 "1148448"
232 "1482825"
233 "604146"
234 "447537"
235 "452320"
236 "618407"
237 "444936"
238 "955407"
239 "435393"
240 "1250350"
241 "437442"
242 "435412"
243 "630393"
244 "457200"
245 "435252"
246 "467998"
247 "454400"
248 "1034452"
249 "1563983"
250 "1210141"
251 "550169"
252 "1431310"
253 "292355"
254 "1619896"
255 "438328"
256 "454666"
257 "1346562"
258 "1587998"
259 "360390"
260 "423949"
261 "1142890"
262 "573845"
263 "451781"
264 "423727"
265 "440833"
266 "630696"
267 "483511"
268 "471536"
269 "436888"
270 "453714"
271 "436794"
272 "447459"
273 "416852"
274 "436903"
275 "436321"
276 "631389"
277 "437979"
278 "1264596"
279 "774961"
280 "767133"
281 "356913"
282 "1334576"
283 "591278"
284 "13017"
285 "424183"
286 "454486"
287 "455237"
288 "330621"
289 "604736"
290 "441564"
291 "1444731"
292 "850715"
293 "564647"
294 "603979"
295 "804677"
296 "424384"
297 "959674"
298 "604634"
299 "424304"
300 "1631839"
301 "423635"
302 "603901"
303 "447213"
304 "617978"
305 "841504"
306 "618155"
307 "110108"
308 "424202"
309 "440556"
310 "438351"
311 "1240079"
312 "143684"
313 "441513"
314 "438439"
315 "435405"
316 "605077"
317 "471567"
318 "436877"
319 "455023"
320 "440104"
321 "1237842"
322 "470377"
323 "1236756"
324 "1357760"
325 "441790"
326 "468928"
327 "467989"
328 "273647"
329 "1138014"
330 "411199"
331 "424176"
332 "631852"
333 "436473"
334 "424094"
335 "454948"
336 "604122"
337 "457095"
338 "318538"
339 "435278"
340 "603109"
341 "440121"
342 "454880"
343 "586033"
344 "616244"
345 "616835"
346 "435692"
347 "454564"
348 "606989"
349 "437420"
350 "423766"
351 "199723"
352 "240077"
353 "452279"
354 "1327350"
355 "1663800"
356 "454597"
357 "453964"
358 "440708"
359 "447506"
360 "440651"
361 "454151"
362 "607026"
363 "435280"
364 "423526"
365 "440638"
*Edges
1 2 1
3 4 1
5 6 1
7 8 1
9 10 2
9 11 2
10 11 2
12 9 2
13 14 1
13 15 1
14 15 1
16 17 1
18 19 1
18 20 1
18 21 1
19 20 1
19 21 1
20 21 1
22 23 1
9 24 1
24 12 1
25 26 1
27 28 1
29 30 1
31 32 1
31 28 1
32 28 1
33 34 1
35 36 1
37 38 1
39 40 1
41 42 1
43 44 3
45 46 1
47 48 1
47 49 2
47 50 1
47 51 1
47 52 1
47 53 1
48 49 1
48 50 1
48 51 1
48 52 1
48 53 1
49 50 1
49 51 1
49 52 1
49 53 1
50 51 1
50 52 1
50 53 1
51 52 1
51 53 1
52 53 1
41 54 1
55 56 1
57 58 1
59 60 1
61 62 1
63 64 1
33 58 1
33 65 2
58 65 1
66 67 1
68 69 1
68 70 1
69 70 1
71 72 1
73 74 1
73 75 1
74 75 1
76 77 1
78 79 1
78 80 1
81 82 1
83 84 1
47 85 2
86 87 2
88 89 2
90 91 2
92 93 1
92 94 1
93 94 1
95 96 2
95 97 2
96 97 2
98 99 1
100 101 1
102 9 1
103 104 1
103 9 1
104 9 1
105 106 1
105 107 1
105 108 1
105 109 1
106 107 1
106 108 1
106 109 1
107 108 1
107 109 1
108 109 1
47 71 1
47 110 1
47 111 1
47 112 2
47 113 1
71 110 1
71 49 1
71 111 1
71 112 1
71 85 1
71 113 1
110 49 1
110 111 1
110 112 1
110 85 1
110 113 1
49 111 1
49 112 1
49 85 1
49 113 1
111 112 1
111 85 1
111 113 1
112 85 1
112 113 1
85 113 1
114 115 1
114 116 1
115 116 1
44 13 2
43 13 2
98 117 1
118 119 1
120 37 1
121 122 1
29 123 1
124 125 1
124 126 1
125 126 1
127 128 1
129 130 1
131 87 1
132 133 1
134 135 1
136 137 1
136 138 1
137 138 1
124 139 1
73 140 1
141 142 1
90 143 1
90 72 1
91 143 1
91 72 1
143 72 1
144 145 1
146 147 1
148 149 2
148 150 1
148 151 1
149 150 1
149 151 1
150 151 1
149 152 1
149 153 2
152 153 1
152 148 1
153 148 1
154 155 1
156 157 1
158 159 1
158 160 1
159 160 1
55 161 1
57 162 1
57 163 1
57 164 1
162 163 1
162 164 1
163 164 1
165 166 1
165 167 1
166 167 1
168 169 1
170 171 1
172 173 1
172 174 2
172 175 1
172 176 2
173 174 1
173 175 1
173 176 1
174 175 1
174 176 2
175 176 1
177 178 1
179 180 1
181 143 2
182 183 1
184 185 1
186 187 1
186 188 1
186 189 1
187 188 1
187 189 2
188 189 1
190 191 1
192 193 1
192 194 1
193 194 1
195 196 1
190 197 1
198 199 1
200 201 1
202 203 1
204 205 1
125 206 1
207 208 1
209 210 1
211 212 1
211 79 1
212 79 2
213 47 1
214 215 1
216 110 1
217 110 1
218 65 1
218 219 1
65 219 2
219 220 1
221 222 1
221 223 1
221 224 2
222 223 1
222 224 1
223 224 1
55 225 1
226 227 1
228 229 2
228 230 2
229 230 2
231 232 1
231 233 1
231 234 1
232 233 1
232 234 1
233 234 1
235 236 1
221 237 2
221 238 2
221 239 1
237 238 2
237 239 1
238 239 1
57 240 1
241 242 1
241 243 1
242 243 1
244 245 1
244 246 1
244 247 1
245 246 1
245 247 1
246 247 1
248 249 1
250 251 1
252 253 1
252 248 1
253 248 1
190 254 1
208 27 1
255 256 1
255 257 1
256 257 1
258 259 1
260 261 1
260 262 1
261 262 1
263 264 1
263 265 1
264 265 1
266 267 1
134 268 1
269 270 1
271 272 1
273 274 1
273 275 1
274 275 1
276 141 1
221 277 1
221 278 1
238 224 1
238 277 1
238 278 1
237 224 1
237 277 1
237 278 1
224 277 1
224 278 1
277 278 1
279 280 1
281 282 1
281 283 1
282 283 1
284 285 1
284 286 1
285 286 1
287 288 1
289 290 1
291 292 1
291 293 1
292 293 1
294 295 1
107 296 1
107 297 1
296 297 1
298 299 1
300 301 1
176 302 1
174 302 1
172 302 1
303 304 1
72 305 1
306 307 1
308 309 1
308 310 1
309 310 1
311 62 1
311 312 1
62 312 1
313 314 1
313 315 1
314 315 1
313 316 1
313 317 1
316 317 1
318 319 1
318 320 1
319 320 1
321 322 1
323 324 1
143 325 1
143 326 1
143 327 1
325 326 1
325 181 1
325 327 1
326 181 1
326 327 1
181 327 1
328 329 1
328 330 1
328 112 1
328 47 1
329 330 1
329 112 1
329 47 1
330 112 1
330 47 1
331 332 1
331 333 1
331 334 1
331 335 1
332 333 1
332 334 1
332 335 1
333 334 1
333 335 1
334 335 1
336 337 1
338 339 1
338 340 1
339 340 1
341 342 1
343 344 1
343 345 1
343 346 1
344 345 1
344 346 1
345 346 1
347 180 1
79 348 1
349 350 1
351 352 1
351 353 1
352 353 1
354 355 1
356 357 1
358 359 1
358 360 1
359 360 1
361 362 1
363 364 1
363 365 1
364 365 1
