*Vertices 2279
1 "73103"
2 "1516498"
3 "447365"
4 "468444"
5 "1648419"
6 "1134296"
7 "424062"
8 "435315"
9 "454535"
10 "630283"
11 "605153"
12 "631712"
13 "604306"
14 "911454"
15 "470240"
16 "940688"
17 "438327"
18 "455110"
19 "424621"
20 "606930"
21 "453276"
22 "436442"
23 "435902"
24 "617684"
25 "455042"
26 "456338"
27 "760376"
28 "704938"
29 "1578089"
30 "468438"
31 "109914"
32 "403512"
33 "1274469"
34 "1088115"
35 "1603344"
36 "443050"
37 "1141312"
38 "447574"
39 "860572"
40 "619684"
41 "456669"
42 "235640"
43 "604147"
44 "436275"
45 "1447473"
46 "631730"
47 "535859"
48 "1197295"
49 "607524"
50 "845242"
51 "604436"
52 "1321051"
53 "424435"
54 "631640"
55 "1657092"
56 "456486"
57 "384541"
58 "620061"
59 "617615"
60 "87380"
61 "45110"
62 "1468109"
63 "456465"
64 "454087"
65 "332592"
66 "812110"
67 "626650"
68 "438058"
69 "456323"
70 "436329"
71 "607009"
72 "547337"
73 "749283"
74 "1060080"
75 "876242"
76 "1562115"
77 "1048320"
78 "1296335"
79 "461677"
80 "617397"
81 "1381547"
82 "440807"
83 "436464"
84 "454107"
85 "631840"
86 "631495"
87 "1476173"
88 "630641"
89 "721316"
90 "953692"
91 "94169"
92 "768392"
93 "617642"
94 "606899"
95 "469100"
96 "616878"
97 "626215"
98 "229458"
99 "435670"
100 "605598"
101 "440203"
102 "1536957"
103 "181837"
104 "452421"
105 "423757"
106 "340470"
107 "607478"
108 "468135"
109 "438572"
110 "1154768"
111 "1265078"
112 "1142403"
113 "470905"
114 "604149"
115 "441481"
116 "440133"
117 "604666"
118 "482625"
119 "559189"
120 "470916"
121 "370958"
122 "1355527"
123 "803995"
124 "1089445"
125 "1471688"
126 "438926"
127 "1420869"
128 "436889"
129 "931752"
130 "1633970"
131 "562416"
132 "54700"
133 "1065317"
134 "622021"
135 "1702584"
136 "53674"
137 "583324"
138 "864250"
139 "631841"
140 "60040"
141 "1327647"
142 "747478"
143 "452909"
144 "320249"
145 "723084"
146 "1529818"
147 "831024"
148 "1035652"
149 "307682"
150 "535883"
151 "1687995"
152 "435662"
153 "1701144"
154 "534066"
155 "635502"
156 "93446"
157 "1247688"
158 "928509"
159 "42679"
160 "1368371"
161 "171"
162 "631958"
163 "440720"
164 "436914"
165 "1154264"
166 "452021"
167 "78677"
168 "465125"
169 "1402449"
170 "440722"
171 "880182"
172 "935865"
173 "557394"
174 "631872"
175 "617248"
176 "561776"
177 "471838"
178 "468338"
179 "454642"
180 "607057"
181 "1600320"
182 "468083"
183 "454449"
184 "62099"
185 "424091"
186 "813580"
187 "687413"
188 "823932"
189 "455318"
190 "1420873"
191 "708977"
192 "619870"
193 "702795"
194 "468469"
195 "962549"
196 "151938"
197 "1481529"
198 "883242"
199 "1182233"
200 "942544"
201 "455162"
202 "189919"
203 "424393"
204 "148685"
205 "435307"
206 "722164"
207 "504452"
208 "263234"
209 "1635698"
210 "365724"
211 "921137"
212 "1517863"
213 "74700"
214 "618987"
215 "618935"
216 "96381"
217 "457018"
218 "435910"
219 "1197730"
220 "447124"
221 "1178362"
222 "141617"
223 "457098"
224 "670720"
225 "927295"
226 "909372"
227 "1259912"
228 "934741"
229 "235223"
230 "1552062"
231 "1148448"
232 "1482825"
233 "604146"
234 "447537"
235 "452320"
236 "618407"
237 "444936"
238 "955407"
239 "435393"
240 "1250350"
241 "437442"
242 "435412"
243 "630393"
244 "457200"
245 "435252"
246 "467998"
247 "454400"
248 "1034452"
249 "1563983"
250 "1210141"
251 "550169"
252 "1431310"
253 "292355"
254 "1619896"
255 "438328"
256 "454666"
257 "1346562"
258 "1587998"
259 "360390"
260 "423949"
261 "1142890"
262 "573845"
263 "451781"
264 "423727"
265 "440833"
266 "630696"
267 "483511"
268 "471536"
269 "436888"
270 "453714"
271 "436794"
272 "447459"
273 "416852"
274 "436903"
275 "436321"
276 "631389"
277 "437979"
278 "1264596"
279 "774961"
280 "767133"
281 "356913"
282 "1334576"
283 "591278"
284 "13017"
285 "424183"
286 "454486"
287 "455237"
288 "330621"
289 "604736"
290 "441564"
291 "1444731"
292 "850715"
293 "564647"
294 "603979"
295 "804677"
296 "424384"
297 "959674"
298 "604634"
299 "424304"
300 "1631839"
301 "423635"
302 "603901"
303 "447213"
304 "617978"
305 "841504"
306 "618155"
307 "110108"
308 "424202"
309 "440556"
310 "438351"
311 "1240079"
312 "143684"
313 "441513"
314 "438439"
315 "435405"
316 "605077"
317 "471567"
318 "436877"
319 "455023"
320 "440104"
321 "1237842"
322 "470377"
323 "1236756"
324 "1357760"
325 "441790"
326 "468928"
327 "467989"
328 "273647"
329 "1138014"
330 "411199"
331 "424176"
332 "631852"
333 "436473"
334 "424094"
335 "454948"
336 "604122"
337 "457095"
338 "318538"
339 "435278"
340 "603109"
341 "440121"
342 "454880"
343 "586033"
344 "616244"
345 "616835"
346 "435692"
347 "454564"
348 "606989"
349 "437420"
350 "423766"
351 "199723"
352 "240077"
353 "452279"
354 "1327350"
355 "1663800"
356 "454597"
357 "453964"
358 "440708"
359 "447506"
360 "440651"
361 "454151"
362 "607026"
363 "435280"
364 "423526"
365 "440638"
366 "1181576"
367 "1479395"
368 "411090"
369 "1238086"
370 "1559087"
371 "539589"
372 "115640"
373 "65063"
374 "764826"
375 "454907"
376 "470474"
377 "264441"
378 "438019"
379 "1534453"
380 "1458474"
381 "344024"
382 "560826"
383 "1155480"
384 "616192"
385 "1328678"
386 "15055"
387 "1690953"
388 "483352"
389 "426541"
390 "403149"
391 "1517364"
392 "617241"
393 "759311"
394 "1001762"
395 "1351579"
396 "1097947"
397 "467004"
398 "219450"
399 "436382"
400 "452351"
401 "614966"
402 "433923"
403 "1580506"
404 "607429"
405 "468446"
406 "423647"
407 "1303733"
408 "112273"
409 "453711"
410 "473112"
411 "849507"
412 "958817"
413 "452840"
414 "466988"
415 "423522"
416 "615024"
417 "456951"
418 "424604"
419 "1197303"
420 "745747"
421 "719509"
422 "359906"
423 "1196440"
424 "130198"
425 "1453459"
426 "1071454"
427 "452427"
428 "1407839"
429 "851639"
430 "1346227"
431 "435324"
432 "436485"
433 "878995"
434 "1381093"
435 "667188"
436 "64166"
437 "1536032"
438 "1019321"
439 "1112272"
440 "56856"
441 "841674"
442 "508980"
443 "1348695"
444 "1693875"
445 "1403289"
446 "1529848"
447 "1303278"
448 "610897"
449 "618475"
450 "1157969"
451 "1147311"
452 "459575"
453 "795446"
454 "606907"
455 "437999"
456 "632060"
457 "517824"
458 "71482"
459 "603869"
460 "1198107"
461 "1375547"
462 "1478890"
463 "241864"
464 "1613128"
465 "1224864"
466 "1512849"
467 "1178445"
468 "1007819"
469 "878480"
470 "822717"
471 "744486"
472 "265317"
473 "1631245"
474 "524319"
475 "1104121"
476 "879004"
477 "1700892"
478 "1625861"
479 "617807"
480 "1606390"
481 "685175"
482 "1098916"
483 "1652048"
484 "1602668"
485 "1292874"
486 "1478997"
487 "419410"
488 "454071"
489 "1263898"
490 "617646"
491 "1082812"
492 "827753"
493 "23494"
494 "345791"
495 "631692"
496 "367661"
497 "894860"
498 "70747"
499 "615577"
500 "694260"
501 "524209"
502 "390084"
503 "464378"
504 "470480"
505 "849147"
506 "454484"
507 "598646"
508 "703914"
509 "329464"
510 "452050"
511 "1273529"
512 "816504"
513 "1376246"
514 "1628466"
515 "261604"
516 "1677619"
517 "424003"
518 "1233479"
519 "909762"
520 "325039"
521 "445261"
522 "162070"
523 "241804"
524 "1618784"
525 "863687"
526 "632448"
527 "1102556"
528 "703486"
529 "58942"
530 "436894"
531 "456478"
532 "1120933"
533 "460030"
534 "522627"
535 "83043"
536 "820482"
537 "359214"
538 "870345"
539 "638435"
540 "631670"
541 "436350"
542 "1709977"
543 "851102"
544 "1505322"
545 "1670186"
546 "423746"
547 "147600"
548 "468343"
549 "467056"
550 "927060"
551 "77417"
552 "456488"
553 "617641"
554 "1628643"
555 "1271953"
556 "356619"
557 "1554896"
558 "1027235"
559 "1167310"
560 "617943"
561 "1423234"
562 "436895"
563 "1059525"
564 "179577"
565 "491123"
566 "1305599"
567 "1510022"
568 "458029"
569 "502833"
570 "631498"
571 "10399"
572 "950469"
573 "617763"
574 "188590"
575 "593962"
576 "617235"
577 "1630315"
578 "657047"
579 "468563"
580 "554695"
581 "424626"
582 "470186"
583 "631703"
584 "470206"
585 "1405274"
586 "1536573"
587 "743303"
588 "909231"
589 "943488"
590 "436854"
591 "811250"
592 "966705"
593 "990420"
594 "509388"
595 "1555107"
596 "1084565"
597 "469101"
598 "615629"
599 "264210"
600 "438474"
601 "1510142"
602 "1556400"
603 "64725"
604 "441483"
605 "513247"
606 "284388"
607 "471018"
608 "1521770"
609 "603958"
610 "594107"
611 "549625"
612 "436892"
613 "1679050"
614 "549827"
615 "804775"
616 "1331132"
617 "455282"
618 "127383"
619 "293126"
620 "514632"
621 "1503501"
622 "101414"
623 "1056751"
624 "451942"
625 "483838"
626 "474156"
627 "525081"
628 "907563"
629 "1203349"
630 "1161414"
631 "454086"
632 "756346"
633 "605083"
634 "617780"
635 "455195"
636 "424606"
637 "470922"
638 "1145750"
639 "617280"
640 "604421"
641 "550605"
642 "78878"
643 "126453"
644 "825931"
645 "579661"
646 "452743"
647 "456971"
648 "384963"
649 "99642"
650 "604715"
651 "455015"
652 "1399030"
653 "604710"
654 "603465"
655 "468102"
656 "903994"
657 "617260"
658 "424475"
659 "618118"
660 "1584116"
661 "1064221"
662 "11482"
663 "499631"
664 "1143580"
665 "905302"
666 "216423"
667 "1496617"
668 "1045754"
669 "468463"
670 "1678959"
671 "436311"
672 "441484"
673 "1285213"
674 "436320"
675 "468122"
676 "452282"
677 "603977"
678 "1632220"
679 "616827"
680 "603508"
681 "452854"
682 "640088"
683 "1567657"
684 "468136"
685 "436456"
686 "471078"
687 "1305983"
688 "893509"
689 "438376"
690 "1169940"
691 "993773"
692 "1631333"
693 "1500969"
694 "647863"
695 "1172769"
696 "1004789"
697 "1600019"
698 "447206"
699 "761805"
700 "907326"
701 "465949"
702 "1352470"
703 "424511"
704 "1049489"
705 "404383"
706 "83368"
707 "476552"
708 "32811"
709 "909251"
710 "320369"
711 "751775"
712 "1457873"
713 "1555425"
714 "159006"
715 "173542"
716 "618162"
717 "902784"
718 "286863"
719 "452847"
720 "455345"
721 "467992"
722 "552839"
723 "958235"
724 "747467"
725 "1113066"
726 "1380196"
727 "631216"
728 "597529"
729 "1002686"
730 "679429"
731 "213837"
732 "468743"
733 "1270517"
734 "1242922"
735 "605807"
736 "430416"
737 "1711538"
738 "1521794"
739 "604377"
740 "440656"
741 "653710"
742 "549214"
743 "469111"
744 "1615448"
745 "604369"
746 "490126"
747 "470302"
748 "1643680"
749 "1541198"
750 "1217440"
751 "605074"
752 "411453"
753 "391603"
754 "722788"
755 "1456170"
756 "626567"
757 "456969"
758 "435874"
759 "470471"
760 "438008"
761 "368258"
762 "1674315"
763 "180531"
764 "626591"
765 "452454"
766 "455376"
767 "1509929"
768 "264023"
769 "144911"
770 "1243991"
771 "604372"
772 "1371137"
773 "1667578"
774 "808832"
775 "146149"
776 "630279"
777 "483227"
778 "434360"
779 "902808"
780 "636737"
781 "1637736"
782 "440662"
783 "390327"
784 "469587"
785 "933756"
786 "470973"
787 "440174"
788 "626541"
789 "1689881"
790 "251021"
791 "422073"
792 "452805"
793 "452422"
794 "630377"
795 "631903"
796 "422392"
797 "932294"
798 "380599"
799 "1460683"
800 "418395"
801 "209700"
802 "438003"
803 "555553"
804 "1207098"
805 "843768"
806 "587508"
807 "615453"
808 "10676"
809 "355011"
810 "179063"
811 "1184787"
812 "152403"
813 "452292"
814 "436509"
815 "454563"
816 "435300"
817 "424444"
818 "796726"
819 "424092"
820 "389867"
821 "423732"
822 "435843"
823 "618885"
824 "619035"
825 "1686397"
826 "377176"
827 "1537645"
828 "604821"
829 "435374"
830 "605405"
831 "396379"
832 "993902"
833 "632279"
834 "435811"
835 "436896"
836 "1399305"
837 "446464"
838 "435346"
839 "282818"
840 "175878"
841 "1016023"
842 "1505040"
843 "435330"
844 "1620784"
845 "420936"
846 "23457"
847 "1149072"
848 "424445"
849 "605572"
850 "667831"
851 "604398"
852 "48102"
853 "180338"
854 "985417"
855 "467026"
856 "55809"
857 "395345"
858 "1602934"
859 "912252"
860 "358119"
861 "1076608"
862 "465302"
863 "447540"
864 "1118811"
865 "739637"
866 "382902"
867 "611633"
868 "435211"
869 "693082"
870 "597786"
871 "1622784"
872 "1582793"
873 "447215"
874 "453337"
875 "436460"
876 "1283307"
877 "652095"
878 "435250"
879 "616284"
880 "1602318"
881 "1285369"
882 "675782"
883 "618123"
884 "1046603"
885 "320742"
886 "447407"
887 "1431259"
888 "435282"
889 "487657"
890 "1338413"
891 "517456"
892 "520142"
893 "1632152"
894 "1014469"
895 "635134"
896 "1702515"
897 "1097950"
898 "1105786"
899 "604449"
900 "551288"
901 "609369"
902 "503303"
903 "1094890"
904 "440830"
905 "617982"
906 "1497543"
907 "874723"
908 "446770"
909 "1101162"
910 "1157237"
911 "634518"
912 "452808"
913 "469157"
914 "657233"
915 "457209"
916 "1476503"
917 "251605"
918 "412556"
919 "1549259"
920 "1444104"
921 "993097"
922 "715453"
923 "1626381"
924 "630640"
925 "402135"
926 "1491565"
927 "603129"
928 "630258"
929 "1365516"
930 "847290"
931 "471572"
932 "618582"
933 "469167"
934 "627371"
935 "1088917"
936 "616796"
937 "583284"
938 "527740"
939 "603489"
940 "604434"
941 "249371"
942 "435190"
943 "438442"
944 "457207"
945 "453710"
946 "804464"
947 "746468"
948 "253678"
949 "1545916"
950 "733526"
951 "982012"
952 "1285975"
953 "603160"
954 "1710643"
955 "630385"
956 "338300"
957 "1150764"
958 "30933"
959 "604675"
960 "1562895"
961 "631873"
962 "616155"
963 "604419"
964 "397095"
965 "738154"
966 "144172"
967 "290890"
968 "1353787"
969 "1012623"
970 "409756"
971 "1496656"
972 "1516070"
973 "440116"
974 "1708764"
975 "424126"
976 "438368"
977 "1697447"
978 "1556928"
979 "603176"
980 "718336"
981 "1417409"
982 "1354007"
983 "1081444"
984 "617266"
985 "630764"
986 "469528"
987 "1606415"
988 "1606450"
989 "467806"
990 "616076"
991 "1369845"
992 "438339"
993 "1627376"
994 "603471"
995 "455045"
996 "896239"
997 "455351"
998 "615409"
999 "148658"
1000 "604148"
1001 "614208"
1002 "549003"
1003 "299400"
1004 "860932"
1005 "548471"
1006 "851581"
1007 "380571"
1008 "796947"
1009 "653767"
1010 "1184844"
1011 "273858"
1012 "1513574"
1013 "263787"
1014 "440552"
1015 "1710613"
1016 "752457"
1017 "1259535"
1018 "861270"
1019 "619886"
1020 "604375"
1021 "483428"
1022 "1618357"
1023 "260276"
1024 "468875"
1025 "452458"
1026 "923767"
1027 "438055"
1028 "436307"
1029 "440068"
1030 "28630"
1031 "33391"
1032 "603167"
1033 "547244"
1034 "453271"
1035 "124060"
1036 "1637616"
1037 "603133"
1038 "1635629"
1039 "603138"
1040 "594829"
1041 "563284"
1042 "456483"
1043 "605049"
1044 "1469158"
1045 "1592100"
1046 "604354"
1047 "424096"
1048 "48536"
1049 "424420"
1050 "604659"
1051 "444945"
1052 "469112"
1053 "419075"
1054 "453282"
1055 "134401"
1056 "603154"
1057 "1524871"
1058 "1178005"
1059 "630881"
1060 "1275370"
1061 "137225"
1062 "611579"
1063 "605195"
1064 "54062"
1065 "618862"
1066 "498821"
1067 "435527"
1068 "549232"
1069 "870461"
1070 "605503"
1071 "617624"
1072 "12529"
1073 "454930"
1074 "459606"
1075 "1443920"
1076 "423597"
1077 "666116"
1078 "1031512"
1079 "593135"
1080 "618186"
1081 "630701"
1082 "1154718"
1083 "445263"
1084 "1212082"
1085 "148414"
1086 "503427"
1087 "1139211"
1088 "438039"
1089 "454424"
1090 "437410"
1091 "980202"
1092 "1560687"
1093 "619034"
1094 "157117"
1095 "1266467"
1096 "1006727"
1097 "111250"
1098 "1084452"
1099 "926122"
1100 "512318"
1101 "1176161"
1102 "476135"
1103 "380331"
1104 "163889"
1105 "632329"
1106 "64706"
1107 "1218580"
1108 "1441259"
1109 "851910"
1110 "303284"
1111 "1079137"
1112 "1196208"
1113 "469132"
1114 "468553"
1115 "1679884"
1116 "541922"
1117 "992908"
1118 "275154"
1119 "441815"
1120 "1197261"
1121 "728995"
1122 "876192"
1123 "1510222"
1124 "473858"
1125 "542794"
1126 "875850"
1127 "331989"
1128 "765206"
1129 "604118"
1130 "290065"
1131 "860823"
1132 "1050188"
1133 "1165601"
1134 "452432"
1135 "436135"
1136 "1429877"
1137 "403728"
1138 "549877"
1139 "453738"
1140 "1669514"
1141 "642923"
1142 "614992"
1143 "444927"
1144 "904434"
1145 "1198484"
1146 "454632"
1147 "603870"
1148 "1124344"
1149 "1181116"
1150 "1459500"
1151 "544526"
1152 "209200"
1153 "122768"
1154 "1213042"
1155 "833170"
1156 "620455"
1157 "789115"
1158 "458754"
1159 "497565"
1160 "468847"
1161 "1693859"
1162 "950098"
1163 "1289479"
1164 "1123210"
1165 "1122612"
1166 "1606934"
1167 "923394"
1168 "1198416"
1169 "681037"
1170 "515320"
1171 "412251"
1172 "435182"
1173 "561769"
1174 "145080"
1175 "1660885"
1176 "456322"
1177 "1281302"
1178 "1532083"
1179 "1423892"
1180 "470164"
1181 "1351575"
1182 "580612"
1183 "438441"
1184 "1184682"
1185 "471894"
1186 "616143"
1187 "986275"
1188 "603469"
1189 "1581433"
1190 "510426"
1191 "118596"
1192 "90240"
1193 "1613860"
1194 "851464"
1195 "1493856"
1196 "1664507"
1197 "192388"
1198 "760402"
1199 "626595"
1200 "1657161"
1201 "1673942"
1202 "616898"
1203 "1382449"
1204 "705006"
1205 "511570"
1206 "715913"
1207 "1346843"
1208 "1368320"
1209 "887839"
1210 "582329"
1211 "1315486"
1212 "633667"
1213 "969658"
1214 "143797"
1215 "454546"
1216 "1268314"
1217 "850923"
1218 "603482"
1219 "265540"
1220 "604368"
1221 "62889"
1222 "1333802"
1223 "801640"
1224 "608139"
1225 "745677"
1226 "456503"
1227 "649198"
1228 "617956"
1229 "423773"
1230 "431572"
1231 "435276"
1232 "603895"
1233 "546803"
1234 "1525836"
1235 "509381"
1236 "639541"
1237 "551964"
1238 "1118378"
1239 "372234"
1240 "423603"
1241 "125564"
1242 "603994"
1243 "538213"
1244 "419254"
1245 "160038"
1246 "1178688"
1247 "469526"
1248 "1607583"
1249 "607012"
1250 "618864"
1251 "556487"
1252 "468560"
1253 "708749"
1254 "164081"
1255 "1601673"
1256 "944304"
1257 "440209"
1258 "34056"
1259 "1589587"
1260 "565138"
1261 "1522834"
1262 "468464"
1263 "471039"
1264 "1602135"
1265 "415890"
1266 "1167691"
1267 "757975"
1268 "263172"
1269 "1188010"
1270 "1155415"
1271 "1297088"
1272 "278394"
1273 "393914"
1274 "1695234"
1275 "1612735"
1276 "94154"
1277 "937547"
1278 "601273"
1279 "1444043"
1280 "1017689"
1281 "454085"
1282 "528285"
1283 "1674631"
1284 "424616"
1285 "984253"
1286 "1615820"
1287 "305283"
1288 "1631307"
1289 "471391"
1290 "440634"
1291 "418039"
1292 "1179940"
1293 "1313157"
1294 "1171170"
1295 "679174"
1296 "573326"
1297 "471905"
1298 "155678"
1299 "379042"
1300 "721861"
1301 "1289627"
1302 "452744"
1303 "918159"
1304 "1154353"
1305 "1006967"
1306 "69066"
1307 "1393749"
1308 "378658"
1309 "436726"
1310 "366508"
1311 "304759"
1312 "452423"
1313 "904891"
1314 "468003"
1315 "1092407"
1316 "455163"
1317 "396891"
1318 "393618"
1319 "773352"
1320 "531326"
1321 "279589"
1322 "477951"
1323 "211164"
1324 "241524"
1325 "218924"
1326 "1027688"
1327 "631961"
1328 "471910"
1329 "452806"
1330 "1644432"
1331 "860814"
1332 "1693619"
1333 "615597"
1334 "479415"
1335 "440169"
1336 "618196"
1337 "457049"
1338 "547814"
1339 "1110874"
1340 "990738"
1341 "305883"
1342 "470982"
1343 "1484735"
1344 "1462084"
1345 "1581461"
1346 "477403"
1347 "947536"
1348 "468713"
1349 "604185"
1350 "929643"
1351 "597268"
1352 "1121794"
1353 "535509"
1354 "813708"
1355 "676908"
1356 "396707"
1357 "1234107"
1358 "1557278"
1359 "603925"
1360 "618158"
1361 "391160"
1362 "827780"
1363 "447409"
1364 "849780"
1365 "159585"
1366 "1487697"
1367 "84924"
1368 "455011"
1369 "1487484"
1370 "605499"
1371 "369242"
1372 "423760"
1373 "423968"
1374 "549202"
1375 "1691445"
1376 "436846"
1377 "452855"
1378 "455138"
1379 "605611"
1380 "631925"
1381 "910668"
1382 "1122903"
1383 "1567782"
1384 "1708771"
1385 "527444"
1386 "522242"
1387 "10022"
1388 "938889"
1389 "1647372"
1390 "33434"
1391 "458128"
1392 "705824"
1393 "930931"
1394 "1349668"
1395 "43512"
1396 "615455"
1397 "885409"
1398 "617272"
1399 "1283632"
1400 "435180"
1401 "319814"
1402 "1351699"
1403 "755614"
1404 "575910"
1405 "244307"
1406 "450202"
1407 "70207"
1408 "129347"
1409 "631286"
1410 "381897"
1411 "9188"
1412 "949666"
1413 "1107594"
1414 "473890"
1415 "1566983"
1416 "1080209"
1417 "837908"
1418 "1334045"
1419 "1366713"
1420 "690126"
1421 "779680"
1422 "323669"
1423 "332951"
1424 "1118627"
1425 "1348779"
1426 "552884"
1427 "1445562"
1428 "382216"
1429 "316456"
1430 "793632"
1431 "1374331"
1432 "75626"
1433 "1643834"
1434 "1103192"
1435 "1488206"
1436 "1132911"
1437 "1027158"
1438 "43972"
1439 "446546"
1440 "73854"
1441 "43433"
1442 "1602841"
1443 "1322906"
1444 "1470647"
1445 "1106695"
1446 "1413263"
1447 "1076417"
1448 "375002"
1449 "754354"
1450 "1286098"
1451 "538934"
1452 "538767"
1453 "1677470"
1454 "1696636"
1455 "1701616"
1456 "1268830"
1457 "1501560"
1458 "1480355"
1459 "1580238"
1460 "127797"
1461 "375885"
1462 "681125"
1463 "938581"
1464 "1131660"
1465 "756832"
1466 "1420535"
1467 "502644"
1468 "1699298"
1469 "38157"
1470 "216437"
1471 "1632710"
1472 "596108"
1473 "339054"
1474 "1120128"
1475 "850524"
1476 "1327783"
1477 "1679769"
1478 "1693781"
1479 "1708483"
1480 "270841"
1481 "1694961"
1482 "1218403"
1483 "1135207"
1484 "994135"
1485 "868355"
1486 "705000"
1487 "289946"
1488 "486643"
1489 "1635922"
1490 "787726"
1491 "430045"
1492 "17521"
1493 "47912"
1494 "913872"
1495 "1087265"
1496 "379458"
1497 "1001870"
1498 "1697554"
1499 "605675"
1500 "447359"
1501 "1662379"
1502 "1297163"
1503 "456485"
1504 "604827"
1505 "46216"
1506 "348945"
1507 "40345"
1508 "626529"
1509 "199826"
1510 "275137"
1511 "616317"
1512 "868873"
1513 "603179"
1514 "184677"
1515 "876700"
1516 "895645"
1517 "454748"
1518 "1506583"
1519 "500965"
1520 "1008979"
1521 "1708964"
1522 "1707102"
1523 "1250192"
1524 "192242"
1525 "1613387"
1526 "42884"
1527 "616303"
1528 "1147841"
1529 "331807"
1530 "1425017"
1531 "576799"
1532 "602254"
1533 "805123"
1534 "823725"
1535 "1351785"
1536 "392039"
1537 "1193053"
1538 "24505"
1539 "679884"
1540 "436904"
1541 "47116"
1542 "96034"
1543 "250807"
1544 "424458"
1545 "72638"
1546 "48845"
1547 "1124477"
1548 "1630042"
1549 "1122030"
1550 "1479379"
1551 "630290"
1552 "387906"
1553 "423740"
1554 "1102023"
1555 "948147"
1556 "1534123"
1557 "1166151"
1558 "468815"
1559 "563431"
1560 "535133"
1561 "1120024"
1562 "955112"
1563 "1529481"
1564 "1227190"
1565 "1155168"
1566 "381121"
1567 "1345792"
1568 "315769"
1569 "74519"
1570 "1319267"
1571 "299728"
1572 "471802"
1573 "435812"
1574 "456363"
1575 "618599"
1576 "250819"
1577 "1337748"
1578 "619068"
1579 "454567"
1580 "632234"
1581 "1438578"
1582 "985052"
1583 "435510"
1584 "1604324"
1585 "872437"
1586 "1261780"
1587 "615501"
1588 "631926"
1589 "470364"
1590 "619639"
1591 "1153267"
1592 "469521"
1593 "982741"
1594 "618487"
1595 "177119"
1596 "330032"
1597 "312467"
1598 "1369867"
1599 "1272069"
1600 "400809"
1601 "617656"
1602 "949346"
1603 "760272"
1604 "1709039"
1605 "440099"
1606 "335900"
1607 "928735"
1608 "1167466"
1609 "532476"
1610 "1617546"
1611 "436702"
1612 "1630149"
1613 "618124"
1614 "26585"
1615 "546345"
1616 "1669523"
1617 "1124099"
1618 "1690193"
1619 "51977"
1620 "456416"
1621 "536062"
1622 "903900"
1623 "152724"
1624 "921040"
1625 "741194"
1626 "1695710"
1627 "121281"
1628 "441568"
1629 "314149"
1630 "128049"
1631 "1021062"
1632 "1236034"
1633 "967957"
1634 "1196248"
1635 "436380"
1636 "1545001"
1637 "512326"
1638 "451972"
1639 "521535"
1640 "424307"
1641 "1630228"
1642 "1127421"
1643 "3164"
1644 "1496129"
1645 "521434"
1646 "1283717"
1647 "1593156"
1648 "1335116"
1649 "136468"
1650 "622146"
1651 "239428"
1652 "1606429"
1653 "754696"
1654 "1631640"
1655 "436712"
1656 "1705471"
1657 "630867"
1658 "626292"
1659 "1152649"
1660 "153734"
1661 "345956"
1662 "615603"
1663 "487534"
1664 "441578"
1665 "631213"
1666 "631965"
1667 "414960"
1668 "660265"
1669 "1536184"
1670 "575546"
1671 "603923"
1672 "339793"
1673 "1080724"
1674 "606939"
1675 "861927"
1676 "254381"
1677 "290074"
1678 "1097541"
1679 "423533"
1680 "1164471"
1681 "1139955"
1682 "337384"
1683 "528593"
1684 "1116935"
1685 "603104"
1686 "1076953"
1687 "1540034"
1688 "345093"
1689 "471520"
1690 "1265362"
1691 "414539"
1692 "1104416"
1693 "228535"
1694 "823475"
1695 "524131"
1696 "909864"
1697 "1432010"
1698 "615641"
1699 "1398536"
1700 "779337"
1701 "348455"
1702 "438402"
1703 "617948"
1704 "374153"
1705 "177445"
1706 "148666"
1707 "648283"
1708 "490107"
1709 "1498131"
1710 "1052059"
1711 "838540"
1712 "519719"
1713 "1616129"
1714 "509066"
1715 "501544"
1716 "1001012"
1717 "1332244"
1718 "1383922"
1719 "1688937"
1720 "1049694"
1721 "1617099"
1722 "1175475"
1723 "554044"
1724 "216438"
1725 "1049357"
1726 "1391094"
1727 "1301851"
1728 "843971"
1729 "474512"
1730 "1293810"
1731 "871996"
1732 "645051"
1733 "596167"
1734 "267147"
1735 "409966"
1736 "1138543"
1737 "270730"
1738 "1458915"
1739 "967357"
1740 "369398"
1741 "712105"
1742 "560651"
1743 "13738"
1744 "1153215"
1745 "1552425"
1746 "853881"
1747 "1555867"
1748 "1086545"
1749 "276388"
1750 "1407426"
1751 "52096"
1752 "1512303"
1753 "700838"
1754 "649686"
1755 "1355089"
1756 "1137262"
1757 "966770"
1758 "1540400"
1759 "1120557"
1760 "1154201"
1761 "545581"
1762 "94478"
1763 "629790"
1764 "462912"
1765 "1300020"
1766 "1331028"
1767 "1089279"
1768 "310709"
1769 "410530"
1770 "1667289"
1771 "548594"
1772 "681195"
1773 "1327872"
1774 "520138"
1775 "1642329"
1776 "1636045"
1777 "363809"
1778 "1699997"
1779 "112930"
1780 "1657223"
1781 "545239"
1782 "848706"
1783 "568391"
1784 "1398548"
1785 "896797"
1786 "441203"
1787 "1195415"
1788 "434274"
1789 "481751"
1790 "1198165"
1791 "339168"
1792 "492392"
1793 "219994"
1794 "897659"
1795 "1154617"
1796 "829979"
1797 "1519192"
1798 "635379"
1799 "1709336"
1800 "856110"
1801 "417946"
1802 "956271"
1803 "340368"
1804 "1642591"
1805 "1191792"
1806 "1273861"
1807 "1337246"
1808 "338787"
1809 "1432583"
1810 "95852"
1811 "851636"
1812 "689876"
1813 "1394576"
1814 "1310916"
1815 "572072"
1816 "1375814"
1817 "1151666"
1818 "155006"
1819 "1664461"
1820 "221065"
1821 "1565126"
1822 "986962"
1823 "1684084"
1824 "658181"
1825 "1558695"
1826 "85006"
1827 "962308"
1828 "229819"
1829 "539705"
1830 "156674"
1831 "726006"
1832 "527154"
1833 "1287428"
1834 "1050953"
1835 "100918"
1836 "780833"
1837 "25448"
1838 "42849"
1839 "1382649"
1840 "1212763"
1841 "1377075"
1842 "1336173"
1843 "1242085"
1844 "991031"
1845 "823804"
1846 "1606771"
1847 "647902"
1848 "207407"
1849 "1472601"
1850 "1134596"
1851 "1078695"
1852 "549932"
1853 "1133239"
1854 "1417331"
1855 "831093"
1856 "1698255"
1857 "420873"
1858 "1519279"
1859 "1439908"
1860 "991451"
1861 "489755"
1862 "800535"
1863 "862406"
1864 "1579164"
1865 "1176284"
1866 "330831"
1867 "557719"
1868 "1696992"
1869 "71129"
1870 "673199"
1871 "1707125"
1872 "298253"
1873 "971164"
1874 "742814"
1875 "112630"
1876 "393441"
1877 "97226"
1878 "289873"
1879 "949142"
1880 "404157"
1881 "528023"
1882 "458818"
1883 "1606236"
1884 "1137568"
1885 "1393966"
1886 "881866"
1887 "760743"
1888 "191837"
1889 "791796"
1890 "707079"
1891 "976016"
1892 "1141034"
1893 "1224124"
1894 "143696"
1895 "511239"
1896 "551362"
1897 "561853"
1898 "1051380"
1899 "796834"
1900 "817484"
1901 "1397629"
1902 "111540"
1903 "1669310"
1904 "962978"
1905 "227355"
1906 "781500"
1907 "425769"
1908 "1695392"
1909 "1406140"
1910 "504627"
1911 "1635376"
1912 "1141870"
1913 "1684434"
1914 "150857"
1915 "779205"
1916 "990153"
1917 "1157209"
1918 "1265149"
1919 "42490"
1920 "1327852"
1921 "63120"
1922 "1712345"
1923 "1367119"
1924 "193424"
1925 "973203"
1926 "16780"
1927 "638413"
1928 "722830"
1929 "1319074"
1930 "1337091"
1931 "537211"
1932 "832089"
1933 "668685"
1934 "230637"
1935 "12720"
1936 "1417611"
1937 "1194718"
1938 "292271"
1939 "1584680"
1940 "1525398"
1941 "636802"
1942 "1618288"
1943 "398133"
1944 "1199152"
1945 "208182"
1946 "885396"
1947 "482768"
1948 "1628619"
1949 "300172"
1950 "460674"
1951 "1195642"
1952 "352955"
1953 "1089096"
1954 "987389"
1955 "315421"
1956 "254398"
1957 "1586072"
1958 "523040"
1959 "1658350"
1960 "644305"
1961 "947595"
1962 "1578696"
1963 "100262"
1964 "1129217"
1965 "516241"
1966 "117126"
1967 "413394"
1968 "251046"
1969 "1337010"
1970 "731900"
1971 "459707"
1972 "399019"
1973 "478639"
1974 "1620601"
1975 "1347331"
1976 "1036330"
1977 "1664353"
1978 "994971"
1979 "746800"
1980 "993313"
1981 "718183"
1982 "1014500"
1983 "1326401"
1984 "1445130"
1985 "220065"
1986 "1665777"
1987 "276582"
1988 "166046"
1989 "1069483"
1990 "15314"
1991 "956235"
1992 "1141904"
1993 "418422"
1994 "608695"
1995 "981688"
1996 "927943"
1997 "1316168"
1998 "527420"
1999 "22450"
2000 "1128250"
2001 "805786"
2002 "1487340"
2003 "1213656"
2004 "630768"
2005 "1222996"
2006 "276341"
2007 "287101"
2008 "393124"
2009 "729182"
2010 "834876"
2011 "1016762"
2012 "772988"
2013 "73250"
2014 "602614"
2015 "633759"
2016 "476944"
2017 "317411"
2018 "1165048"
2019 "438358"
2020 "990490"
2021 "1525585"
2022 "1018511"
2023 "423622"
2024 "141210"
2025 "1330135"
2026 "573892"
2027 "1135966"
2028 "1375540"
2029 "179373"
2030 "557946"
2031 "521167"
2032 "1710547"
2033 "770144"
2034 "674"
2035 "13264"
2036 "1288076"
2037 "630871"
2038 "424522"
2039 "690017"
2040 "470365"
2041 "467043"
2042 "1193148"
2043 "1338639"
2044 "713634"
2045 "1702918"
2046 "810483"
2047 "1503474"
2048 "604745"
2049 "1487031"
2050 "23310"
2051 "321574"
2052 "128811"
2053 "476576"
2054 "95820"
2055 "1397555"
2056 "466477"
2057 "269566"
2058 "179538"
2059 "955193"
2060 "994580"
2061 "669937"
2062 "1135568"
2063 "866626"
2064 "1175360"
2065 "712577"
2066 "561550"
2067 "470260"
2068 "884502"
2069 "971473"
2070 "205186"
2071 "643414"
2072 "842523"
2073 "1283878"
2074 "389926"
2075 "1633876"
2076 "502898"
2077 "632456"
2078 "486786"
2079 "206174"
2080 "1207886"
2081 "562882"
2082 "219633"
2083 "1135377"
2084 "850904"
2085 "1252117"
2086 "478578"
2087 "95255"
2088 "874720"
2089 "1118043"
2090 "1690019"
2091 "469114"
2092 "1072489"
2093 "605850"
2094 "1673026"
2095 "440045"
2096 "454534"
2097 "360518"
2098 "1603298"
2099 "1550423"
2100 "602687"
2101 "1268117"
2102 "1470224"
2103 "673244"
2104 "630770"
2105 "1536739"
2106 "517845"
2107 "849417"
2108 "1406016"
2109 "283610"
2110 "144456"
2111 "103652"
2112 "849890"
2113 "513108"
2114 "816997"
2115 "540924"
2116 "217327"
2117 "67229"
2118 "407676"
2119 "1140597"
2120 "438318"
2121 "402552"
2122 "1155268"
2123 "319908"
2124 "456942"
2125 "74620"
2126 "23052"
2127 "276286"
2128 "226659"
2129 "1308768"
2130 "205178"
2131 "164484"
2132 "621868"
2133 "756618"
2134 "618950"
2135 "645123"
2136 "774260"
2137 "1248931"
2138 "569219"
2139 "157766"
2140 "1701367"
2141 "1430312"
2142 "936190"
2143 "807029"
2144 "468144"
2145 "672170"
2146 "239990"
2147 "1668568"
2148 "1539196"
2149 "615510"
2150 "1088552"
2151 "932734"
2152 "1686533"
2153 "438893"
2154 "358056"
2155 "1617018"
2156 "667978"
2157 "851780"
2158 "884229"
2159 "567349"
2160 "1507612"
2161 "1003974"
2162 "488865"
2163 "407201"
2164 "1196861"
2165 "860907"
2166 "423930"
2167 "632355"
2168 "436845"
2169 "603472"
2170 "760090"
2171 "632037"
2172 "264395"
2173 "1157595"
2174 "216911"
2175 "457130"
2176 "823208"
2177 "303069"
2178 "1497502"
2179 "1571344"
2180 "185602"
2181 "145305"
2182 "715863"
2183 "97089"
2184 "971922"
2185 "391837"
2186 "1120506"
2187 "1127086"
2188 "1681821"
2189 "1155521"
2190 "1368334"
2191 "442299"
2192 "1295668"
2193 "1224934"
2194 "440142"
2195 "607576"
2196 "105675"
2197 "443799"
2198 "454939"
2199 "815924"
2200 "398122"
2201 "1192571"
2202 "722627"
2203 "1666470"
2204 "1541234"
2205 "1331487"
2206 "790358"
2207 "488089"
2208 "1154440"
2209 "606954"
2210 "719436"
2211 "1464908"
2212 "844672"
2213 "1235086"
2214 "511535"
2215 "1172236"
2216 "583561"
2217 "456504"
2218 "588024"
2219 "992347"
2220 "626596"
2221 "455326"
2222 "424413"
2223 "345614"
2224 "39614"
2225 "1161842"
2226 "880142"
2227 "209876"
2228 "326303"
2229 "1572427"
2230 "1200597"
2231 "1195381"
2232 "1381725"
2233 "344676"
2234 "1695306"
2235 "989566"
2236 "730265"
2237 "606430"
2238 "1178293"
2239 "848184"
2240 "226729"
2241 "1320596"
2242 "84096"
2243 "1263629"
2244 "468434"
2245 "95198"
2246 "1447554"
2247 "221641"
2248 "216888"
2249 "1365167"
2250 "1621104"
2251 "1122720"
2252 "435355"
2253 "438356"
2254 "158820"
2255 "526971"
2256 "276754"
2257 "47695"
2258 "410120"
2259 "619676"
2260 "1668859"
2261 "1328656"
2262 "929627"
2263 "15123"
2264 "1367853"
2265 "1670527"
2266 "1592077"
2267 "768643"
2268 "926153"
2269 "230049"
2270 "1231969"
2271 "1510508"
2272 "1341872"
2273 "366014"
2274 "618484"
2275 "74883"
2276 "119094"
2277 "802018"
2278 "1101186"
*Edges
1 2 1
3 4 1
5 6 1
7 8 1
9 10 2
9 11 2
10 11 2
12 9 2
13 14 1
13 15 1
14 15 1
16 17 1
18 19 1
18 20 1
18 21 1
19 20 1
19 21 1
20 21 1
22 23 1
9 24 1
24 12 1
25 26 1
27 28 1
29 30 1
31 32 1
31 28 1
32 28 1
33 34 1
35 36 1
37 38 1
39 40 1
41 42 1
43 44 3
45 46 1
47 48 1
47 49 2
47 50 1
47 51 1
47 52 1
47 53 1
48 49 1
48 50 1
48 51 1
48 52 1
48 53 1
49 50 1
49 51 1
49 52 1
49 53 1
50 51 1
50 52 1
50 53 1
51 52 1
51 53 1
52 53 1
41 54 1
55 56 1
57 58 1
59 60 1
61 62 1
63 64 1
33 58 1
33 65 2
58 65 1
66 67 1
68 69 1
68 70 1
69 70 1
71 72 1
73 74 1
73 75 1
74 75 1
76 77 1
78 79 2
78 80 1
81 82 1
83 84 1
47 85 2
86 87 2
88 89 2
90 91 3
92 93 1
92 94 1
93 94 1
95 96 2
95 97 2
96 97 2
98 99 1
100 101 1
102 9 1
103 104 1
103 9 1
104 9 1
105 106 1
105 107 1
105 108 1
105 109 1
106 107 1
106 108 1
106 109 1
107 108 1
107 109 1
108 109 1
47 71 1
47 110 1
47 111 1
47 112 2
47 113 1
71 110 1
71 49 1
71 111 1
71 112 1
71 85 1
71 113 1
110 49 1
110 111 1
110 112 1
110 85 1
110 113 1
49 111 1
49 112 1
49 85 1
49 113 1
111 112 1
111 85 1
111 113 1
112 85 1
112 113 1
85 113 1
114 115 1
114 116 1
115 116 1
44 13 2
43 13 2
98 117 1
118 119 1
120 37 1
121 122 1
29 123 1
124 125 1
124 126 1
125 126 1
127 128 1
129 130 1
131 87 1
132 133 3
134 135 2
136 137 1
136 138 2
137 138 1
124 139 2
73 140 1
141 142 1
90 143 1
90 72 1
91 143 1
91 72 1
143 72 1
144 145 1
146 147 1
148 149 2
148 150 1
148 151 1
149 150 1
149 151 1
150 151 1
149 152 1
149 153 3
152 153 1
152 148 1
153 148 1
154 155 1
156 157 2
158 159 1
158 160 1
159 160 1
55 161 1
57 162 1
57 163 1
57 164 1
162 163 1
162 164 1
163 164 1
165 166 1
165 167 1
166 167 1
168 169 3
170 171 1
172 173 1
172 174 2
172 175 1
172 176 2
173 174 1
173 175 1
173 176 1
174 175 1
174 176 2
175 176 1
177 178 1
179 180 1
181 143 2
182 183 1
184 185 1
186 187 1
186 188 1
186 189 1
187 188 1
187 189 2
188 189 1
190 191 1
192 193 1
192 194 1
193 194 1
195 196 1
190 197 1
198 199 1
200 201 1
202 203 1
204 205 1
125 206 2
207 208 1
209 210 1
211 212 1
211 79 2
212 79 5
213 47 1
214 215 1
216 110 1
217 110 1
218 65 1
218 219 1
65 219 2
219 220 1
221 222 1
221 223 1
221 224 2
222 223 1
222 224 1
223 224 1
55 225 1
226 227 1
228 229 2
228 230 2
229 230 2
231 232 1
231 233 1
231 234 1
232 233 1
232 234 1
233 234 1
235 236 1
221 237 2
221 238 2
221 239 1
237 238 2
237 239 1
238 239 1
57 240 1
241 242 1
241 243 1
242 243 1
244 245 1
244 246 1
244 247 1
245 246 1
245 247 1
246 247 1
248 249 1
250 251 1
252 253 1
252 248 1
253 248 1
190 254 1
208 27 3
255 256 1
255 257 1
256 257 1
258 259 1
260 261 1
260 262 1
261 262 1
263 264 1
263 265 1
264 265 1
266 267 1
134 268 1
269 270 1
271 272 1
273 274 1
273 275 1
274 275 1
276 141 1
221 277 1
221 278 1
238 224 1
238 277 1
238 278 1
237 224 1
237 277 1
237 278 1
224 277 1
224 278 1
277 278 1
279 280 1
281 282 1
281 283 1
282 283 1
284 285 1
284 286 1
285 286 1
287 288 1
289 290 1
291 292 1
291 293 1
292 293 2
294 295 1
107 296 1
107 297 1
296 297 1
298 299 1
300 301 1
176 302 1
174 302 1
172 302 1
303 304 1
72 305 1
306 307 1
308 309 1
308 310 1
309 310 1
311 62 1
311 312 1
62 312 1
313 314 1
313 315 1
314 315 1
313 316 1
313 317 1
316 317 1
318 319 1
318 320 1
319 320 1
321 322 1
323 324 1
143 325 1
143 326 1
143 327 1
325 326 1
325 181 1
325 327 1
326 181 1
326 327 1
181 327 1
328 329 1
328 330 1
328 112 1
328 47 1
329 330 1
329 112 1
329 47 1
330 112 1
330 47 1
331 332 1
331 333 1
331 334 1
331 335 1
332 333 1
332 334 1
332 335 1
333 334 1
333 335 1
334 335 1
336 337 1
338 339 1
338 340 1
339 340 1
341 342 1
343 344 1
343 345 1
343 346 1
344 345 1
344 346 1
345 346 1
347 180 1
79 348 1
349 350 1
351 352 1
351 353 1
352 353 1
354 355 1
356 357 1
358 359 1
358 360 1
359 360 1
361 362 1
363 364 1
363 365 1
364 365 1
366 367 2
368 369 1
370 371 1
372 373 1
41 374 1
79 375 1
79 376 1
375 376 1
377 378 1
377 379 1
378 379 1
380 371 1
381 382 1
383 384 1
383 385 1
383 386 1
383 387 1
384 385 1
384 386 1
384 387 1
385 386 1
385 387 1
386 387 4
388 389 1
388 386 1
388 387 1
389 386 1
389 387 1
390 391 1
390 386 1
390 387 1
391 386 2
391 387 1
323 392 1
393 72 2
393 330 2
393 394 2
72 330 2
72 394 2
330 394 3
395 396 1
395 47 2
396 47 1
397 398 1
397 399 1
397 297 1
397 400 1
397 401 1
398 399 1
398 297 1
398 400 1
398 401 1
399 297 1
399 400 1
399 401 1
297 400 1
297 401 1
400 401 1
393 402 1
393 403 1
330 402 1
330 403 1
402 403 1
402 72 1
402 394 1
403 72 1
403 394 1
404 405 1
404 406 1
405 406 1
79 407 1
408 78 1
409 410 1
170 177 1
411 412 1
411 413 1
412 413 1
177 414 1
415 416 1
417 418 1
417 419 1
418 419 1
420 421 1
422 387 1
423 424 4
423 425 1
424 425 1
426 427 1
428 429 1
428 430 1
428 431 1
428 432 1
429 430 1
429 431 1
429 432 1
430 431 1
430 432 1
431 432 1
433 434 1
433 435 1
433 436 1
434 435 1
434 436 1
435 436 1
437 438 1
439 440 1
439 441 1
439 442 1
439 443 1
440 441 1
440 442 1
440 443 1
441 442 1
441 443 1
442 443 1
444 445 1
444 446 1
444 447 1
445 446 1
445 447 1
446 447 1
448 449 1
450 451 1
452 451 2
453 454 1
453 455 1
453 456 1
453 457 1
453 458 1
453 459 1
454 455 1
454 456 1
454 457 1
454 458 1
454 459 1
455 456 1
455 457 1
455 458 1
455 459 1
456 457 1
456 458 1
456 459 1
457 458 1
457 459 1
458 459 1
460 461 1
460 462 1
460 463 1
461 462 1
461 463 1
462 463 1
464 465 1
464 466 1
464 467 1
464 379 1
464 468 1
465 466 1
465 467 1
465 379 1
465 468 1
466 467 1
466 379 1
466 468 1
467 379 1
467 468 1
379 468 1
469 149 1
469 87 1
469 130 1
469 156 2
469 470 1
469 471 1
149 87 1
149 130 1
149 156 1
149 470 1
149 471 1
87 130 1
87 156 1
87 470 1
87 471 1
130 156 1
130 470 1
130 471 1
156 470 1
156 471 1
470 471 1
472 473 1
472 464 1
472 474 1
472 475 1
473 464 1
473 474 1
473 475 1
464 474 1
464 475 1
474 475 1
55 165 1
55 476 1
55 477 1
55 87 1
55 57 1
55 478 1
55 140 1
165 476 1
165 477 1
165 87 1
165 57 1
165 478 1
165 140 1
476 477 1
476 87 1
476 57 1
476 478 1
476 140 1
477 87 1
477 57 1
477 478 1
477 140 1
87 57 1
87 478 1
87 140 1
57 478 1
57 140 1
478 140 1
479 47 1
479 480 1
479 410 1
47 480 1
47 410 1
480 410 1
481 482 1
481 73 1
481 483 1
481 424 1
481 476 1
481 351 1
482 73 1
482 483 1
482 424 1
482 476 1
482 351 1
73 483 1
73 424 1
73 476 1
73 351 1
483 424 1
483 476 1
483 351 1
424 476 1
424 351 1
476 351 1
484 485 1
57 486 1
250 153 1
469 487 1
469 488 1
469 157 1
469 489 1
469 490 1
156 487 1
156 488 1
156 489 1
156 490 1
487 488 1
487 157 2
487 489 1
487 490 1
488 157 1
488 489 1
488 490 1
157 489 1
157 490 1
489 490 1
491 492 1
491 493 1
492 493 1
487 165 1
165 157 1
494 60 1
494 495 1
60 495 1
496 237 1
497 498 1
499 122 1
500 501 1
502 251 1
503 504 1
503 505 1
504 505 1
506 507 1
506 508 1
507 508 1
509 510 1
511 512 1
513 514 1
513 444 1
514 444 1
184 515 2
184 516 1
515 516 1
55 470 1
517 165 1
518 519 3
520 521 1
421 522 1
140 523 1
121 524 1
525 526 1
527 221 1
528 529 1
528 530 1
529 530 1
421 531 1
502 371 1
532 533 1
534 452 1
534 535 1
534 451 1
534 87 1
534 536 1
452 535 1
452 87 1
452 536 1
535 451 1
535 87 1
535 536 1
451 87 1
451 536 1
87 536 1
537 538 3
537 539 1
537 73 2
538 539 1
538 73 2
539 73 1
540 29 1
250 541 1
542 158 1
543 544 3
543 545 3
544 545 3
208 546 1
547 548 1
547 549 1
548 549 1
550 551 1
552 472 1
132 553 1
554 190 1
202 140 1
520 555 1
556 187 1
557 558 2
559 560 1
559 561 1
559 562 1
560 561 1
560 562 1
561 562 1
563 564 1
565 566 1
567 568 1
569 570 2
571 106 2
571 297 2
106 297 2
168 572 1
168 573 1
572 573 1
168 574 1
168 575 1
168 576 1
169 574 1
169 575 1
169 576 1
574 575 1
574 576 1
575 576 1
577 578 1
579 580 1
581 233 1
581 582 1
233 582 1
583 584 1
585 380 1
585 586 1
380 586 1
587 588 1
589 590 1
589 591 1
590 591 1
589 592 1
589 593 1
592 593 1
594 595 2
518 596 1
596 519 1
518 597 1
597 519 1
598 599 1
598 578 2
599 578 1
600 601 1
602 603 1
604 605 1
606 607 1
57 608 1
57 609 1
57 610 1
57 611 1
610 611 1
612 548 1
613 614 1
615 616 1
617 618 1
619 620 1
619 621 1
620 621 1
622 623 1
624 625 1
624 626 1
625 626 1
627 628 1
627 629 1
628 629 1
211 78 1
630 221 2
630 631 1
630 311 1
221 631 1
221 311 1
631 311 1
632 633 1
632 634 1
632 635 1
633 634 1
633 635 1
634 635 1
79 636 1
636 212 1
637 638 1
637 639 1
638 639 1
640 78 1
641 642 1
641 643 1
642 643 2
644 645 1
644 300 1
645 300 1
500 646 1
423 647 1
424 647 1
648 649 1
212 650 1
650 79 1
212 651 1
212 652 1
651 652 1
212 653 1
653 79 1
654 655 1
656 657 1
656 658 1
656 659 1
656 660 1
657 658 1
657 659 1
657 660 1
658 659 1
658 660 1
659 660 1
311 661 1
311 662 1
661 662 1
558 663 1
663 557 1
664 665 1
664 666 1
664 667 1
664 668 1
665 666 1
665 667 1
665 668 1
666 667 1
666 668 1
667 668 1
168 669 1
168 469 1
168 500 1
168 648 1
669 469 1
669 500 1
669 648 1
469 500 1
469 648 1
500 648 1
670 671 1
670 672 1
671 672 1
673 2034 1
675 676 1
601 677 1
678 679 1
678 680 1
678 681 1
679 680 1
679 681 1
680 681 1
682 643 1
683 684 1
683 685 1
684 685 1
686 687 1
688 689 1
688 690 1
689 690 1
691 692 1
691 548 1
692 548 1
124 693 1
139 693 1
330 694 1
330 91 3
694 91 1
694 394 1
91 394 2
695 696 1
697 698 1
697 110 1
698 110 1
699 700 1
699 288 1
700 288 1
701 702 1
701 703 1
701 704 1
702 703 1
702 704 1
703 704 1
705 706 1
705 707 1
706 707 1
442 708 1
442 709 3
442 710 2
708 709 1
708 710 1
709 710 2
711 712 1
713 267 1
714 715 1
716 717 2
718 719 1
718 720 1
719 720 1
687 721 1
722 723 1
722 724 1
723 724 1
725 726 1
725 74 1
725 727 1
726 74 1
726 727 1
74 727 1
728 695 1
509 501 1
509 729 1
501 729 1
730 731 1
732 733 1
732 734 1
733 734 1
248 735 1
248 736 1
248 737 1
248 738 1
248 739 1
248 740 1
248 741 1
735 736 1
735 737 1
735 738 1
735 739 1
735 740 1
735 741 1
736 737 1
736 738 1
736 739 1
736 740 1
736 741 1
737 738 1
737 739 1
737 740 1
737 741 1
738 739 1
738 740 1
738 741 1
739 740 1
739 741 1
740 741 1
742 468 2
743 427 1
744 745 1
746 371 1
747 250 1
747 748 1
747 749 1
250 748 1
250 749 1
748 749 1
750 751 1
752 753 1
754 755 1
756 757 1
756 758 1
756 759 1
756 760 1
757 758 1
757 759 1
757 760 1
758 759 1
758 760 1
759 760 1
761 762 1
763 764 1
763 765 1
764 765 1
766 767 1
768 769 1
768 770 1
769 770 1
184 771 1
547 772 1
515 773 1
773 184 2
774 775 1
776 777 1
776 778 1
776 779 1
777 778 1
777 779 1
778 779 1
780 781 1
609 782 1
783 784 1
450 250 1
450 514 1
250 514 1
153 785 5
786 262 1
787 788 1
789 790 1
791 792 1
791 793 1
791 794 1
791 795 1
791 424 1
792 793 1
792 794 1
792 795 1
792 424 1
793 794 1
793 795 1
793 424 1
794 795 1
794 424 1
795 424 1
796 797 3
642 798 1
798 643 1
799 800 1
801 802 1
803 250 1
804 805 1
804 806 1
805 806 2
807 611 1
807 808 1
611 808 1
773 809 1
773 810 2
809 184 1
809 810 1
184 810 1
811 812 1
813 814 1
813 815 1
814 815 1
816 817 1
535 818 2
535 463 2
818 463 2
819 772 1
820 821 1
820 822 1
821 822 1
823 824 1
825 422 1
826 827 1
826 749 1
827 749 2
828 427 1
829 830 1
829 831 1
830 831 1
832 833 1
834 835 1
836 837 1
838 514 1
839 840 3
841 842 2
843 140 1
844 845 1
844 846 1
845 846 1
498 847 1
848 849 1
850 851 1
852 853 1
402 389 1
402 91 1
389 91 1
538 854 2
538 855 1
538 856 1
538 857 1
854 537 1
854 855 1
854 856 1
854 857 1
537 855 1
537 856 1
537 857 1
855 856 1
855 857 1
856 857 1
858 859 1
860 861 1
860 486 1
860 862 1
861 486 1
861 862 1
486 862 1
863 35 1
184 864 1
865 866 1
867 868 1
149 869 1
149 870 1
869 870 1
746 871 2
872 873 1
872 874 1
873 874 1
875 876 1
877 878 1
879 880 1
881 558 1
882 563 1
883 884 1
885 886 1
885 887 1
885 888 1
885 889 1
885 890 1
886 887 1
886 888 1
886 889 1
886 890 1
887 888 1
887 889 1
887 890 1
888 889 1
888 890 1
889 890 1
258 891 1
563 892 2
887 893 1
558 894 1
895 896 1
897 898 1
899 78 1
900 110 1
901 902 1
903 110 1
391 904 1
386 904 1
905 768 1
906 907 1
379 805 1
908 599 2
909 770 1
910 379 1
911 912 1
79 913 1
598 914 1
914 578 1
915 110 1
916 917 1
918 919 1
920 921 1
922 599 1
923 924 1
923 925 1
924 925 1
926 927 1
906 928 1
929 930 1
929 931 1
930 931 1
827 932 1
451 933 1
934 935 1
936 937 1
936 938 1
937 938 1
686 752 1
939 940 1
939 941 1
939 942 1
939 943 1
939 944 1
939 945 1
940 941 1
940 942 1
940 943 1
940 944 1
940 945 1
941 942 1
941 943 1
941 944 1
941 945 1
942 943 1
942 944 1
942 945 1
943 944 1
943 945 1
944 945 1
946 947 1
946 948 1
947 948 1
423 949 1
424 949 1
950 951 2
950 952 1
950 953 1
950 954 2
950 955 1
951 952 1
951 953 1
951 954 1
951 955 1
952 953 1
952 954 1
952 955 1
953 954 1
953 955 1
954 955 1
753 956 1
957 958 1
957 959 1
958 959 1
960 423 1
961 962 1
961 963 1
961 964 1
962 963 1
962 964 1
963 964 1
965 55 1
911 966 1
911 967 1
966 967 1
958 476 1
968 969 2
968 970 1
969 970 1
971 972 1
971 973 1
971 974 1
972 973 1
972 974 1
973 974 1
520 975 1
520 976 1
975 976 1
977 200 1
422 978 1
422 979 1
422 980 1
978 979 1
978 980 1
979 980 1
981 982 1
981 983 1
981 984 1
982 983 1
982 984 1
983 984 1
520 985 1
520 986 1
985 986 1
987 988 1
987 547 1
988 547 2
207 989 1
990 991 1
990 561 1
991 561 1
968 992 1
969 992 1
993 994 1
993 995 1
994 995 1
996 997 1
996 998 1
996 31 1
997 998 1
997 31 1
998 31 1
999 1000 1
1001 1002 1
1003 840 1
1003 839 1
1004 1005 1
1006 1007 1
1006 1008 1
1007 1008 1
1009 1010 1
1009 1011 1
1010 1011 1
828 1012 1
1013 535 1
1014 717 1
1014 716 1
1014 1015 1
717 1015 1
716 1015 1
1016 434 1
1016 351 1
1016 1017 1
1016 1018 1
434 351 1
434 1017 1
434 1018 1
351 1017 1
351 1018 1
1017 1018 1
1019 1020 1
1021 622 1
1021 1022 1
1021 1023 1
1021 1024 1
622 1022 1
622 1023 1
622 1024 1
1022 1023 1
1022 1024 1
1023 1024 1
537 1025 1
1026 1027 1
502 1028 1
502 1029 1
1028 1029 1
1030 1031 2
1030 1032 2
1031 1032 2
450 881 1
450 1033 1
450 1034 1
450 1035 1
881 1033 1
881 1034 1
881 1035 1
1033 1034 1
1033 1035 1
1034 1035 1
796 1036 1
1036 797 1
1037 1038 1
1037 1039 1
1038 1039 1
144 1040 1
1041 1042 1
1043 533 1
1044 1045 1
1044 1046 1
1044 738 1
1045 1046 1
1045 738 1
1046 738 1
1047 1048 1
1047 1049 1
1047 1050 1
1048 1049 1
1048 1050 1
1049 1050 1
1051 1052 1
1053 709 1
1053 442 2
1054 1055 1
1056 1057 1
1058 1059 1
1060 451 1
1060 1061 1
451 1061 1
840 1062 1
839 1062 1
1063 630 1
1063 221 1
1063 1064 1
630 1064 1
221 1064 1
715 1065 1
450 1066 1
450 1067 1
1066 1067 1
1068 1069 1
1070 1071 1
1072 1073 1
1074 1075 1
1074 1076 1
1075 1076 1
1077 1078 1
1079 1080 1
1081 1082 1
1051 1083 2
1084 1085 1
1084 801 1
1085 801 1
1086 35 1
1087 1088 1
1089 1090 1
1091 1092 1
1091 1093 1
1092 1093 1
858 1094 2
1095 1096 1
1097 1098 1
1099 1100 1
1099 1101 1
1100 1101 1
535 1102 1
1102 818 1
1102 463 1
1103 1104 1
594 1105 1
1105 595 1
1106 1107 1
1106 1108 1
1107 1108 1
1109 1110 1
1111 1112 1
1113 1114 1
1115 858 2
1116 1117 1
1116 136 2
1117 136 1
1118 1119 1
1120 1121 1
1120 864 1
1121 864 1
1122 1123 1
1122 1124 1
1123 1124 1
1125 1126 1
1125 804 1
1125 1127 1
1125 1128 1
1125 1129 1
1125 1130 1
1126 804 1
1126 1127 1
1126 1128 1
1126 1129 1
1126 1130 1
804 1127 1
804 1128 1
804 1129 1
804 1130 2
1127 1128 1
1127 1129 1
1127 1130 1
1128 1129 1
1128 1130 1
1129 1130 1
1131 184 1
1130 1132 1
1130 1133 1
804 1132 1
804 1133 1
1132 1133 1
871 1134 1
871 1135 1
871 1136 1
1134 1135 1
1134 1136 1
1135 1136 1
1137 1138 1
1139 1140 1
1139 742 1
1139 1141 1
1139 1142 1
1139 468 1
1140 742 1
1140 1141 1
1140 1142 1
1140 468 1
742 1141 1
742 1142 1
1141 1142 1
1141 468 1
1142 468 1
1143 1144 2
1145 1146 1
615 1147 1
615 1148 1
1147 1148 1
1144 1149 1
1143 1149 1
1150 1033 1
1151 1152 1
1153 1154 3
749 1155 1
827 1155 1
1156 87 2
1157 1158 1
1159 1160 1
697 1161 1
1162 1163 1
1164 1165 1
1166 1167 1
1166 1168 1
1167 1168 1
1169 1170 1
1171 1172 1
1171 176 1
1172 176 1
697 1173 1
697 1174 1
1173 1174 1
622 1175 1
622 252 1
1175 252 1
1176 827 1
1176 514 1
827 514 1
229 1177 1
1178 563 1
547 1179 1
988 1179 1
1180 1181 1
466 1182 1
466 1183 1
1182 1183 1
772 1184 1
1185 1186 1
1187 1188 1
1187 1189 1
1187 1190 1
1188 1189 1
1188 1190 1
1189 1190 1
1191 1192 1
1193 1194 1
1193 1195 1
1194 1195 1
1196 1197 1
907 1198 1
907 1199 1
1200 1201 1
1200 1202 1
1201 1202 1
1203 72 1
1204 1205 1
1206 79 3
1207 1208 1
1207 1209 1
1208 1209 1
1210 1211 1
1212 1213 1
1214 1215 1
1214 1216 1
1214 1217 1
1214 850 1
1214 1218 1
1215 1216 1
1215 1217 1
1215 850 1
1215 1218 1
1216 1217 1
1216 850 1
1216 1218 1
1217 850 1
1217 1218 1
850 1218 1
426 1219 1
1220 1221 1
872 1222 1
648 1223 1
648 1224 1
1223 1224 1
1225 746 1
1225 1226 1
746 1226 1
1227 1228 1
1227 1229 1
1228 1229 1
1230 1231 1
1230 1232 1
1231 1232 1
1033 1233 1
1234 595 1
1234 1235 1
595 1235 1
487 836 2
1236 742 1
1236 1237 1
742 1237 1
1238 993 1
1239 1145 1
1240 1241 1
1240 1242 1
1240 430 1
1241 1242 1
1241 430 1
1242 430 1
1243 1221 1
711 1244 2
1221 1245 1
1246 1247 1
1246 595 1
1247 595 1
1248 1249 1
1250 79 4
1250 1206 1
1251 762 1
596 1252 1
572 1253 1
372 184 1
372 1254 1
372 1255 1
184 1254 1
184 1255 1
1254 1255 1
1256 1196 1
1257 1258 1
1259 762 1
1260 91 1
1261 1203 1
395 1262 1
1263 78 1
1264 1265 2
1266 153 3
1266 785 1
1267 1268 1
1267 1269 2
1268 1269 1
1270 895 1
1271 1272 1
1271 1273 1
1272 1273 1
1274 533 1
145 1275 1
1276 1277 1
472 1278 1
1279 895 1
1280 1281 1
1282 1283 1
1282 1191 1
1282 1284 1
1282 1285 1
1282 599 1
1283 1191 1
1283 1284 1
1283 1285 1
1283 599 1
1191 1284 1
1191 1285 1
1191 599 1
1284 1285 1
1284 599 1
1285 599 1
1286 1287 1
1288 1289 1
1288 1290 1
1289 1290 1
1291 1292 1
1291 1293 1
1292 1293 1
1294 599 1
1295 212 1
1296 372 1
1297 563 1
1298 1299 1
1300 1301 1
1302 1303 1
1302 797 2
1303 797 1
1304 1305 1
1068 1306 1
1307 1308 1
558 1309 1
1310 1123 1
1310 390 1
1310 1311 1
1310 140 1
1310 1312 1
1123 390 1
1123 1311 1
1123 140 1
1123 1312 1
390 1311 1
390 140 1
390 1312 1
1311 140 1
1311 1312 1
140 1312 1
470 448 1
470 1313 1
470 1314 1
448 1313 1
448 1314 1
1313 1314 1
601 1315 1
601 1316 1
1315 1316 1
1317 601 1
1317 1318 1
601 1318 1
1319 1170 1
1320 1321 1
1322 1323 1
1324 1098 1
1325 537 1
1326 1327 1
1328 1329 1
1330 1098 1
1331 1332 3
803 1333 1
1334 1335 1
1336 736 1
845 1337 1
1338 1339 1
1340 993 1
608 1341 1
608 1342 1
1341 1342 1
1343 993 1
1343 808 1
993 808 2
1344 442 1
1344 1345 1
442 1345 1
1346 768 1
1347 1348 1
1349 742 1
1349 1350 1
1349 1351 2
742 1350 1
742 1351 1
1350 1351 1
1068 1352 1
1353 423 1
1353 1354 1
423 1354 1
1355 1356 1
1355 1357 2
1355 1358 2
1356 1357 1
1356 1358 1
1357 1358 2
1359 1360 1
1361 253 1
1361 1362 1
253 1362 2
1363 1364 1
1365 1366 1
1365 1367 1
1365 1368 1
1365 1369 1
1366 1367 1
1366 1368 1
1366 1369 1
1367 1368 1
1367 1369 1
1368 1369 1
1370 1371 1
1370 1372 1
1370 1373 1
1371 1372 1
1371 1373 1
1372 1373 1
1374 1375 1
1376 1377 1
1376 1018 1
1377 1018 1
1378 1379 1
1378 1380 1
1379 1380 1
1381 1382 1
1383 725 1
1383 1384 1
1383 1385 1
1383 1386 1
725 1384 1
725 1385 1
725 1386 1
1384 1385 1
1384 1386 1
1385 1386 1
1387 47 1
1388 1051 1
1389 1390 1
1391 1389 2
1026 1392 1
1026 1393 1
1392 1393 1
1151 1394 2
1395 1396 1
1395 527 1
1396 527 1
538 1397 1
1397 854 1
1398 1399 1
1398 451 1
1399 451 1
1400 1269 1
1401 1402 1
1403 993 1
1404 1405 2
1406 1407 1
1408 451 2
1408 1409 1
451 1409 1
1410 73 1
1411 1412 1
1411 1413 1
1412 1413 1
537 1414 1
1414 538 1
1414 73 1
1415 1416 1
1417 1416 2
1417 1418 1
1416 1418 1
1419 535 1
1420 1421 1
436 55 2
450 1422 1
450 1423 1
1422 1423 1
514 1424 1
1425 1426 1
483 1427 1
483 1428 1
1427 1428 1
1429 1430 1
1429 1431 1
1430 1431 1
1432 709 1
1433 1434 1
1435 1436 1
1435 1437 1
1436 1437 1
1438 1439 1
1438 1440 1
1438 1441 1
1439 1440 1
1439 1441 1
1440 1441 1
1442 1443 1
960 1444 1
960 1445 1
960 1446 1
960 1447 1
1444 1445 1
1444 1446 1
1444 1447 1
1445 1446 1
1445 1447 1
1446 1447 1
1448 1449 1
1264 502 1
502 1265 1
1450 72 1
1451 1452 1
1453 1454 1
1453 1455 1
1454 1455 1
486 1456 1
486 1457 1
1456 1457 1
1355 1458 1
1458 1357 1
1458 1358 1
1459 1460 1
1461 1462 1
1408 1463 1
1463 451 1
1464 1465 1
1464 1466 1
1465 1466 1
1467 1468 1
1469 1470 1
1006 1471 2
841 1472 1
841 1473 1
841 1474 1
841 1475 1
1472 1473 1
1472 1474 1
1472 1475 1
1473 1474 1
1473 1475 1
1474 1475 1
811 1476 1
811 1477 1
811 1478 1
811 1479 1
1476 1477 1
1476 1478 1
1476 1479 1
1477 1478 1
1477 1479 1
1478 1479 1
1480 1481 1
1482 1483 1
1482 1484 1
1482 1485 1
1483 1484 1
1483 1485 1
1484 1485 1
1486 1487 1
1486 1488 1
1487 1488 1
1489 1490 1
1489 1491 1
1489 825 1
1489 1492 1
1489 1493 1
1489 1494 1
1490 1491 1
1490 825 1
1490 1492 1
1490 1493 1
1490 1494 1
1491 825 1
1491 1492 1
1491 1493 1
1491 1494 1
825 1492 1
825 1493 1
825 1494 1
1492 1493 1
1492 1494 1
1493 1494 1
1495 1496 1
1497 1498 1
1497 1499 1
1498 1499 1
1500 969 1
1501 1502 1
1503 1350 1
1503 1504 1
1350 1504 1
1505 1506 1
1507 1508 1
1507 1509 1
1508 1509 1
200 1510 1
1511 1512 1
1513 1514 1
1513 1515 1
1514 1515 1
1516 1517 1
1516 1518 1
1517 1518 1
1519 1051 1
1520 1521 1
648 1522 1
1523 35 1
1524 993 1
1364 1525 1
1364 1526 1
1525 1526 1
1527 1528 1
1527 1529 1
1528 1529 1
978 1530 1
1531 535 1
1532 1533 1
1532 1534 1
1533 1534 1
1225 871 1
1535 1416 1
803 1536 1
1537 1538 1
772 1539 1
1524 1540 1
1524 808 1
1540 808 1
1541 1542 1
1543 1544 1
1543 1545 2
1544 1545 1
1546 1547 2
1548 1549 1
1548 1156 1
1549 1156 2
1550 772 1
1551 796 1
1551 1302 1
1551 797 1
796 1302 1
1552 1553 1
1552 1554 2
1552 1555 2
1553 1554 1
1553 1555 1
1554 1555 2
1556 1557 1
1556 1558 1
1557 1558 1
1559 1098 1
1560 1561 1
1560 1418 1
1561 1418 1
1562 1563 1
1564 1565 1
1566 1567 1
845 1568 1
845 1569 1
1568 1569 1
1570 1571 1
832 1122 1
1572 1573 1
1572 1574 1
1573 1574 1
1575 1398 1
1576 1577 1
1578 1579 1
1580 35 1
1581 709 1
1582 509 2
1583 1584 1
1583 1585 1
1584 1585 1
1586 648 1
1587 1588 1
1587 267 1
1588 267 1
1589 1590 1
1591 1592 1
1593 1594 1
1593 1595 1
1593 1596 1
1594 1595 1
1594 1596 1
1595 1596 1
1597 1141 1
1598 1599 1
1598 1600 1
1598 1601 1
1599 1600 1
1599 1601 1
1600 1601 1
1123 1602 1
1603 872 1
1604 1605 1
1606 1607 1
1608 1230 1
1608 1347 1
1230 1347 1
1609 1610 1
1609 1611 1
1610 1611 1
1612 1449 1
1612 1613 1
1449 1613 1
993 1614 1
808 1614 1
1615 1616 1
1615 1617 1
1616 1617 1
1618 1619 1
1618 1620 1
1618 1621 1
1619 1620 1
1619 1621 1
1620 1621 1
1622 1623 1
1624 871 1
1625 1626 1
1627 1628 1
1629 1630 2
1629 630 2
1630 630 3
1631 110 1
1632 1633 1
1006 1634 1
1006 1635 1
1471 1634 1
1471 1635 1
1634 1635 1
1636 396 1
1637 1638 1
1637 578 1
1638 578 1
1639 1640 1
1641 907 1
1642 386 1
1642 387 1
1643 1644 1
1645 1290 1
1646 1630 1
1646 630 1
1641 1647 1
711 1648 1
711 1649 1
1648 1244 1
1648 1649 1
1244 1649 1
1650 1651 1
1652 1650 1
1653 1387 1
1654 1655 1
1654 1656 1
1655 1656 1
1657 1658 1
1659 1442 1
1660 1661 1
1662 1663 1
1662 1664 1
1663 1664 1
1665 1666 1
1665 1667 1
1666 1667 1
1331 1668 1
1668 1332 1
1669 1670 1
1669 1671 1
1670 1671 1
1672 1673 1
1300 1674 2
1675 1676 1
1677 502 2
1678 1679 1
1680 1264 1
1681 1271 1
1682 448 1
1683 1684 1
803 1685 1
1686 533 1
1687 1688 1
1687 1053 1
1687 1345 1
1688 1053 1
1688 1345 2
1053 1345 1
79 1689 1
1690 1691 1
1692 1693 1
1692 1694 1
1692 1695 1
1692 1696 1
1692 1697 1
1693 1694 1
1693 1695 1
1693 1696 1
1693 1697 1
1694 1695 1
1694 1696 1
1694 1697 1
1695 1696 1
1695 1697 1
1696 1697 1
1698 1699 1
1698 1700 1
1699 1700 1
1701 1702 1
1701 1703 1
1702 1703 1
450 74 1
1357 1704 1
1357 1705 1
1357 1706 1
1357 1707 1
1704 1705 1
1704 1706 1
1704 1707 1
1705 1706 1
1705 1707 1
1706 1707 1
153 1708 1
1708 1266 1
648 1709 1
1710 1711 1
1712 1713 2
1714 1715 1
1714 1687 1
1715 1687 1
1716 1717 1
31 1718 2
1719 1720 1
1721 1714 1
1721 1722 1
1721 1723 1
1721 1053 1
1714 1722 1
1714 1723 1
1714 1053 1
1722 1723 1
1722 1053 1
1723 1053 1
1724 1725 1
1724 948 1
1725 948 1
1726 1727 1
1726 1728 1
1726 1729 1
1726 1730 1
1726 1731 1
1727 1728 1
1727 1729 1
1727 1730 1
1727 1731 1
1728 1729 1
1728 1730 1
1728 1731 1
1729 1730 1
1729 1731 1
1730 1731 1
1732 1733 1
1734 1735 1
1734 1736 1
1734 1737 1
1735 1736 1
1735 1737 1
1736 1737 1
1738 1739 1
1738 1740 1
1738 1741 1
1738 1742 1
1738 1743 1
1739 1740 1
1739 1741 1
1739 1742 1
1739 1743 1
1740 1741 1
1740 1742 1
1740 1743 1
1741 1742 1
1741 1743 1
1742 1743 1
1744 1745 1
1744 1746 1
1745 1746 1
1747 1487 1
1747 1748 1
1487 1748 1
1749 1750 1
1749 1751 1
1750 1751 1
1752 1753 1
1752 1754 1
1752 1755 1
1753 1754 1
1753 1755 1
1754 1755 1
1051 1756 1
500 47 2
500 1757 1
198 1758 1
1759 1338 1
1759 1760 1
1338 1760 1
1761 1762 1
1763 1764 3
1765 1766 1
1767 1768 2
1769 1770 1
1769 1771 1
1770 1771 1
1772 1773 1
1774 1775 1
1774 1776 1
1774 1777 1
1775 1776 1
1775 1777 1
1776 1777 1
1778 1779 1
1780 1781 1
1782 1783 1
1334 1784 1
1785 768 1
1786 1787 1
1786 1788 1
1786 1789 1
1787 1788 1
1787 1789 1
1788 1789 1
1790 1791 1
1792 1793 1
1792 1794 1
1793 1794 1
1795 1796 1
1795 1797 1
1796 1797 1
1798 1799 1
1798 1800 1
1799 1800 1
1801 1802 1
1803 1804 1
1805 1806 1
1807 1808 1
1809 825 1
1810 1811 1
1812 1813 1
1814 1815 1
1816 1817 1
1818 288 1
1818 1819 1
288 1819 1
1820 1821 1
1820 1822 1
1821 1822 1
1823 1824 1
1823 1510 1
1824 1510 1
1825 1543 2
1825 1826 1
1825 1827 1
1543 1826 1
1543 1827 1
1826 1827 1
528 1828 1
528 1829 1
528 1830 1
1828 1829 1
1828 1830 1
1829 1830 1
1831 1832 1
1833 1834 1
1835 1836 1
1837 1838 1
1839 1840 1
1841 1842 1
1841 1843 1
1841 1844 1
1842 1843 1
1842 1844 1
1843 1844 1
1008 1845 2
1661 1846 1
1847 1848 1
1849 1850 1
1383 950 1
1713 950 1
1713 1851 1
950 1851 1
950 1712 1
1851 1712 1
1852 1853 1
1852 1854 1
1852 1855 1
1853 1854 1
1853 1855 1
1854 1855 1
1856 1156 1
1856 1300 1
1156 1300 1
1857 1858 1
237 1859 1
237 1860 1
237 1717 1
1859 1860 1
1859 1717 1
1860 1717 1
1861 1862 1
1863 1864 1
1863 1865 1
1863 1866 1
1863 1867 1
1863 1868 1
1863 1869 1
1864 1865 1
1864 1866 1
1864 1867 1
1864 1868 1
1864 1869 1
1865 1866 1
1865 1867 1
1865 1868 1
1865 1869 1
1866 1867 1
1866 1868 1
1866 1869 1
1867 1868 1
1867 1869 1
1868 1869 1
1870 1871 1
450 1872 1
450 1873 1
1872 1873 1
1874 74 1
1874 1875 1
1874 1876 1
74 1875 1
74 1876 1
1875 1876 1
436 1877 2
1878 950 1
1878 954 1
1879 951 1
1879 950 1
1880 451 1
726 1016 1
726 1881 1
1016 1881 1
1882 1883 1
1884 1885 1
1884 1886 1
1885 1886 1
1887 535 1
1887 1888 1
535 1888 1
871 715 1
871 1888 1
715 1888 1
1889 1890 1
436 709 1
55 709 1
55 1877 1
709 1877 1
1891 1892 1
1891 1893 1
1892 1893 1
1894 1895 1
1896 1897 1
1898 1899 1
1900 1901 1
1902 957 1
1902 1903 1
957 1903 1
1344 1714 1
1904 1905 1
1904 1053 1
1904 1906 1
1904 958 1
1905 1053 1
1905 1906 1
1905 958 1
1053 1906 1
1053 958 1
1906 958 1
1907 1908 1
1907 1909 2
1907 1910 2
1907 1554 1
1907 1552 1
1907 1555 2
1908 1909 1
1908 1910 1
1908 1554 1
1908 1552 1
1908 1555 1
1909 1910 2
1909 1554 1
1909 1552 1
1909 1555 2
1910 1554 1
1910 1552 1
1910 1555 2
1911 1912 1
1913 1857 1
463 1914 1
87 1549 1
1915 1916 1
1917 1918 1
1760 1919 1
1920 1921 1
487 1922 1
1922 836 1
1923 1924 1
1925 1926 1
1927 1928 1
1929 1930 1
1931 1932 1
1933 1934 1
1933 1935 1
1933 1936 1
1935 1936 1
1937 1938 1
1937 1939 1
1938 1939 1
1940 1941 1
1940 1942 1
1941 1942 1
767 1943 1
767 1944 1
767 1945 1
767 1946 1
1943 1944 1
1943 1945 1
1943 1946 1
1944 1945 1
1944 1946 1
1945 1946 1
1947 1948 1
1947 1949 1
1947 1950 1
1948 1949 1
1948 1950 1
1949 1950 1
1951 1952 1
1714 1688 1
1714 1345 1
1953 1954 1
1955 1956 1
1957 1958 1
1959 1960 1
1961 1962 1
1961 1963 1
1961 1678 1
1962 1963 1
1962 1678 1
1963 1678 1
1964 1965 1
1966 1967 1
1966 1968 1
1967 1968 1
1969 1970 1
1969 1971 1
1970 1971 1
1972 250 1
1973 1974 1
1973 1975 1
1973 1976 1
1974 1975 1
1974 1976 1
1975 1976 1
1977 1978 1
1979 1980 1
1981 1966 1
1981 1982 1
1981 1983 1
1981 1984 1
1981 1985 1
1981 1986 1
1981 1987 1
1966 1982 1
1966 1983 1
1966 1984 1
1966 1985 1
1966 1986 1
1966 1987 1
1982 1983 1
1982 1984 1
1982 1985 1
1982 1986 1
1982 1987 1
1983 1984 1
1983 1985 1
1983 1986 1
1983 1987 1
1984 1985 1
1984 1986 1
1984 1987 1
1985 1986 1
1985 1987 1
1986 1987 1
1988 1989 1
1988 1990 1
1988 1991 1
1988 1992 1
1989 1990 1
1989 1991 1
1989 1992 1
1990 1991 1
1990 1992 1
1991 1992 1
1993 1994 1
1995 1996 1
1997 1998 1
1997 1999 1
1997 2000 1
1997 2001 1
1998 1999 1
1998 2000 1
1998 2001 1
1999 2000 1
1999 2001 1
2000 2001 1
2002 2003 1
2002 1740 1
2003 1740 1
2004 2005 1
2006 2007 1
2008 2009 1
2010 2011 1
902 2012 1
2013 1258 1
2014 2015 1
2016 2017 1
2016 2018 1
2016 2019 1
2017 2018 1
2017 2019 1
2018 2019 1
2020 2021 1
1507 2022 1
2023 1572 1
2024 916 1
2024 2025 1
2024 1395 1
916 2025 1
916 1395 1
2025 1395 1
2026 200 1
1718 840 1
2027 2028 1
2029 41 1
2030 2031 1
2032 2033 1
2032 2034 1
2033 2034 1
2035 2036 1
2037 2038 1
2039 2040 1
2039 2041 1
2040 2041 1
2042 2043 1
747 2044 2
747 2045 1
747 2046 1
747 2047 1
2044 2045 1
2044 2046 1
2044 2047 1
2045 2046 1
2045 2047 1
2046 2047 1
1852 2048 1
1852 561 1
1852 2049 1
2048 561 1
2048 2049 1
561 2049 1
2050 2051 1
1274 2052 1
2053 2054 1
2055 2011 1
2056 2057 1
2056 2058 1
2057 2058 1
502 2059 1
2059 1677 1
2060 563 1
2061 2062 1
1538 2063 1
2064 2065 1
2066 2067 1
2066 2068 1
2067 2068 1
558 2069 1
558 2070 1
558 2071 1
558 2072 1
2069 2070 1
2069 2071 1
2069 2072 1
2070 2071 1
2070 2072 1
2071 2072 1
2073 2074 1
2075 2076 1
2075 2077 1
2076 2077 1
2078 2079 2
2078 2080 1
2079 2080 1
2081 2082 1
2083 2084 1
2085 2086 2
2087 2088 1
2089 1894 1
2090 2091 1
153 2092 1
153 2093 1
785 2092 1
785 2093 1
2092 2093 1
2094 2095 1
2094 2096 1
2095 2096 1
825 2097 1
2098 422 1
2099 2100 1
2101 2102 1
2103 871 1
2104 79 1
2105 858 1
2106 87 1
2107 2108 1
2109 1543 1
2109 2110 1
1543 2110 1
2111 535 1
2112 2113 1
2112 2114 1
2113 2114 1
1095 2115 2
2116 463 1
2117 1549 1
803 2118 1
2119 2120 1
2119 2121 1
2120 2121 1
1140 2122 1
2123 1549 1
1097 2124 1
2125 2126 1
2125 1401 1
2126 1401 1
2127 2128 1
2127 2129 1
2127 2130 1
2128 2129 1
2128 2130 1
2129 2130 1
2131 2132 1
1415 1535 1
1415 2133 1
1415 2134 1
1535 2133 1
1535 2134 1
2133 2134 1
423 2135 1
1419 2136 1
2137 858 1
1545 2138 1
1545 2139 1
2138 2139 1
2138 1543 1
2139 1543 1
2140 2141 1
2140 1094 1
2141 1094 1
1404 2142 1
2142 1405 1
2143 1811 1
2144 2145 1
2146 2147 1
2148 2149 1
2150 1330 1
2151 1390 1
390 1922 1
2152 2153 1
2154 2155 1
2156 2157 1
2158 2159 1
1026 2160 1
2161 2113 1
2162 2113 1
2163 1811 1
2164 2165 1
2166 2167 1
2166 2168 1
2166 2169 1
2166 2170 1
2166 2171 1
2167 2168 1
2167 2169 1
2167 2170 1
2167 2171 1
2168 2169 1
2168 2170 1
2168 2171 1
2169 2170 1
2169 2171 1
2170 2171 1
2172 2173 1
1154 2174 1
1153 2174 1
2175 2176 1
2177 2178 1
2179 2180 2
2179 2181 1
2180 2181 1
2182 2183 1
2182 2184 1
2183 2184 1
2185 527 1
2186 238 1
2186 1395 1
2186 2187 1
238 1395 1
238 2187 1
1395 2187 1
2188 1390 1
711 2189 1
790 2190 1
2191 2192 1
2193 2194 1
2193 2195 1
2194 2195 1
2196 2065 1
2197 2198 1
2197 2199 1
2198 2199 1
2200 1683 1
2201 2202 1
2203 2204 1
2205 2206 1
2207 1962 1
2208 1304 1
1159 2209 1
2210 2211 1
2210 1222 1
2211 1222 1
2212 2194 1
2213 2214 1
1418 2215 1
1418 2216 1
2215 2216 1
1349 2217 1
1349 1504 1
2217 1351 1
2217 1504 1
1351 1504 1
2218 1650 1
2219 2220 1
2219 1069 1
2220 1069 1
1715 442 1
709 2221 1
2222 747 1
2223 2224 1
2225 2226 1
1807 2227 1
2228 993 1
1381 2229 1
1381 2230 1
2229 2230 1
2102 2231 1
1685 2102 1
2232 1161 1
2232 2233 1
1161 2233 1
2234 1733 1
2235 2236 1
2235 2237 1
2235 2238 1
2236 2237 1
2236 2238 1
2237 2238 1
2239 2240 1
2241 2242 1
2243 153 1
2243 2244 1
153 2244 1
711 2245 1
711 2246 1
2245 2246 1
2247 1141 1
2248 2249 1
2248 2250 1
2249 2250 1
2251 2252 1
2251 2253 1
2252 2253 1
2254 2255 1
2256 1194 1
2256 2257 1
2256 2258 1
1194 2257 1
1194 2258 1
2257 2258 1
2259 2260 1
2259 2261 1
2260 2261 1
2262 2263 1
2264 2265 1
1206 78 1
2266 2267 1
2266 2268 1
2267 2268 1
2269 2270 1
2269 2271 1
2270 2271 1
2272 2273 1
1250 2274 1
2274 79 1
2275 2276 1
2277 2278 1
